<?xml version="1.0" encoding="UTF-8" standalone="no"?>
<!-- Created with Inkscape (http://www.inkscape.org/) -->

<svg
   width="205.49231"
   height="132.27007"
   viewBox="0 0 54.369837 34.996456"
   version="1.1"
   id="svg5"
   inkscape:version="1.3.2 (091e20ef0f, 2023-11-25)"
   sodipodi:docname="prufer-original.svg"
   xmlns:inkscape="http://www.inkscape.org/namespaces/inkscape"
   xmlns:sodipodi="http://sodipodi.sourceforge.net/DTD/sodipodi-0.dtd"
   xmlns="http://www.w3.org/2000/svg"
   xmlns:svg="http://www.w3.org/2000/svg">
  <sodipodi:namedview
     id="namedview7"
     pagecolor="#ffffff"
     bordercolor="#666666"
     borderopacity="1.0"
     inkscape:pageshadow="2"
     inkscape:pageopacity="0.0"
     inkscape:pagecheckerboard="true"
     inkscape:document-units="px"
     showgrid="false"
     units="px"
     inkscape:showpageshadow="0"
     inkscape:deskcolor="#d1d1d1"
     inkscape:zoom="1.4805977"
     inkscape:cx="43.901188"
     inkscape:cy="60.110858"
     inkscape:window-width="1199"
     inkscape:window-height="977"
     inkscape:window-x="674"
     inkscape:window-y="45"
     inkscape:window-maximized="0"
     inkscape:current-layer="svg5" />
  <defs
     id="defs2">
    <inkscape:path-effect
       effect="skeletal"
       id="path-effect44"
       is_visible="true"
       lpeversion="1"
       pattern="m 156.26657,55.095518 c 9.44617,-0.38156 10.49078,7.81429 10.49078,7.81429"
       copytype="repeated_stretched"
       prop_scale="0.1"
       scale_y_rel="false"
       spacing="-0.8"
       normal_offset="0"
       tang_offset="0"
       prop_units="true"
       vertical_pattern="false"
       hide_knot="false"
       fuse_tolerance="1" />
  </defs>
  <path
     style="fill:none;stroke:#000000;stroke-width:0.264583px;stroke-linecap:butt;stroke-linejoin:miter;stroke-opacity:1"
     d="M 2.7947036,32.201754 12.32358,22.843576"
     id="path9" />
  <path
     style="fill:none;stroke:#000000;stroke-width:0.264583px;stroke-linecap:butt;stroke-linejoin:miter;stroke-opacity:1"
     d="M 2.7947036,13.364244 12.32358,22.843576"
     id="path10" />
  <path
     style="fill:none;stroke:#000000;stroke-width:0.264583px;stroke-linecap:butt;stroke-linejoin:miter;stroke-opacity:1"
     d="m 12.32358,22.843576 9.333118,9.358178"
     id="path11" />
  <path
     style="fill:none;stroke:#000000;stroke-width:0.264583px;stroke-linecap:butt;stroke-linejoin:miter;stroke-opacity:1"
     d="M 12.32358,22.843576 24.451399,11.502085"
     id="path12" />
  <path
     style="fill:none;stroke:#000000;stroke-width:0.264583px;stroke-linecap:butt;stroke-linejoin:miter;stroke-opacity:1"
     d="M 24.451399,11.502085 H 40.366595"
     id="path13" />
  <path
     style="fill:none;stroke:#000000;stroke-width:0.264583px;stroke-linecap:butt;stroke-linejoin:miter;stroke-opacity:1"
     d="M 51.575136,2.7947025 40.366595,11.502085"
     id="path14" />
  <path
     style="fill:none;stroke:#000000;stroke-width:0.264583px;stroke-linecap:butt;stroke-linejoin:miter;stroke-opacity:1"
     d="M 40.366595,11.502085 Z"
     id="path15" />
  <path
     style="fill:none;stroke:#000000;stroke-width:0.264583px;stroke-linecap:butt;stroke-linejoin:miter;stroke-opacity:1"
     d="M 51.575136,20.048875 40.366595,11.502085"
     id="path16" />
  <circle
     style="fill:#ffffff;fill-opacity:1;fill-rule:evenodd;stroke:#000000;stroke-width:0.264583;stroke-linejoin:round;stroke-dasharray:none;stroke-opacity:1;paint-order:fill markers stroke"
     id="path1"
     cx="12.32358"
     cy="22.843576"
     r="2.6624107" />
  <circle
     style="fill:#ffffff;fill-opacity:1;fill-rule:evenodd;stroke:#000000;stroke-width:0.264583;stroke-linejoin:round;stroke-dasharray:none;stroke-opacity:1;paint-order:fill markers stroke"
     id="circle3"
     cx="24.451399"
     cy="11.502085"
     r="2.6624107" />
  <circle
     style="fill:#ffffff;fill-opacity:1;fill-rule:evenodd;stroke:#000000;stroke-width:0.264583;stroke-linejoin:round;stroke-dasharray:none;stroke-opacity:1;paint-order:fill markers stroke"
     id="circle4"
     cx="40.366592"
     cy="11.502085"
     r="2.6624107" />
  <circle
     style="fill:#ffffff;fill-opacity:1;fill-rule:evenodd;stroke:#000000;stroke-width:0.264583;stroke-linejoin:round;stroke-dasharray:none;stroke-opacity:1;paint-order:fill markers stroke"
     id="circle5"
     cx="51.575134"
     cy="2.7947023"
     r="2.6624107" />
  <circle
     style="fill:#ffffff;fill-opacity:1;fill-rule:evenodd;stroke:#000000;stroke-width:0.264583;stroke-linejoin:round;stroke-dasharray:none;stroke-opacity:1;paint-order:fill markers stroke"
     id="circle6"
     cx="51.575134"
     cy="20.048876"
     r="2.6624107" />
  <circle
     style="fill:#ffffff;fill-opacity:1;fill-rule:evenodd;stroke:#000000;stroke-width:0.264583;stroke-linejoin:round;stroke-dasharray:none;stroke-opacity:1;paint-order:fill markers stroke"
     id="circle7"
     cx="21.656698"
     cy="32.201752"
     r="2.6624107" />
  <circle
     style="fill:#ffffff;fill-opacity:1;fill-rule:evenodd;stroke:#000000;stroke-width:0.264583;stroke-linejoin:round;stroke-dasharray:none;stroke-opacity:1;paint-order:fill markers stroke"
     id="circle8"
     cx="2.7947023"
     cy="32.201752"
     r="2.6624107" />
  <circle
     style="fill:#ffffff;fill-opacity:1;fill-rule:evenodd;stroke:#000000;stroke-width:0.264583;stroke-linejoin:round;stroke-dasharray:none;stroke-opacity:1;paint-order:fill markers stroke"
     id="circle9"
     cx="2.7947023"
     cy="13.364244"
     r="2.6624107" />
  <text
     xml:space="preserve"
     style="font-size:4.23333px;line-height:1.25;font-family:'Patrick Hand';-inkscape-font-specification:'Patrick Hand';stroke-width:0.264583"
     x="11.449564"
     y="24.334364"
     id="text16"><tspan
       sodipodi:role="line"
       id="tspan16"
       style="stroke-width:0.264583"
       x="11.449564"
       y="24.334364">3</tspan></text>
  <text
     xml:space="preserve"
     style="font-size:4.23333px;line-height:1.25;font-family:'Patrick Hand';-inkscape-font-specification:'Patrick Hand';stroke-width:0.264583"
     x="1.8676049"
     y="14.763361"
     id="text17"><tspan
       sodipodi:role="line"
       id="tspan17"
       style="stroke-width:0.264583"
       x="1.8676049"
       y="14.763361">5</tspan></text>
  <text
     xml:space="preserve"
     style="font-size:4.23333px;line-height:1.25;font-family:'Patrick Hand';-inkscape-font-specification:'Patrick Hand';stroke-width:0.264583"
     x="1.7071778"
     y="33.70372"
     id="text18"><tspan
       sodipodi:role="line"
       id="tspan18"
       style="stroke-width:0.264583"
       x="1.7071778"
       y="33.70372">7</tspan></text>
  <text
     xml:space="preserve"
     style="font-size:4.23333px;line-height:1.25;font-family:'Patrick Hand';-inkscape-font-specification:'Patrick Hand';stroke-width:0.264583"
     x="20.858717"
     y="33.700638"
     id="text19"><tspan
       sodipodi:role="line"
       id="tspan19"
       style="stroke-width:0.264583"
       x="20.858717"
       y="33.700638">4</tspan></text>
  <text
     xml:space="preserve"
     style="font-size:4.23333px;line-height:1.25;font-family:'Patrick Hand';-inkscape-font-specification:'Patrick Hand';stroke-width:0.264583"
     x="23.431166"
     y="13.031374"
     id="text20"><tspan
       sodipodi:role="line"
       id="tspan20"
       style="stroke-width:0.264583"
       x="23.431166"
       y="13.031374">2</tspan></text>
  <text
     xml:space="preserve"
     style="font-size:4.23333px;line-height:1.25;font-family:'Patrick Hand';-inkscape-font-specification:'Patrick Hand';stroke-width:0.264583"
     x="39.450966"
     y="12.855387"
     id="text21"><tspan
       sodipodi:role="line"
       id="tspan21"
       style="stroke-width:0.264583"
       x="39.450966"
       y="12.855387">1</tspan></text>
  <text
     xml:space="preserve"
     style="font-size:4.23333px;line-height:1.25;font-family:'Patrick Hand';-inkscape-font-specification:'Patrick Hand';stroke-width:0.264583"
     x="50.635338"
     y="21.561655"
     id="text22"><tspan
       sodipodi:role="line"
       id="tspan22"
       style="stroke-width:0.264583"
       x="50.635338"
       y="21.561655">8</tspan></text>
  <text
     xml:space="preserve"
     style="font-size:4.23333px;line-height:1.25;font-family:'Patrick Hand';-inkscape-font-specification:'Patrick Hand';stroke-width:0.264583"
     x="50.722115"
     y="4.1832347"
     id="text23"><tspan
       sodipodi:role="line"
       id="tspan23"
       style="stroke-width:0.264583"
       x="50.722115"
       y="4.1832347">6</tspan></text>
</svg>
