<?xml version='1.0' encoding='UTF-8'?>
<!-- Created with Inkscape (http://www.inkscape.org/) and export_objects.py -->
<svg xmlns:cc="http://creativecommons.org/ns#" xmlns:dc="http://purl.org/dc/elements/1.1/" xmlns:inkscape="http://www.inkscape.org/namespaces/inkscape" xmlns:rdf="http://www.w3.org/1999/02/22-rdf-syntax-ns#" xmlns:sodipodi="http://sodipodi.sourceforge.net/DTD/sodipodi-0.dtd" xmlns:xlink="http://www.w3.org/1999/xlink" xmlns="http://www.w3.org/2000/svg" version="1.1" width="105.46019px" height="76.571426px" viewBox="0 0 105.46019 76.571426" id="svg1985" sodipodi:docname="surrounding-1.svg" inkscape:version="0.92.4 (5da689c313, 2019-01-14)"><sodipodi:namedview id="base" pagecolor="#ffffff" bordercolor="#666666" borderopacity="1.0" inkscape:pageopacity="0.0" inkscape:pageshadow="2" inkscape:zoom="1.4" inkscape:cx="91.12514" inkscape:cy="178.88275" inkscape:document-units="px" inkscape:current-layer="layer1" showgrid="false" units="px" inkscape:pagecheckerboard="true" scale-x="1" inkscape:showpageshadow="false" borderlayer="false" inkscape:window-width="1366" inkscape:window-height="705" inkscape:window-x="-8" inkscape:window-y="-8" inkscape:window-maximized="1" inkscape:object-paths="true"/>
  <metadata id="metadata1982">
    <rdf:RDF>
      <cc:Work rdf:about="">
        <dc:format>image/svg+xml</dc:format>
        <dc:type rdf:resource="http://purl.org/dc/dcmitype/StillImage"/>
        <dc:title/>
      </cc:Work>
    </rdf:RDF>
  </metadata>
  <g inkscape:groupmode="layer" inkscape:label="surrounding-" transform="matrix(1.000000,0.000000,0.000000,1.000000,-18.335995,-349.809510)"><g id="g4464" inkscape:label="1">
      <rect transform="scale(-1,1)" y="359.05746" x="-87.583946" height="30" width="30" id="rect2217" style="opacity:1;vector-effect:none;fill:#343434;fill-opacity:1;fill-rule:nonzero;stroke:#000000;stroke-width:0.5;stroke-linecap:butt;stroke-linejoin:miter;stroke-miterlimit:4;stroke-dasharray:none;stroke-dashoffset:0;stroke-opacity:1;paint-order:normal"/>
      <rect transform="scale(-1,1)" id="rect2251" y="389.05746" x="-57.583954" height="34.930614" width="34.930614" style="opacity:1;vector-effect:none;fill:#616161;fill-opacity:1;fill-rule:nonzero;stroke:#000000;stroke-width:0.5;stroke-linecap:butt;stroke-linejoin:miter;stroke-miterlimit:4;stroke-dasharray:none;stroke-dashoffset:0;stroke-opacity:1;paint-order:normal"/>
      <rect transform="scale(-1,1)" y="350.05951" x="-57.583954" height="38.997959" width="38.997959" id="rect2253" style="opacity:1;vector-effect:none;fill:#929292;fill-opacity:1;fill-rule:nonzero;stroke:#000000;stroke-width:0.5;stroke-linecap:butt;stroke-linejoin:miter;stroke-miterlimit:4;stroke-dasharray:none;stroke-dashoffset:0;stroke-opacity:1;paint-order:normal"/>
      <rect transform="scale(-1,1)" y="389.05746" x="-94.657425" height="37.073471" width="37.073471" id="rect2255" style="opacity:1;vector-effect:none;fill:#929292;fill-opacity:1;fill-rule:nonzero;stroke:#000000;stroke-width:0.5;stroke-linecap:butt;stroke-linejoin:miter;stroke-miterlimit:4;stroke-dasharray:none;stroke-dashoffset:0;stroke-opacity:1;paint-order:normal"/>
      <rect transform="scale(-1,1)" y="353.09521" x="-123.54619" height="35.962242" width="35.962242" id="rect2257" style="opacity:1;vector-effect:none;fill:#929292;fill-opacity:1;fill-rule:nonzero;stroke:#000000;stroke-width:0.5;stroke-linecap:butt;stroke-linejoin:miter;stroke-miterlimit:4;stroke-dasharray:none;stroke-dashoffset:0;stroke-opacity:1;paint-order:normal"/>
    </g>
    </g></svg>
