<?xml version="1.0" encoding="UTF-8" standalone="no"?>
<!-- Created with Inkscape (http://www.inkscape.org/) -->

<svg
   width="595.22009"
   height="334.79218"
   viewBox="0 0 157.48531 88.580432"
   version="1.1"
   id="svg5"
   inkscape:version="1.3.2 (091e20ef0f, 2023-11-25)"
   sodipodi:docname="ellipse.svg"
   xmlns:inkscape="http://www.inkscape.org/namespaces/inkscape"
   xmlns:sodipodi="http://sodipodi.sourceforge.net/DTD/sodipodi-0.dtd"
   xmlns="http://www.w3.org/2000/svg"
   xmlns:svg="http://www.w3.org/2000/svg">
  <sodipodi:namedview
     id="namedview7"
     pagecolor="#ffffff"
     bordercolor="#666666"
     borderopacity="1.0"
     inkscape:pageshadow="2"
     inkscape:pageopacity="0.0"
     inkscape:pagecheckerboard="true"
     inkscape:document-units="px"
     showgrid="false"
     units="px"
     inkscape:showpageshadow="0"
     inkscape:deskcolor="#d1d1d1"
     inkscape:zoom="1.0469407"
     inkscape:cx="342.90387"
     inkscape:cy="143.75218"
     inkscape:window-width="1353"
     inkscape:window-height="816"
     inkscape:window-x="404"
     inkscape:window-y="131"
     inkscape:window-maximized="0"
     inkscape:current-layer="layer1" />
  <defs
     id="defs2">
    <marker
       style="overflow:visible"
       id="Triangle"
       refX="3.5"
       refY="0"
       orient="auto-start-reverse"
       inkscape:stockid="Triangle arrow"
       markerWidth="1"
       markerHeight="1"
       viewBox="0 0 1 1"
       inkscape:isstock="true"
       inkscape:collect="always"
       preserveAspectRatio="xMidYMid">
      <path
         transform="scale(0.5)"
         style="fill:context-stroke;fill-rule:evenodd;stroke:context-stroke;stroke-width:1pt"
         d="M 5.77,0 -2.88,5 V -5 Z"
         id="path135" />
    </marker>
  </defs>
  <g
     inkscape:label="Layer 1"
     inkscape:groupmode="layer"
     id="layer1"
     transform="translate(-31.125191,-102.05764)">
    <ellipse
       style="fill:none;fill-rule:evenodd;stroke:#000000;stroke-width:0.52916666;stroke-linecap:round;stroke-opacity:1;paint-order:fill markers stroke;stroke-dasharray:none"
       id="path1"
       cx="109.73556"
       cy="146.21556"
       rx="66.700768"
       ry="33.100895" />
    <path
       style="fill:none;stroke:#000000;stroke-width:0.52916666;stroke-linecap:butt;stroke-linejoin:miter;stroke-opacity:1;stroke-dasharray:none"
       d="M 31.125191,146.21556 H 188.61051"
       id="path2" />
    <path
       style="fill:none;stroke:#000000;stroke-width:0.52916666;stroke-linecap:butt;stroke-linejoin:miter;stroke-opacity:1;stroke-dasharray:none"
       d="m 109.73556,102.05764 v 88.58043"
       id="path3" />
    <path
       style="fill:none;stroke:#000000;stroke-width:0.52916666;stroke-linecap:butt;stroke-linejoin:miter;stroke-opacity:1;stroke-dasharray:none"
       d="M 109.73556,113.11467 73.140661,146.21556"
       id="path4" />
    <path
       style="fill:none;stroke:#000000;stroke-width:0.52916666;stroke-linecap:butt;stroke-linejoin:miter;stroke-opacity:1;stroke-dasharray:none"
       d="m 109.91305,113.11467 36.5949,33.10089"
       id="path5" />
    <circle
       style="fill:#000000;fill-rule:evenodd;stroke:#000000;stroke-width:0.529167;stroke-linecap:round;stroke-opacity:1;paint-order:fill markers stroke;fill-opacity:1"
       id="path6"
       cx="73.140663"
       cy="146.21556"
       r="1.0917828" />
    <circle
       style="fill:#000000;fill-opacity:1;fill-rule:evenodd;stroke:#000000;stroke-width:0.529167;stroke-linecap:round;stroke-opacity:1;paint-order:fill markers stroke"
       id="circle6"
       cx="146.59669"
       cy="146.31367"
       r="1.0917828" />
    <text
       xml:space="preserve"
       style="font-size:6.35px;line-height:1.25;font-family:'Patrick Hand';-inkscape-font-specification:'Patrick Hand';display:inline;stroke-width:0.264583"
       x="71.784294"
       y="152.30968"
       id="text6"><tspan
         sodipodi:role="line"
         id="tspan6"
         style="stroke-width:0.264583"
         x="71.784294"
         y="152.30968">F<tspan
   style="font-size:65%;baseline-shift:sub"
   id="tspan7">1</tspan></tspan></text>
    <text
       xml:space="preserve"
       style="font-size:6.35px;line-height:1.25;font-family:'Patrick Hand';-inkscape-font-specification:'Patrick Hand';display:inline;stroke-width:0.264583"
       x="148.90421"
       y="151.84834"
       id="text9"><tspan
         sodipodi:role="line"
         id="tspan9"
         style="stroke-width:0.264583"
         x="148.90421"
         y="151.84834">F<tspan
   style="font-size:65%;baseline-shift:sub"
   id="tspan8">2</tspan></tspan></text>
    <text
       xml:space="preserve"
       style="font-size:6.35px;line-height:1.25;font-family:'Patrick Hand';-inkscape-font-specification:'Patrick Hand';display:inline;stroke-width:0.264583"
       x="103.20229"
       y="110.87786"
       id="text11"><tspan
         sodipodi:role="line"
         id="tspan11"
         style="stroke-width:0.264583"
         x="103.20229"
         y="110.87786">P<tspan
   style="font-size:65%;baseline-shift:sub"
   id="tspan10">1</tspan></tspan></text>
    <text
       xml:space="preserve"
       style="font-size:6.35px;line-height:1.25;font-family:'Patrick Hand';-inkscape-font-specification:'Patrick Hand';display:inline;stroke-width:0.264583"
       x="177.01453"
       y="151.12871"
       id="text13"><tspan
         sodipodi:role="line"
         id="tspan13"
         style="stroke-width:0.264583"
         x="177.01453"
         y="151.12871">P<tspan
   style="font-size:65%;baseline-shift:sub"
   id="tspan12">2</tspan></tspan></text>
    <text
       xml:space="preserve"
       style="font-size:6.35px;line-height:1.25;font-family:'Patrick Hand';-inkscape-font-specification:'Patrick Hand';display:inline;stroke-width:0.264583"
       x="131.34917"
       y="124.28722"
       id="text15"><tspan
         sodipodi:role="line"
         id="tspan15"
         style="stroke-width:0.264583"
         x="131.34917"
         y="124.28722">x</tspan></text>
    <text
       xml:space="preserve"
       style="font-size:6.35px;line-height:1.25;font-family:'Patrick Hand';-inkscape-font-specification:'Patrick Hand';display:inline;stroke-width:0.264583"
       x="61.188805"
       y="132.95296"
       id="text25"><tspan
         sodipodi:role="line"
         id="tspan25"
         style="stroke-width:0.264583"
         x="61.188805"
         y="132.95296">b</tspan></text>
    <text
       xml:space="preserve"
       style="font-size:6.35px;line-height:1.25;font-family:'Patrick Hand';-inkscape-font-specification:'Patrick Hand';display:inline;stroke-width:0.264583"
       x="123.69766"
       y="152.57506"
       id="text26"><tspan
         sodipodi:role="line"
         id="tspan26"
         style="stroke-width:0.264583"
         x="123.69766"
         y="152.57506">L</tspan></text>
    <text
       xml:space="preserve"
       style="font-size:6.35px;line-height:1.25;font-family:'Patrick Hand';-inkscape-font-specification:'Patrick Hand';display:inline;stroke-width:0.264583"
       x="133.44983"
       y="164.07906"
       id="text27"><tspan
         sodipodi:role="line"
         id="tspan27"
         style="stroke-width:0.264583"
         x="133.44983"
         y="164.07906">a</tspan></text>
    <rect
       style="fill:none;fill-opacity:1;fill-rule:evenodd;stroke:#000000;stroke-width:0.26458333;stroke-linecap:round;stroke-dasharray:none;stroke-opacity:1;paint-order:fill markers stroke"
       id="rect27"
       width="4.0262756"
       height="4.0262756"
       x="109.67914"
       y="142.24571" />
    <text
       xml:space="preserve"
       style="font-size:6.35px;line-height:1.25;font-family:'Patrick Hand';-inkscape-font-specification:'Patrick Hand';display:inline;stroke-width:0.264583"
       x="37.394566"
       y="151.50409"
       id="text29"><tspan
         sodipodi:role="line"
         id="tspan29"
         style="stroke-width:0.264583"
         x="37.394566"
         y="151.50409">P<tspan
   style="font-size:65%;baseline-shift:sub"
   id="tspan28">3</tspan></tspan></text>
  </g>
  <g
     id="g20"
     inkscape:groupmode="layer"
     transform="translate(-31.125192,-102.05764)"
     inkscape:label="guide lines">
    <path
       style="fill:none;stroke:#000000;stroke-width:0.26458333;stroke-linecap:butt;stroke-linejoin:miter;stroke-dasharray:none;stroke-opacity:1"
       d="m 176.43633,146.21556 v 16.62928"
       id="path15"
       sodipodi:nodetypes="cc" />
    <path
       style="fill:none;stroke:#000000;stroke-width:0.264583;stroke-linecap:butt;stroke-linejoin:miter;stroke-dasharray:none;stroke-opacity:1"
       d="m 146.50795,146.21556 0,9.59133"
       id="path16"
       sodipodi:nodetypes="cc" />
    <path
       style="fill:none;stroke:#000000;stroke-width:0.264583px;stroke-linecap:round;stroke-linejoin:miter;stroke-opacity:1;marker-start:url(#Triangle);marker-end:url(#Triangle)"
       d="m 109.73556,153.58793 h 36.77239"
       id="path17" />
    <path
       style="fill:none;stroke:#000000;stroke-width:0.264583px;stroke-linecap:round;stroke-linejoin:miter;stroke-opacity:1;marker-start:url(#Triangle);marker-end:url(#Triangle)"
       d="m 109.73556,159.73295 h 66.70077"
       id="path18" />
    <path
       style="fill:none;stroke:#000000;stroke-width:0.26458333;stroke-linecap:butt;stroke-linejoin:miter;stroke-dasharray:none;stroke-opacity:1"
       d="M 60.835155,113.18303 H 109.65999"
       id="path19"
       sodipodi:nodetypes="cc" />
    <path
       style="fill:none;stroke:#000000;stroke-width:0.264583px;stroke-linecap:round;stroke-linejoin:miter;stroke-opacity:1;marker-start:url(#Triangle);marker-end:url(#Triangle)"
       d="m 64.88042,113.18303 v 33.03253"
       id="path20"
       sodipodi:nodetypes="cc" />
    <path
       style="fill:none;stroke:#000000;stroke-width:0.264583px;stroke-linecap:butt;stroke-linejoin:miter;stroke-opacity:1"
       d="m 146.50795,146.21556 5.05753,-5.42756"
       id="path21"
       sodipodi:nodetypes="cc"
       transform="translate(4.6214934e-7)" />
    <path
       style="fill:none;stroke:#000000;stroke-width:0.264583px;stroke-linecap:butt;stroke-linejoin:miter;stroke-opacity:1"
       d="m 109.65999,113.18303 5.05753,-5.42756"
       id="path22"
       sodipodi:nodetypes="cc"
       transform="translate(4.6214934e-7)" />
    <path
       style="fill:none;stroke:#000000;stroke-width:0.26458333;stroke-linecap:round;stroke-linejoin:miter;stroke-dasharray:none;stroke-opacity:1;marker-start:url(#Triangle);marker-end:url(#Triangle)"
       d="m 113.30571,109.27057 36.5949,33.10089"
       id="path23"
       transform="translate(4.6214934e-7)" />
  </g>
</svg>
