<?xml version="1.0" encoding="UTF-8" standalone="no"?>
<!-- Created with Inkscape (http://www.inkscape.org/) -->

<svg
   width="257.35068"
   height="159.68663"
   viewBox="0 0 68.090697 42.250422"
   version="1.1"
   id="svg5"
   inkscape:version="1.3.2 (091e20ef0f, 2023-11-25)"
   sodipodi:docname="planetary-potential-well.svg"
   xmlns:inkscape="http://www.inkscape.org/namespaces/inkscape"
   xmlns:sodipodi="http://sodipodi.sourceforge.net/DTD/sodipodi-0.dtd"
   xmlns="http://www.w3.org/2000/svg"
   xmlns:svg="http://www.w3.org/2000/svg">
  <sodipodi:namedview
     id="namedview7"
     pagecolor="#ffffff"
     bordercolor="#666666"
     borderopacity="1.0"
     inkscape:pageshadow="2"
     inkscape:pageopacity="0.0"
     inkscape:pagecheckerboard="true"
     inkscape:document-units="px"
     showgrid="false"
     units="px"
     inkscape:showpageshadow="0"
     inkscape:deskcolor="#d1d1d1"
     inkscape:zoom="1.4805977"
     inkscape:cx="138.45759"
     inkscape:cy="64.500977"
     inkscape:window-width="1353"
     inkscape:window-height="816"
     inkscape:window-x="426"
     inkscape:window-y="86"
     inkscape:window-maximized="0"
     inkscape:current-layer="layer1" />
  <defs
     id="defs2" />
  <g
     inkscape:label="Layer 1"
     inkscape:groupmode="layer"
     id="layer1"
     transform="translate(-198.16584,-93.46708)">
    <path
       style="fill:none;stroke:#000000;stroke-width:0.52916666;stroke-linecap:butt;stroke-linejoin:miter;stroke-opacity:1;stroke-dasharray:none"
       d="M 204.38636,93.46708 V 135.7175"
       id="path7" />
    <path
       style="fill:none;stroke:#000000;stroke-width:0.52916666;stroke-linecap:butt;stroke-linejoin:miter;stroke-opacity:1;stroke-dasharray:none"
       d="m 198.16584,125.14288 h 68.0907"
       id="path8"
       sodipodi:nodetypes="cc" />
    <path
       style="fill:none;stroke:#000000;stroke-width:0.52916666;stroke-linecap:butt;stroke-linejoin:miter;stroke-opacity:1;stroke-dasharray:none"
       d="m 207.06405,94.811806 c 0,0 2.00964,39.797934 8.35118,39.812194 6.34153,0.0143 5.02982,-8.7318 50.53119,-8.88852"
       id="path9"
       sodipodi:nodetypes="ccc" />
  </g>
  <g
     id="g20"
     inkscape:groupmode="layer"
     transform="translate(-198.16584,-93.46708)"
     inkscape:label="guide lines" />
</svg>
