<?xml version="1.0" encoding="UTF-8" standalone="no"?>
<!-- Created with Inkscape (http://www.inkscape.org/) -->

<svg
   width="815.9718"
   height="261.40823"
   viewBox="0 0 215.89254 69.164264"
   version="1.1"
   id="svg5"
   inkscape:version="1.2.2 (b0a8486541, 2022-12-01)"
   sodipodi:docname="connected-example-2.svg"
   xmlns:inkscape="http://www.inkscape.org/namespaces/inkscape"
   xmlns:sodipodi="http://sodipodi.sourceforge.net/DTD/sodipodi-0.dtd"
   xmlns="http://www.w3.org/2000/svg"
   xmlns:svg="http://www.w3.org/2000/svg">
  <sodipodi:namedview
     id="namedview7"
     pagecolor="#ffffff"
     bordercolor="#666666"
     borderopacity="1.0"
     inkscape:pageshadow="2"
     inkscape:pageopacity="0.0"
     inkscape:pagecheckerboard="true"
     inkscape:document-units="px"
     showgrid="false"
     units="px"
     inkscape:showpageshadow="0"
     inkscape:deskcolor="#d1d1d1"
     inkscape:zoom="22.627418"
     inkscape:cx="44.194173"
     inkscape:cy="-2.8284271"
     inkscape:window-width="1353"
     inkscape:window-height="744"
     inkscape:window-x="114"
     inkscape:window-y="37"
     inkscape:window-maximized="0"
     inkscape:current-layer="svg5" />
  <defs
     id="defs2" />
  <text
     xml:space="preserve"
     style="font-size:10.5833px;line-height:1.25;font-family:'Patrick Hand';-inkscape-font-specification:'Patrick Hand';stroke-width:0.264583"
     x="4.329783"
     y="27.383816"
     id="text1068"><tspan
       sodipodi:role="line"
       id="tspan1066"
       style="font-size:10.5833px;stroke-width:0.264583"
       x="4.329783"
       y="27.383816">B<tspan
   style="font-size:65%;baseline-shift:sub"
   id="tspan1120">0</tspan></tspan></text>
  <text
     xml:space="preserve"
     style="font-size:10.5833px;line-height:1.25;font-family:'Patrick Hand';-inkscape-font-specification:'Patrick Hand';stroke-width:0.264583"
     x="119.633"
     y="12.3756"
     id="text1126"><tspan
       sodipodi:role="line"
       id="tspan1124"
       style="font-size:10.5833px;stroke-width:0.264583"
       x="119.633"
       y="12.3756">B<tspan
   style="font-size:65%;baseline-shift:sub"
   id="tspan1122">1</tspan></tspan></text>
  <path
     style="fill:none;stroke:#000000;stroke-width:0.529167;stroke-linecap:butt;stroke-linejoin:miter;stroke-dasharray:2.11667, 2.11667;stroke-dashoffset:0;stroke-opacity:1"
     d="M 215.89255,34.582258 H 0"
     id="path1197"
     sodipodi:nodetypes="cc" />
  <path
     style="display:none;fill:none;fill-opacity:0.698039;fill-rule:evenodd;stroke:#000000;stroke-width:0.67305;stroke-linecap:round;paint-order:fill markers stroke;stop-color:#000000"
     d="m 198.78617,24.461972 c -10.25,-0.5426 -18.837,-1.0809 -26.38,-1.6145 -7.544,-0.5335 -14.029,-1.0622 -19.81,-1.5853 -5.782,-0.5232 -10.851,-1.0409 -15.423,-1.5525 -4.572,-0.5115 -8.642,-1.0169 -12.347,-1.5156 -3.706,-0.4987 -7.045,-0.9905 -10.109,-1.4751 -3.064,-0.4845 -5.852,-0.9616 -8.428,-1.4309 -2.576,-0.4692 -4.939,-0.9304 -7.134,-1.3831 -2.196,-0.4527 -4.224,-0.8968 -6.118,-1.3319 -1.894,-0.4351 -3.653,-0.8611 -5.303,-1.2775 -1.65,-0.4165 -3.191,-0.8232 -4.642,-1.2199 -1.451,-0.3967001 -2.811,-0.7833001 -4.096,-1.1592001 -1.286,-0.376 -2.496,-0.74141 -3.642,-1.09577 -1.147,-0.35436 -2.23,-0.69765 -3.26,-1.0295 -1.029,-0.33186 -2.005,-0.65221 -2.934,-0.96073 -0.929,-0.30853 -1.812,-0.60515 -2.655,-0.88959 -0.843,-0.28443 -1.645,-0.5566 -2.414,-0.81623 -0.768,-0.25964 -1.501,-0.50667 -2.204,-0.74087 -0.703,-0.2342 -1.375,-0.45549 -2.021,-0.66367 -0.645,-0.20818 -1.264,-0.40317 -1.859,-0.58482 -0.595,-0.18164 -1.166,-0.34986 -1.716,-0.50453 -0.551,-0.15466 -1.08,-0.29569 -1.59,-0.42299 -0.51,-0.1273 -1.002,-0.24079 -1.476,-0.34041 -0.474,-0.09962 -0.932,-0.18528 -1.374,-0.25697 -0.443,-0.0717 -0.87,-0.12933 -1.283,-0.17292 -0.414,-0.04358 -0.813,-0.07304 -1.2,-0.08842 -0.388,-0.01537 -0.762,-0.01658 -1.126,-0.00371 -0.363,0.01288 -0.715,0.03992 -1.057,0.08101 -0.341,0.0411 -0.673,0.09632 -0.995,0.16553 -0.322,0.06921 -0.634,0.15249 -0.938,0.24964 -0.304,0.09716 -0.599,0.20828 -0.886,0.33314 -0.287,0.12486 -0.566,0.26354 -0.838,0.4158 -0.272,0.15225 -0.536,0.31816 -0.794,0.49744 -0.258,0.17927 -0.509,0.37199 -0.754,0.57784 -0.244,0.20585 -0.483,0.42491 -0.715,0.65683 -0.233,0.23192 -0.46,0.47677 -0.681,0.73418 -0.222,0.25741 -0.438,0.52745 -0.649,0.80971 -0.211,0.28227 -0.417,0.57683 -0.618,0.88325 -0.202,0.30642 -0.398,0.62478 -0.59,0.9546 -0.193,0.32982 -0.381,0.67117 -0.565,1.02358 -0.183,0.3524 -0.363,0.71588 -0.539,1.08998 -0.176,0.3742 -0.348,0.7589 -0.517,1.1538 -0.168,0.3949001 -0.333,0.8000001 -0.495,1.2147001 -0.161,0.4147 -0.32,0.8391 -0.475,1.2726 -0.155,0.4335 -0.307,0.8761 -0.456,1.3273 -0.149,0.4512 -0.294,0.911 -0.438,1.3788 -0.143,0.4678 -0.283,0.9436 -0.421,1.4268 -0.138,0.4833 -0.273,0.9739 -0.405,1.4714 -0.133,0.4974 -0.263,1.0017 -0.391,1.5122 -0.127,0.5105 -0.253,1.0272 -0.376,1.5494 -0.123,0.5222 -0.244,1.05 -0.362,1.5826 -0.119,0.5327 -0.236,1.0703 -0.35,1.6121 -0.115,0.5418 -0.228,1.0878 -0.338,1.6374 -0.111,0.5496 -0.22,1.1028 -0.327,1.6588 -0.107,0.556 -0.212,1.1149 -0.315,1.676 -0.104,0.5611 -0.205,1.1244 -0.306,1.6891 -0.1,0.5648 -0.198,1.131 -0.295,1.6981 -0.097,0.567 -0.192,1.1348 -0.286,1.7027 -0.094,0.5679 -0.186,1.1359 -0.277,1.7032 -0.091,0.5674 -0.181,1.1341 -0.269,1.6996 -0.088,0.5654 -0.175,1.1295 -0.26,1.6915 -0.086,0.5621 -0.17,1.1222 -0.253,1.6795 -0.083,0.5574 -0.165,1.112 -0.245,1.6632 -0.081,0.5513 -0.16,1.0991 -0.238,1.6429 -0.078,0.5437 -0.156,1.0834 -0.232,1.6184 -0.076,0.5349 -0.151,1.0651 -0.224,1.5899 -0.074,0.5248 -0.147,1.0442 -0.219,1.5576 -0.072,0.5133 -0.143,1.0206 -0.213,1.5213 -0.069,0.5006 -0.138,0.9946 -0.206,1.4813 -0.068,0.4867 -0.136,0.9661 -0.202,1.4376 -0.066,0.4715 -0.131,0.9352 -0.196,1.3904 -0.064,0.4552 -0.128,0.902 -0.191,1.3398 -0.063,0.4377 -0.125,0.8665 -0.186,1.2857 -0.061,0.4193 -0.122,0.8289 -0.181,1.2286 -0.06,0.3997 -0.119,0.7893 -0.177,1.1684 -0.058,0.3791 -0.116,0.7477 -0.172,1.1053 -0.057,0.3576 -0.113,0.7042 -0.169,1.0394 -0.055,0.3353 -0.11,0.6591 -0.164,0.9711 -0.054,0.312 -0.107,0.6122 -0.16,0.9002 -0.053,0.2881 -0.105,0.5639 -0.157,0.8273 -0.051,0.2633 -0.102,0.5141 -0.153,0.7521 -0.05,0.238 -0.1,0.4631 -0.149,0.6752 -0.049,0.2121 -0.098,0.411 -0.146,0.5966 -0.048,0.1856 -0.096,0.3578 -0.143,0.5165 -0.047,0.1586 -0.093,0.3037 -0.139,0.4351 -0.046,0.1314 -0.092,0.2489 -0.137,0.3527 -0.045,0.1037 -0.089,0.1935 -0.133,0.2693 -0.044,0.0759 -0.088,0.1377 -0.131,0.1854 -0.043,0.0478 -0.085,0.0814 -0.128,0.1009 -0.042,0.0196 -0.083,0.025 -0.125,0.0163 -0.041,-0.0087 -0.082,-0.0316 -0.122,-0.0685 -0.041,-0.0369 -0.081,-0.088 -0.12,-0.1531 -0.04,-0.065 -0.079,-0.1441 -0.118,-0.2372 -0.039,-0.093 -0.077,-0.2 -0.115,-0.3208 -0.038,-0.1208 -0.076,-0.2554 -0.113,-0.4036 -0.037,-0.1483 -0.074,-0.3102 -0.111,-0.4855 -0.036,-0.1753 -0.072,-0.3641 -0.108,-0.566 -0.036,-0.202 -0.071,-0.4172 -0.107,-0.6453 -0.035,-0.2281 -0.069,-0.4691 -0.104,-0.7228 -0.034,-0.2537 -0.068,-0.52 -0.102,-0.7987 -0.034,-0.2786 -0.068,-0.5696 -0.101,-0.8725 -0.033,-0.3029 -0.066,-0.6178 -0.098,-0.9442 -0.033,-0.3264 -0.065,-0.6644 -0.097,-1.0135 -0.032,-0.3491 -0.064,-0.7094 -0.095,-1.0804 -0.031,-0.3709 -0.062,-0.7526 -0.093,-1.1445 -0.031,-0.3919 -0.061,-0.794 -0.092,-1.2059 -0.03,-0.4118 -0.06,-0.8334 -0.09,-1.2642 -0.029,-0.4308 -0.059,-0.8708 -0.088,-1.3194 -0.029,-0.4487 -0.058,-0.906 -0.087,-1.3714 -0.028,-0.4654 -0.057,-0.9389 -0.085,-1.4199 -0.028,-0.4811 -0.056,-0.9696 -0.084,-1.465 -0.027,-0.4955 -0.055,-0.9978 -0.082,-1.5064 -0.027,-0.5087 -0.054,-1.0236 -0.081,-1.5442 -0.027,-0.5205 -0.053,-1.0467 -0.08,-1.5779 -0.026,-0.5312 -0.052,-1.0674 -0.078,-1.608 -0.026,-0.5405 -0.051,-1.0854 -0.077,-1.6339 -0.025,-0.5485 -0.051,-1.1007 -0.076,-1.6559 -0.025,-0.5552 -0.049,-1.1133 -0.074,-1.6737 -0.025,-0.5605 -0.049,-1.1232 -0.073,-1.6875 -0.025,-0.5643 -0.049,-1.1302 -0.073,-1.697 -0.023,-0.5667 -0.047,-1.1344 -0.07,-1.7023 -0.024,-0.5678 -0.047,-1.1359 -0.07,-1.7034 -0.023,-0.5675 -0.046,-1.1345 -0.069,-1.7003 -0.023,-0.5658 -0.045,-1.1304 -0.068,-1.693 -0.022,-0.5627 -0.044,-1.1234 -0.066,-1.6816 -0.023,-0.5581 -0.044,-1.1136 -0.066,-1.6659 -0.022,-0.5522 -0.043,-1.1011 -0.065,-1.6461 -0.021,-0.5449 -0.042,-1.0859 -0.063,-1.6222 -0.021,-0.5364 -0.042,-1.068 -0.063,-1.5944 -0.021,-0.5264 -0.041,-1.0475 -0.062,-1.5626 -0.02,-0.5151 -0.041,-1.0243 -0.061,-1.5269 -0.02,-0.5026 -0.04,-0.9986 -0.06,-1.4875 -0.02,-0.4888 -0.039,-0.9704 -0.059,-1.4443 -0.02,-0.4738 -0.039,-0.9399 -0.058,-1.3976 -0.019,-0.4577 -0.039,-0.907 -0.058,-1.3474 -0.019,-0.4405 -0.038,-0.8719 -0.056,-1.294 -0.019,-0.422 -0.038,-0.8346 -0.056,-1.2372 -0.019,-0.4027 -0.037,-0.7953001 -0.055,-1.1775001 -0.018,-0.3822 -0.036,-0.754 -0.054,-1.11482 -0.018,-0.36085 -0.036,-0.71076 -0.054,-1.04936 -0.018,-0.3386 -0.035,-0.66582 -0.053,-0.98133 -0.017,-0.31551 -0.035,-0.61923 -0.052,-0.91087 -0.017,-0.29163 -0.034,-0.57111 -0.051,-0.83815 -0.017,-0.26704 -0.034,-0.52157 -0.051,-0.76336 -0.017,-0.24179 -0.033,-0.47075 -0.05,-0.68668 -0.017,-0.21594 -0.033,-0.41876 -0.049,-0.60831 -0.017,-0.18954 -0.033,-0.36573 -0.049,-0.52842 -0.016,-0.16269 -0.032,-0.3118 -0.048,-0.44723 -0.016,-0.13543 -0.032,-0.2571 -0.048,-0.36493 -0.015,-0.10784 -0.031,-0.20176 -0.046,-0.28174 -0.016,-0.07997 -0.031,-0.14592 -0.047,-0.19783 -0.015,-0.05192 -0.03,-0.08972 -0.045,-0.11345 -0.015,-0.02373 -0.03,-0.0333 -0.045,-0.02878 -0.015,0.00452 -0.03,0.02321 -0.045,0.05596 -0.015,0.03276 -0.029,0.07966 -0.044,0.14056 -0.014,0.06091 -0.029,0.13591 -0.043,0.22482 -0.015,0.08891 -0.029,0.19181 -0.043,0.30851 -0.014,0.11669 -0.028,0.24725 -0.042,0.39144 -0.014,0.14419 -0.028,0.30209 -0.042,0.47341 -0.014,0.17133 -0.028,0.35616 -0.042,0.5542 -0.013,0.19804 -0.027,0.40936 -0.04,0.63363 -0.014,0.22426 -0.027,0.46154 -0.041,0.71147 -0.013,0.24993 -0.026,0.51259 -0.04,0.78757 -0.013,0.27499 -0.026,0.56237 -0.039,0.86172 -0.013,0.29935 -0.026,0.61075 -0.039,0.93373 -0.013,0.32298 -0.026,0.65761 -0.038,1.00342 -0.013,0.34582 -0.026,0.70287 -0.038,1.07062 -0.013,0.3678 -0.025,0.7464 -0.038,1.1352 -0.012,0.3889001 -0.025,0.7881001 -0.037,1.1970001 -0.012,0.409 -0.025,0.8278 -0.037,1.2558 -0.012,0.428 -0.024,0.8654 -0.036,1.3115 -0.012,0.446 -0.024,0.9009 -0.036,1.3639 -0.012,0.463 -0.024,0.9342 -0.035,1.413 -0.012,0.4787 -0.024,0.9651 -0.035,1.4585 -0.012,0.4934 -0.024,0.9938 -0.035,1.5005 -0.012,0.5068 -0.023,1.0199 -0.034,1.5388 -0.012,0.5189 -0.023,1.0435 -0.034,1.5732 -0.012,0.5297 -0.023,1.0645 -0.034,1.6038 -0.011,0.5392 -0.022,1.0829 -0.033,1.6303 -0.011,0.5475 -0.022,1.0987 -0.033,1.6529 -0.011,0.5543 -0.022,1.1117 -0.032,1.6714 -0.011,0.5597 -0.022,1.1218 -0.033,1.6857 -0.01,0.5638 -0.021,1.1293 -0.031,1.6958 -0.011,0.5665 -0.021,1.134 -0.032,1.7018 -0.01,0.5678 -0.021,1.1358 -0.031,1.7035 -0.01,0.5677 -0.021,1.1349 -0.031,1.701 -0.01,0.5662 -0.02,1.1312 -0.03,1.6944 -0.01,0.5632 -0.02,1.1246 -0.031,1.6835 -0.01,0.5589 -0.019,1.1153 -0.029,1.6685 -0.01,0.5532 -0.02,1.1031 -0.03,1.6493 -0.01,0.5461 -0.019,1.0883 -0.029,1.626 -0.01,0.5377 -0.02,1.0708 -0.029,1.5988 -0.01,0.5279 -0.019,1.0506 -0.029,1.5675 -0.009,0.5169 -0.019,1.0279 -0.028,1.5324 -0.01,0.5046 -0.019,1.0026 -0.028,1.4936 -0.01,0.4909 -0.019,0.9747 -0.028,1.4509 -0.009,0.4761 -0.018,0.9446 -0.028,1.4047 -0.009,0.4602 -0.018,0.9121 -0.027,1.3551 -0.009,0.4431 -0.018,0.8772 -0.027,1.3021 -0.009,0.4248 -0.018,0.8402 -0.027,1.2458 -0.008,0.4056 -0.017,0.8012 -0.026,1.1865 -0.009,0.3853 -0.018,0.7602 -0.026,1.1243 -0.009,0.364 -0.018,0.7172 -0.026,1.0592 -0.009,0.3419 -0.017,0.6725 -0.026,0.9915 -0.009,0.319 -0.017,0.6262 -0.025,0.9214 -0.009,0.2953 -0.017,0.5784 -0.026,0.8491 -0.008,0.2707 -0.016,0.529 -0.025,0.7745 -0.008,0.2456 -0.016,0.4784 -0.024,0.6982 -0.009,0.2198 -0.017,0.4265 -0.025,0.62 -0.008,0.1935 -0.016,0.3736 -0.024,0.5403 -0.008,0.1667 -0.016,0.3198 -0.024,0.4593 -0.008,0.1395 -0.016,0.2652 -0.024,0.3772 -0.008,0.1119 -0.016,0.21 -0.024,0.2941 -0.008,0.0841 -0.015,0.1542 -0.023,0.2102 -0.008,0.0561 -0.016,0.0981 -0.023,0.126 -0.008,0.0279 -0.016,0.0416 -0.023,0.0413 -0.008,-3e-4 -0.016,-0.0148 -0.023,-0.0434 -0.008,-0.0286 -0.015,-0.0713 -0.023,-0.1281 -0.007,-0.0567 -0.015,-0.1276 -0.022,-0.2124 -0.008,-0.0847 -0.015,-0.1835 -0.022,-0.2961 -0.008,-0.1126 -0.015,-0.2391 -0.022,-0.3793 -0.008,-0.1401 -0.015,-0.294 -0.022,-0.4613 -0.007,-0.1674 -0.015,-0.3482 -0.022,-0.5424 -0.007,-0.1941 -0.014,-0.4015 -0.021,-0.6219 -0.007,-0.2205 -0.014,-0.4539 -0.021,-0.7001 -0.007,-0.2462 -0.014,-0.5051 -0.021,-0.7764 -0.007,-0.2714 -0.014,-0.5551 -0.021,-0.8509 -0.007,-0.2958 -0.014,-0.6037 -0.021,-0.9232 -0.007,-0.3196 -0.014,-0.6508 -0.021,-0.9933 -0.006,-0.3425 -0.013,-0.6963 -0.02,-1.0609 -0.007,-0.3646 -0.013,-0.74 -0.02,-1.1258 -0.007,-0.3858 -0.013,-0.782 -0.02,-1.188 -0.007,-0.4061 -0.013,-0.822 -0.02,-1.2473 -0.006,-0.4253 -0.013,-0.86 -0.019,-1.3034 -0.007,-0.4435 -0.013,-0.8958 -0.02,-1.3564 -0.006,-0.4606 -0.013,-0.9294 -0.019,-1.4059 -0.007,-0.4766 -0.013,-0.9608 -0.019,-1.4521 -0.007,-0.4913 -0.013,-0.9897 -0.019,-1.4945 -0.007,-0.5049 -0.013,-1.0162 -0.019,-1.5334 -0.007,-0.5171 -0.013,-1.0401 -0.019,-1.5683 -0.006,-0.5282 -0.012,-1.0616 -0.019,-1.5995 -0.006,-0.5379 -0.012,-1.0804 -0.018,-1.6267 -0.006,-0.5463 -0.012,-1.0965 -0.018,-1.6498 -0.006,-0.5534 -0.012,-1.1099 -0.018,-1.6689 -0.006,-0.559 -0.012,-1.1205 -0.018,-1.6838 -0.006,-0.5633 -0.012,-1.1284 -0.018,-1.6946 -0.006,-0.5662 -0.012,-1.1335 -0.018,-1.7012 -0.006,-0.5677 -0.012,-1.1357 -0.017,-1.7035 -0.006,-0.5678 -0.012,-1.1352 -0.018,-1.7017 -0.006,-0.5665 -0.011,-1.1319 -0.017,-1.6956 -0.006,-0.5638 -0.011,-1.1258 -0.017,-1.6854 -0.006,-0.5596 -0.011,-1.1168 -0.017,-1.6709 -0.006,-0.5542 -0.011,-1.1052 -0.017,-1.6524 -0.006,-0.5473 -0.011,-1.0907 -0.017,-1.6298 -0.005,-0.539 -0.011,-1.0735 -0.016,-1.603 -0.006,-0.5295 -0.011,-1.0538 -0.017,-1.5724 -0.005,-0.5186 -0.011,-1.0314 -0.016,-1.5379 -0.006,-0.5064 -0.011,-1.0064 -0.016,-1.4995 -0.006,-0.493 -0.011,-0.979 -0.016,-1.4574 -0.006,-0.4785 -0.011,-0.9492 -0.016,-1.4118 -0.006,-0.4626 -0.011,-0.917 -0.016,-1.3627 -0.006,-0.4456 -0.011,-0.8825 -0.016,-1.3101 -0.005,-0.4276 -0.01,-0.8459 -0.016,-1.2543 -0.005,-0.4085 -0.01,-0.8071001 -0.015,-1.1955001 -0.005,-0.3884 -0.01,-0.7664 -0.016,-1.1336 -0.005,-0.3673 -0.01,-0.72376 -0.015,-1.06903 -0.005,-0.34527 -0.01,-0.6793 -0.015,-1.00172 -0.005,-0.32242 -0.01,-0.63318 -0.015,-0.93195 -0.005,-0.29878 -0.01,-0.5855 -0.015,-0.85989 -0.005,-0.27439 -0.01,-0.53637 -0.015,-0.78569 -0.005,-0.24932 -0.01,-0.48591 -0.015,-0.70955 -0.005,-0.22364 -0.009,-0.43425 -0.014,-0.63166 -0.005,-0.1974 -0.01,-0.38152 -0.015,-0.5522 -0.005,-0.17067 -0.009,-0.32784 -0.014,-0.47137 -0.005,-0.14353 -0.01,-0.27335 -0.014,-0.38938 -0.005,-0.11603 -0.01,-0.21819 -0.015,-0.30643 -0.004,-0.08824 -0.009,-0.16248 -0.014,-0.22271 -0.004,-0.06023 -0.009,-0.10637 -0.014,-0.13845 -0.004,-0.03207 -0.009,-0.05 -0.014,-0.05384 -0.004,-0.00384 -0.009,0.00649 -0.014,0.0309 -0.004,0.0244 -0.009,0.06297 -0.013,0.11556 -0.005,0.05259 -0.009,0.11929 -0.014,0.19994 -0.004,0.08064 -0.009,0.17532 -0.013,0.28382 -0.005,0.1085 -0.009,0.23091 -0.014,0.367 -0.004,0.13609 -0.009,0.28594 -0.013,0.44928 -0.005,0.16334 -0.009,0.34025 -0.013,0.53043 -0.005,0.19019 -0.009,0.39373 -0.014,0.61029 -0.004,0.21656 -0.008,0.44622 -0.013,0.68862 -0.004,0.2424 -0.008,0.49761 -0.013,0.76525 -0.004,0.26764 -0.008,0.54778 -0.013,0.84 -0.004,0.29222 -0.008,0.59658 -0.012,0.91266 -0.005,0.31607 -0.009,0.64391 -0.013,0.98306 -0.004,0.33914 -0.008,0.68965 -0.013,1.05103 -0.004,0.36133 -0.008,0.73373 -0.012,1.11643 -0.004,0.3827 -0.009,0.7759001 -0.013,1.1790001 -0.004,0.4031 -0.008,0.8162 -0.012,1.2387 -0.004,0.4225 -0.008,0.8544 -0.012,1.2953 -0.004,0.4409 -0.009,0.8906 -0.013,1.3487 -0.004,0.4582 -0.008,0.9246 -0.012,1.3989 -0.004,0.4742 -0.008,0.9562 -0.012,1.4454 -0.004,0.4892 -0.008,0.9856 -0.012,1.4885 -0.004,0.5029 -0.008,1.0124 -0.012,1.5278 -0.004,0.5155 -0.008,1.0368 -0.012,1.5635 -0.003,0.5266 -0.007,1.0586 -0.011,1.5951 -0.004,0.5366 -0.008,1.0778 -0.012,1.6229 -0.004,0.5452 -0.008,1.0943 -0.012,1.6467 -0.003,0.5524 -0.007,1.108 -0.011,1.6663 -0.004,0.5583 -0.008,1.1191 -0.012,1.6819 -0.003,0.5627 -0.007,1.1274 -0.011,1.6932 -0.004,0.5659 -0.007,1.1329 -0.011,1.7005 -0.004,0.5675 -0.008,1.1356 -0.011,1.7034 -0.004,0.5679 -0.008,1.1355 -0.012,1.7023 -0.003,0.5667 -0.007,1.1325 -0.011,1.6967 -0.003,0.5643 -0.007,1.1269 -0.011,1.6872 -0.003,0.5603 -0.007,1.1183 -0.011,1.6733 -0.003,0.555 -0.007,1.1071 -0.011,1.6554 -0.003,0.5484 -0.007,1.093 -0.01,1.6334 -0.004,0.5403 -0.008,1.0762 -0.011,1.6072 -0.004,0.531 -0.007,1.0569 -0.011,1.5772 -0.003,0.5203 -0.007,1.0349 -0.01,1.5432 -0.004,0.5083 -0.007,1.0103 -0.011,1.5054 -0.003,0.4951 -0.007,0.9833 -0.01,1.4639 -0.004,0.4807 -0.007,0.9538 -0.011,1.4188 -0.003,0.465 -0.007,0.9219 -0.01,1.3701 -0.004,0.4483 -0.007,0.8878 -0.011,1.3181 -0.003,0.4303 -0.006,0.8514 -0.01,1.2628 -0.003,0.4114 -0.007,0.813 -0.01,1.2044 -0.003,0.3914 -0.007,0.7725 -0.01,1.1429 -0.003,0.3705 -0.007,0.7302 -0.01,1.0788 -0.003,0.3485 -0.007,0.6859 -0.01,1.0118 -0.003,0.3258 -0.007,0.6401 -0.01,0.9424 -0.003,0.3023 -0.007,0.5927 -0.01,0.8707 -0.003,0.278 -0.006,0.5437 -0.01,0.7968 -0.003,0.2531 -0.006,0.4934 -0.009,0.7209 -0.004,0.2275 -0.007,0.442 -0.01,0.6433 -0.003,0.2013 -0.007,0.3894 -0.01,0.564 -0.003,0.1747 -0.006,0.3359 -0.009,0.4834 -0.004,0.1476 -0.007,0.2815 -0.01,0.4016 -0.003,0.1201 -0.006,0.2264 -0.009,0.3188 -0.004,0.0923 -0.007,0.1707 -0.01,0.2351 -0.003,0.0644 -0.006,0.1147 -0.009,0.1509 -0.003,0.0363 -0.006,0.0584 -0.01,0.0664 -0.003,0.008 -0.006,0.0019 -0.009,-0.0184 -0.003,-0.0202 -0.006,-0.0546 -0.009,-0.103 -0.003,-0.0484 -0.006,-0.111 -0.009,-0.1875 -0.003,-0.0765 -0.006,-0.167 -0.009,-0.2714 -0.003,-0.1044 -0.006,-0.2228 -0.009,-0.3548 -0.003,-0.132 -0.006,-0.2778 -0.009,-0.4372 -0.003,-0.1593 -0.006,-0.3322 -0.009,-0.5185 -0.003,-0.1862 -0.006,-0.3858 -0.009,-0.5985 -0.003,-0.2127 -0.006,-0.4386 -0.009,-0.6772 -0.003,-0.2386 -0.006,-0.4901 -0.009,-0.754 -0.003,-0.264 -0.006,-0.5405 -0.009,-0.8291 -0.002,-0.2886 -0.005,-0.5894 -0.008,-0.902 -0.003,-0.3126 -0.006,-0.637 -0.009,-0.9728 -0.003,-0.3358 -0.006,-0.683 -0.008,-1.0412 -0.003,-0.3581 -0.006,-0.7272 -0.009,-1.1069 -0.003,-0.3796 -0.006,-0.7697 -0.009,-1.1699 -0.002,-0.4001 -0.005,-0.8104 -0.008,-1.2301 -0.003,-0.4196 -0.006,-0.8489 -0.008,-1.2871 -0.003,-0.4382 -0.006,-0.8854 -0.009,-1.341 -0.003,-0.4557 -0.005,-0.9198 -0.008,-1.3917 -0.003,-0.4719 -0.006,-0.9517 -0.008,-1.4387 -0.003,-0.4871 -0.006,-0.9814 -0.009,-1.4824 -0.002,-0.501 -0.005,-1.0086 -0.008,-1.5223 -0.003,-0.5136 -0.005,-1.0333 -0.008,-1.5584 -0.003,-0.525 -0.005,-1.0555 -0.008,-1.5907 -0.003,-0.5351 -0.005,-1.0751 -0.008,-1.619 -0.003,-0.544 -0.005,-1.092 -0.008,-1.6434 -0.003,-0.5514 -0.005,-1.1062 -0.008,-1.6637 -0.003,-0.5575 -0.005,-1.1176 -0.008,-1.6798 -0.003,-0.5622 -0.005,-1.1264 -0.008,-1.6919 -0.003,-0.5654 -0.005,-1.1322 -0.008,-1.6996 -0.002,-0.5674 -0.005,-1.1354 -0.008,-1.7033 -0.002,-0.5679 -0.005,-1.1357 -0.007,-1.7027 -0.003,-0.5669 -0.006,-1.1331 -0.008,-1.6978 -0.003,-0.5647 -0.005,-1.1279 -0.008,-1.6888 -0.002,-0.561 -0.005,-1.1198 -0.007,-1.6757 -0.003,-0.5559 -0.005,-1.1089 -0.008,-1.6583 -0.003,-0.5494 -0.005,-1.0953 -0.008,-1.6368 -0.002,-0.5416 -0.005,-1.079 -0.007,-1.6114 -0.003,-0.5324 -0.005,-1.0599 -0.008,-1.5819 -0.002,-0.5219 -0.005,-1.0383 -0.007,-1.5485 -0.003,-0.5101 -0.005,-1.0141 -0.007,-1.5112 -0.003,-0.4971 -0.005,-0.9874 -0.008,-1.4703 -0.002,-0.4829 -0.005,-0.9583 -0.007,-1.4257 -0.003,-0.4674 -0.005,-0.9267 -0.007,-1.3775 -0.003,-0.4508 -0.005,-0.893 -0.008,-1.326 -0.002,-0.433 -0.005,-0.8569 -0.007,-1.2712 -0.002,-0.4142 -0.005,-0.8188 -0.007,-1.2132001 -0.003,-0.3944 -0.005,-0.7786 -0.007,-1.1522 -0.003,-0.3736 -0.005,-0.73653 -0.007,-1.0884 -0.003,-0.35187 -0.005,-0.69261 -0.007,-1.02188 -0.003,-0.32927 -0.005,-0.64699 -0.007,-0.95284 -0.003,-0.30585 -0.005,-0.59976 -0.007,-0.88143 -0.003,-0.28168 -0.005,-0.55105 -0.007,-0.80786 -0.003,-0.2568 -0.005,-0.50096 -0.007,-0.73226 -0.003,-0.2313 -0.005,-0.44965 -0.007,-0.65487 -0.003,-0.20522 -0.005,-0.39722 -0.007,-0.57586 -0.002,-0.17863 -0.005,-0.34381 -0.007,-0.49541 -0.002,-0.1516 -0.005,-0.28955 -0.007,-0.41374 -0.002,-0.1242 -0.004,-0.23457 -0.007,-0.33106 -0.002,-0.09649 -0.004,-0.17901 -0.006,-0.24754 -0.003,-0.06854 -0.005,-0.12301 -0.007,-0.16342 -0.002,-0.04042 -0.004,-0.0667 -0.007,-0.0789 -0.002,-0.01219 -0.004,-0.01022 -0.006,0.00583 -0.003,0.01605 -0.005,0.04627 -0.007,0.09054 -0.002,0.04426 -0.004,0.10265 -0.006,0.17502 -0.003,0.07236 -0.005,0.15878 -0.007,0.25907 -0.002,0.10029 -0.004,0.21452 -0.007,0.34248 -0.002,0.12796 -0.004,0.26973 -0.006,0.42505 -0.002,0.15531 -0.004,0.32426 -0.006,0.50655 -0.003,0.18229 -0.005,0.378 -0.007,0.58681 -0.002,0.20881 -0.004,0.4308 -0.006,0.66562 -0.002,0.23482 -0.005,0.48253 -0.007,0.74277 -0.002,0.26024 -0.004,0.53308 -0.006,0.8181 -0.002,0.28502 -0.004,0.58229 -0.006,0.89139 -0.002,0.30909 -0.004,0.63007 -0.006,0.96248 -0.003,0.3324 -0.005,0.6763 -0.007,1.03119 -0.002,0.35489 -0.004,0.72087 -0.006,1.09737 -0.002,0.3765 -0.004,0.7636 -0.006,1.1608001 -0.002,0.3971 -0.004,0.8044 -0.006,1.2213 -0.002,0.4169 -0.004,0.8434 -0.006,1.2789 -0.002,0.4355 -0.004,0.8802 -0.006,1.3333 -0.002,0.4531 -0.005,0.9148 -0.007,1.3844 -0.002,0.4695 -0.004,0.9471 -0.006,1.432 -0.002,0.4849 -0.004,0.9771 -0.006,1.4761 -0.002,0.499 -0.004,1.0048 -0.006,1.5166 -0.002,0.5119 -0.004,1.0299 -0.005,1.5533 -0.002,0.5235 -0.004,1.0524 -0.006,1.5862 -0.002,0.5337 -0.004,1.0723 -0.006,1.6151 -0.002,0.5427 -0.004,1.0896 -0.006,1.64 -0.002,0.5504 -0.004,1.1043 -0.006,1.661 -0.002,0.5566 -0.004,1.1161 -0.006,1.6777 -0.002,0.5615 -0.004,1.1252 -0.006,1.6903 -0.002,0.5651 -0.003,1.1316 -0.005,1.6988 -0.002,0.5672 -0.004,1.1351 -0.006,1.703 -0.002,0.5679 -0.004,1.1358 -0.006,1.703 -0.002,0.5672 -0.004,1.1337 -0.006,1.6988 -10e-4,0.5651 -0.003,1.1288 -0.005,1.6905 -0.002,0.5616 -0.004,1.1211 -0.006,1.6778 -0.002,0.5567 -0.004,1.1107 -0.005,1.6611 -0.002,0.5505 -0.004,1.0975 -0.006,1.6403 -0.002,0.5429 -0.004,1.0815 -0.006,1.6154 -0.001,0.5339 -0.003,1.0629 -0.005,1.5865 -0.002,0.5236 -0.004,1.0417 -0.006,1.5537 -10e-4,0.5119 -0.003,1.0178 -0.005,1.5169 -0.002,0.4992 -0.004,0.9916 -0.006,1.4766 -0.001,0.4851 -0.003,0.9628 -0.005,1.4325 -0.002,0.4698 -0.004,0.9316 -0.005,1.3849 -0.002,0.4533 -0.004,0.8981 -0.006,1.3338 -0.002,0.4358 -0.003,0.8624 -0.005,1.2795 -0.002,0.4171 -0.004,0.8246 -0.006,1.222 -10e-4,0.3974 -0.003,0.7847 -0.005,1.1614 -0.002,0.3767 -0.003,0.7429 -0.005,1.098 -0.002,0.3551 -0.004,0.6992 -0.005,1.0319 -0.002,0.3327 -0.004,0.6538 -0.006,0.9632 -0.001,0.3094 -0.003,0.6068 -0.005,0.8921 -0.002,0.2853 -0.003,0.5584 -0.005,0.8189 -0.002,0.2605 -0.004,0.5085 -0.005,0.7436 -0.002,0.2351 -0.004,0.4573 -0.005,0.6664 -0.002,0.2091 -0.004,0.405 -0.006,0.5876 -0.001,0.1826 -0.003,0.3518 -0.005,0.5074 -10e-4,0.1556 -0.003,0.2976 -0.005,0.4259 -10e-4,0.1283 -0.003,0.2428 -0.005,0.3434 -0.002,0.1006 -0.003,0.1872 -0.005,0.2599 -0.002,0.0727 -0.003,0.1313 -0.005,0.1759 -0.002,0.0446 -0.003,0.075 -0.005,0.0914 -0.002,0.0164 -0.003,0.0186 -0.005,0.0067 -0.002,-0.0119 -0.003,-0.0379 -0.005,-0.078 -0.002,-0.0401 -0.003,-0.0943 -0.005,-0.1626 -0.001,-0.0682 -0.003,-0.1505 -0.005,-0.2466 -10e-4,-0.0962 -0.003,-0.2063 -0.005,-0.3302 -10e-4,-0.1239 -0.003,-0.2616 -0.005,-0.4129 -10e-4,-0.1513 -0.003,-0.3163 -0.004,-0.4946 -0.002,-0.1783 -0.004,-0.3701 -0.005,-0.575 -0.002,-0.2049 -0.003,-0.4231 -0.005,-0.6541 -0.002,-0.231 -0.003,-0.4749 -0.005,-0.7315 -10e-4,-0.2565 -0.003,-0.5256 -0.005,-0.807 -10e-4,-0.2814 -0.003,-0.5751 -0.004,-0.8807 -0.002,-0.3056 -0.004,-0.6231 -0.005,-0.9521 -0.002,-0.329 -0.003,-0.6696 -0.005,-1.0212 -10e-4,-0.3516 -0.003,-0.7144 -0.005,-1.0877 -10e-4,-0.3734 -0.003,-0.7574 -0.004,-1.1516 -0.002,-0.3942 -0.003,-0.7986 -0.005,-1.2126 -0.002,-0.414 -0.003,-0.8377 -0.005,-1.2706 -10e-4,-0.4328 -0.003,-0.8748 -0.004,-1.3254 -0.002,-0.4506 -0.003,-0.9098 -0.005,-1.377 -10e-4,-0.4673 -0.003,-0.9425 -0.004,-1.4252 -0.002,-0.4827 -0.003,-0.9729 -0.005,-1.4699 -0.002,-0.497 -0.003,-1.0008 -0.005,-1.5108 -10e-4,-0.51 -0.003,-1.0263 -0.004,-1.5481 -0.002,-0.5218 -0.003,-1.0493 -0.005,-1.5816 -10e-4,-0.5323 -0.003,-1.0696 -0.004,-1.6111 -0.002,-0.5415 -0.003,-1.0872 -0.005,-1.6366 -10e-4,-0.5493 -0.003,-1.1022 -0.004,-1.6581 -0.002,-0.5558 -0.003,-1.1145 -0.005,-1.6755 -10e-4,-0.5609 -0.002,-1.124 -0.004,-1.6887 -10e-4,-0.5646 -0.003,-1.1308 -0.004,-1.6978 -0.002,-0.5669 -0.003,-1.1347 -0.005,-1.7026 -10e-4,-0.5679 -0.003,-1.1359 -0.004,-1.7033 -0.002,-0.5674 -0.003,-1.1342 -0.004,-1.6997 -0.002,-0.5655 -0.003,-1.1297 -0.005,-1.6919 -10e-4,-0.5623 -0.003,-1.1225 -0.004,-1.68 -0.002,-0.5576 -0.003,-1.1124 -0.004,-1.6639 -0.002,-0.5515 -0.003,-1.0996 -0.005,-1.6436 -10e-4,-0.5441 -0.003,-1.0841 -0.004,-1.6193 -10e-4,-0.5353 -0.003,-1.0659 -0.004,-1.591 -0.002,-0.5252 -0.003,-1.045 -0.005,-1.5588 -10e-4,-0.5138 -0.002,-1.0215 -0.004,-1.5227 -10e-4,-0.5011 -0.003,-0.9955 -0.004,-1.4827 -0.001,-0.4873 -0.003,-0.9672 -0.004,-1.4393 -0.002,-0.4721 -0.003,-0.9363 -0.004,-1.3921 -0.002,-0.4558 -0.003,-0.9032 -0.004,-1.3416 -0.002,-0.4384 -0.003,-0.8678 -0.005,-1.2877 -10e-4,-0.4199 -0.002,-0.8303 -0.004,-1.2307 -10e-4,-0.4004001 -0.002,-0.7907001 -0.004,-1.1706001 -10e-4,-0.3798 -0.003,-0.7491 -0.004,-1.10754 -0.001,-0.35839 -0.003,-0.70579 -0.004,-1.04183 -10e-4,-0.33604 -0.003,-0.66066 -0.004,-0.97352 -10e-4,-0.31286 -0.003,-0.61389 -0.004,-0.90279 -10e-4,-0.2889 -0.003,-0.5656 -0.004,-0.82984 -0.002,-0.26423 -0.003,-0.51591 -0.004,-0.75482 -0.002,-0.2389 -0.003,-0.46495 -0.004,-0.67794 -0.002,-0.21299 -0.003,-0.41284 -0.004,-0.59939 -0.002,-0.18654 -0.003,-0.3597 -0.004,-0.51934 -0.001,-0.15964 -0.003,-0.30568 -0.004,-0.43802 -10e-4,-0.13234 -0.003,-0.2509 -0.004,-0.35561 -10e-4,-0.10471 -0.003,-0.1955 -0.004,-0.27232 -10e-4,-0.07683 -0.003,-0.13961 -0.004,-0.18836 -0.001,-0.04875 -0.003,-0.08338 -0.004,-0.10393 -10e-4,-0.02055 -0.002,-0.02694 -0.004,-0.01924 -10e-4,0.0077 -0.002,0.02957 -0.004,0.06549 -10e-4,0.03593 -0.002,0.086 -0.003,0.15007 -0.002,0.06406 -0.003,0.14221 -0.004,0.23426 -0.002,0.09205 -0.003,0.19809 -0.004,0.31789 -0.001,0.1198 -0.003,0.25346 -0.004,0.40072 -10e-4,0.14726 -0.002,0.30821 -0.004,0.48256 -10e-4,0.17436 -0.002,0.3622 -0.003,0.56322 -0.002,0.20101 -0.003,0.41528 -0.004,0.64246 -0.002,0.22718 -0.003,0.46735 -0.004,0.72014 -0.001,0.25278 -0.003,0.51825 -0.004,0.79601 -10e-4,0.27776 -0.002,0.56788 -0.003,0.86993 -0.002,0.30205 -0.003,0.6161 -0.004,0.94169 -10e-4,0.32559 -0.003,0.6628 -0.004,1.01112 -10e-4,0.34833 -0.002,0.70785 -0.004,1.07803 -0.001,0.3702 -0.002,0.7512 -0.003,1.1423 -0.002,0.3912001 -0.003,0.7926001 -0.004,1.2038001 -0.001,0.4111 -0.002,0.8321 -0.004,1.2622 -10e-4,0.4301 -0.002,0.8695 -0.003,1.3175 -10e-4,0.448 -0.003,0.9048 -0.004,1.3696 -10e-4,0.4648 -0.002,0.9378 -0.003,1.4183 -0.002,0.4805 -0.003,0.9685 -0.004,1.4635 -10e-4,0.4949 -0.002,0.9968 -0.004,1.505 -0.001,0.5082 -0.002,1.0227 -0.003,1.5428 -0.001,0.5202 -0.003,1.046 -0.004,1.5769 -10e-4,0.5308 -0.002,1.0667 -0.003,1.6069 -0.002,0.5403 -0.003,1.0848 -0.004,1.6331 -10e-4,0.5483 -0.002,1.1002 -0.003,1.6552 -0.002,0.5549 -0.003,1.1129 -0.004,1.6732 -10e-4,0.5602 -0.002,1.1228 -0.003,1.687 -0.002,0.5642 -0.003,1.13 -0.004,1.6967 -10e-4,0.5667 -0.002,1.1343 -0.003,1.7022 -10e-4,0.5678 -0.003,1.1359 -0.004,1.7034 -0.001,0.5676 -0.002,1.1347 -0.003,1.7006 -0.001,0.5658 -0.003,1.1305 -0.004,1.6933 -0.001,0.5628 -0.002,1.1237 -0.003,1.682 -0.001,0.5583 -0.002,1.1141 -0.004,1.6665 -10e-4,0.5525 -0.002,1.1017 -0.003,1.6469 -10e-4,0.5452 -0.002,1.0865 -0.003,1.6232 -10e-4,0.5366 -0.003,1.0687 -0.004,1.5954 -10e-4,0.5268 -0.002,1.0482 -0.003,1.5638 -10e-4,0.5156 -0.002,1.0252 -0.003,1.5282 -0.002,0.5031 -0.003,0.9996 -0.004,1.489 -10e-4,0.4893 -0.002,0.9715 -0.003,1.4459 -10e-4,0.4744 -0.002,0.941 -0.003,1.3993 -10e-4,0.4583 -0.003,0.9082 -0.004,1.3493 -10e-4,0.441 -0.002,0.8731 -0.003,1.2959 -10e-4,0.4227 -0.002,0.8359 -0.003,1.2393 -10e-4,0.4033 -0.002,0.7966 -0.004,1.1796 -10e-4,0.383 -0.002,0.7554 -0.003,1.1171 -10e-4,0.3616 -0.002,0.7123 -0.003,1.0517 -10e-4,0.3394 -0.002,0.6674 -0.003,0.9838 -10e-4,0.3163 -0.002,0.6209 -0.004,0.9134 -10e-4,0.2925 -0.002,0.5728 -0.003,0.8407 -10e-4,0.2679 -0.002,0.5234 -0.003,0.7661 -10e-4,0.2427 -0.002,0.4725 -0.003,0.6894 -10e-4,0.2168 -0.002,0.4206 -0.003,0.6111 -10e-4,0.1905 -0.002,0.3676 -0.004,0.5313 -10e-4,0.1636 -0.002,0.3137 -0.003,0.4501 -10e-4,0.1364 -0.002,0.259 -0.003,0.3678 -10e-4,0.1089 -0.002,0.2038 -0.003,0.2847 -10e-4,0.081 -0.002,0.1479 -0.003,0.2008 -10e-4,0.053 -0.002,0.0918 -0.003,0.1165 -10e-4,0.0247 -0.002,0.0353 -0.003,0.0318 -10e-4,-0.0036 -0.002,-0.0213 -0.003,-0.053 -10e-4,-0.0318 -0.003,-0.0777 -0.004,-0.1376 -10e-4,-0.0599 -0.002,-0.1339 -0.003,-0.2218 -10e-4,-0.088 -0.002,-0.1899 -0.003,-0.3056 -10e-4,-0.1157 -0.002,-0.2453 -0.003,-0.3885 -10e-4,-0.1432 -0.002,-0.3002 -0.003,-0.4705 -10e-4,-0.1704 -0.002,-0.3543 -0.003,-0.5514 -10e-4,-0.1971 -0.002,-0.4075 -0.003,-0.6309 -10e-4,-0.2233 -0.002,-0.4597 -0.003,-0.7087 -10e-4,-0.249 -0.002,-0.5108 -0.003,-0.7849 -0.001,-0.2741 -0.002,-0.5606 -0.003,-0.8591 -0.001,-0.2986 -0.002,-0.6091 -0.003,-0.9313 -0.001,-0.3221 -0.002,-0.656 -0.003,-1.001 -0.001,-0.345 -0.002,-0.7013 -0.003,-1.0683 -0.001,-0.367 -0.002,-0.7448 -0.003,-1.133 -10e-4,-0.3881 -0.002,-0.7866 -0.003,-1.1948 -10e-4,-0.4083 -0.002,-0.8264 -0.003,-1.2538 -10e-4,-0.4273 -0.002,-0.8641 -0.003,-1.3095 -10e-4,-0.4455 -0.002,-0.8997 -0.003,-1.3621 -10e-4,-0.4624 -10e-4,-0.9331 -0.002,-1.4113 -10e-4,-0.4783 -0.002,-0.9642 -0.003,-1.457 -0.001,-0.4929 -0.002,-0.9928 -0.003,-1.4991 -0.001,-0.5063 -0.002,-1.019 -0.003,-1.5375 -0.001,-0.5185 -0.002,-1.0427 -0.003,-1.5721 -0.001,-0.5293 -0.002,-1.0638 -0.003,-1.6027 -10e-4,-0.539 -0.002,-1.0823 -0.003,-1.6295 -10e-4,-0.5472 -0.002,-1.0981 -0.003,-1.6522 -10e-4,-0.554 -10e-4,-1.1112 -0.002,-1.6707 -10e-4,-0.5596 -0.002,-1.1216 -0.003,-1.6853 -10e-4,-0.5637 -0.002,-1.1291 -0.003,-1.6955 -10e-4,-0.5665 -0.002,-1.1339 -0.003,-1.7017 -0.001,-0.5677 -0.002,-1.1358 -0.003,-1.7035 -0.001,-0.5677 -0.002,-1.135 -0.003,-1.7012 0,-0.5662 -0.001,-1.1314 -0.002,-1.6947 -10e-4,-0.5633 -0.002,-1.1249 -0.003,-1.684 -10e-4,-0.559 -0.002,-1.1156 -0.003,-1.669 -10e-4,-0.5534 -0.002,-1.1037 -0.003,-1.65 -10e-4,-0.5464 -10e-4,-1.089 -0.002,-1.627 -0.001,-0.538 -0.002,-1.0715 -0.003,-1.5998 -0.001,-0.5283 -0.002,-1.0514 -0.003,-1.5687 -0.001,-0.5173 -0.002,-1.0287 -0.003,-1.5337 0,-0.505 -0.001,-1.0035 -0.002,-1.495 -10e-4,-0.4914 -0.002,-0.9758 -0.003,-1.4525 -10e-4,-0.4767 -0.002,-0.9457 -0.003,-1.4064 -10e-4,-0.4608 -10e-4,-0.9132 -0.002,-1.3569 -0.001,-0.4437 -0.002,-0.8785 -0.003,-1.304 -0.001,-0.4255 -0.002,-0.8416 -0.003,-1.2479 -0.001,-0.4062 -0.002,-0.8026001 -0.002,-1.1886001 -10e-4,-0.3861 -0.002,-0.7617 -0.003,-1.1265 -10e-4,-0.36486 -0.002,-0.71884 -0.003,-1.06158 -10e-4,-0.34274 -10e-4,-0.67419 -0.002,-0.99399 -0.001,-0.3198 -0.002,-0.62788 -0.003,-0.92395 -0.001,-0.29607 -0.002,-0.58004 -0.003,-0.85164 0,-0.2716 -0.001,-0.53075 -0.002,-0.77722 -10e-4,-0.24646 -0.002,-0.48015 -0.003,-0.70086 -10e-4,-0.22072 -0.002,-0.42837 -0.002,-0.62279 -0.001,-0.19442 -0.002,-0.37552 -0.003,-0.54317 -0.001,-0.16764 -0.002,-0.32174 -0.003,-0.4622 0,-0.14045 -0.001,-0.26717 -0.002,-0.38009 -10e-4,-0.11291 -0.002,-0.21194 -0.003,-0.29703 -10e-4,-0.0851 -10e-4,-0.15619 -0.002,-0.21326 -0.001,-0.05707 -0.002,-0.10004 -0.003,-0.12894 -0.001,-0.0289 -0.002,-0.04365 -0.002,-0.04431 -10e-4,-6.6e-4 -0.002,0.01286 -0.003,0.04044 -10e-4,0.02758 -0.002,0.06932 -0.003,0.12507 0,0.05576 -10e-4,0.12562 -0.002,0.20941 -10e-4,0.0838 -0.002,0.1816 -0.003,0.29323 0,0.11162 -0.001,0.23713 -0.002,0.37631 -10e-4,0.13917 -0.002,0.29208 -0.003,0.45847 0,0.16638 -10e-4,0.34631 -0.002,0.53949 -10e-4,0.19318 -0.002,0.39968 -0.003,0.61918 0,0.21949 -10e-4,0.45206 -0.002,0.69733 -10e-4,0.24527 -0.002,0.50333 -0.003,0.77377 0,0.27044 -10e-4,0.55334 -0.002,0.84828 -10e-4,0.29494 -0.002,0.60199 -0.002,0.9207 -0.001,0.3187 -0.002,0.64914 -0.003,0.99083 -0.001,0.34169 -0.002,0.6947 -0.002,1.05852 -10e-4,0.3638 -0.002,0.7385 -0.003,1.1236 -10e-4,0.385 -10e-4,0.7805001 -0.002,1.1859001 -0.001,0.4053 -0.002,0.8206 -0.003,1.2452 0,0.4246 -0.001,0.8586 -0.002,1.3015 -10e-4,0.4428 -0.002,0.8946 -0.002,1.3545 -10e-4,0.46 -0.002,0.9283 -0.003,1.4043 -10e-4,0.476 -10e-4,0.9597 -0.002,1.4505 -0.001,0.4907 -0.002,0.9887 -0.003,1.4931 0,0.5044 -10e-4,1.0153 -0.002,1.532 -10e-4,0.5167 -0.002,1.0394 -0.002,1.5672 -0.001,0.5278 -0.002,1.0609 -0.003,1.5985 -0.001,0.5375 -0.001,1.0797 -0.002,1.6257 -10e-4,0.5461 -0.002,1.096 -0.002,1.6491 -10e-4,0.5531 -0.002,1.1094 -0.003,1.6683 -10e-4,0.5588 -10e-4,1.1202 -0.002,1.6833 -10e-4,0.5632 -0.002,1.1282 -0.002,1.6943 -10e-4,0.5661 -0.002,1.1334 -0.003,1.701 -10e-4,0.5677 -10e-4,1.1358 -0.002,1.7036 -0.001,0.5677 -0.002,1.1352 -0.002,1.7018 -10e-4,0.5665 -0.002,1.132 -0.003,1.6959 0,0.5638 -10e-4,1.126 -0.002,1.6858 -10e-4,0.5598 -0.002,1.1172 -0.002,1.6715 -10e-4,0.5543 -0.002,1.1056 -0.003,1.6531 0,0.5475 -10e-4,1.0913 -0.002,1.6306 -10e-4,0.5394 -10e-4,1.0743 -0.002,1.6041 -0.001,0.5298 -0.002,1.0545 -0.002,1.5735 -10e-4,0.519 -0.002,1.0323 -0.003,1.5392 0,0.5069 -10e-4,1.0074 -0.002,1.5009 -10e-4,0.4936 -10e-4,0.9801 -0.002,1.459 -10e-4,0.479 -0.002,0.9503 -0.002,1.4135 -10e-4,0.4632 -0.002,0.9182 -0.003,1.3644 0,0.4463 -10e-4,0.8838 -0.002,1.3121 -0.001,0.4282 -0.001,0.8472 -0.002,1.2563 -10e-4,0.4092 -0.002,0.8085 -0.002,1.1976 -10e-4,0.3891 -0.002,0.7679 -0.003,1.1359 0,0.368 -10e-4,0.7253 -0.002,1.0713 0,0.3461 -10e-4,0.6809 -0.002,1.0042 -10e-4,0.3232 -10e-4,0.6348 -0.002,0.9344 -0.001,0.2997 -0.002,0.5872 -0.002,0.8625 -10e-4,0.2753 -0.002,0.5381 -0.002,0.7884 -10e-4,0.2502 -0.002,0.4877 -0.003,0.7122 0,0.2246 -10e-4,0.4361 -0.002,0.6345 -0.001,0.1983 -0.001,0.3834 -0.002,0.555 -10e-4,0.1716 -10e-4,0.3298 -0.002,0.4742 -0.001,0.1445 -0.002,0.2753 -0.002,0.3923 -10e-4,0.1171 -0.002,0.2202 -0.002,0.3094 -10e-4,0.0892 -0.002,0.1645 -0.003,0.2257 0,0.0612 -10e-4,0.1084 -0.002,0.1414 0,0.0331 -0.001,0.052 -0.002,0.0569 -10e-4,0.0048 -10e-4,-0.0045 -0.002,-0.0279 -0.001,-0.0234 -0.001,-0.061 -0.002,-0.1126 -10e-4,-0.0516 -10e-4,-0.1173 -0.002,-0.197 -10e-4,-0.0796 -0.002,-0.1733 -0.002,-0.2808 -0.001,-0.1075 -0.002,-0.229 -0.002,-0.3641 -10e-4,-0.1351 -0.002,-0.284 -0.002,-0.4464 -10e-4,-0.1624 -0.002,-0.3383 -0.003,-0.5276 0,-0.1892 -10e-4,-0.3918 -0.002,-0.6075 0,-0.2156 -10e-4,-0.4443 -0.002,-0.6858 0,-0.2415 -10e-4,-0.4959 -0.002,-0.7626 0,-0.2668 -0.001,-0.546 -0.002,-0.8374 0,-0.2914 -10e-4,-0.5949 -0.002,-0.9101 -10e-4,-0.3153 -10e-4,-0.6423 -0.002,-0.9806 -0.001,-0.3384 -0.001,-0.6881 -0.002,-1.0487 -10e-4,-0.3606 -10e-4,-0.7322 -0.002,-1.1141 -10e-4,-0.382 -10e-4,-0.7745 -0.002,-1.1769 -10e-4,-0.4024 -10e-4,-0.8148 -0.002,-1.2366 -10e-4,-0.4219 -10e-4,-0.8532 -0.002,-1.2934 -0.001,-0.4402 -0.001,-0.8894 -0.002,-1.3469 -10e-4,-0.4575 -10e-4,-0.9234 -0.002,-1.3971 -10e-4,-0.4737 -10e-4,-0.9552 -0.002,-1.4439 -0.001,-0.4887 -0.001,-0.9845 -0.002,-1.487 -10e-4,-0.5025 -10e-4,-1.0115 -0.002,-1.5265 -10e-4,-0.515 -10e-4,-1.036 -0.002,-1.5623 -10e-4,-0.5262 -10e-4,-1.0578 -0.002,-1.594 -10e-4,-0.5363 -10e-4,-1.0772 -0.002,-1.622 -0.001,-0.5449 -0.001,-1.0938 -0.002,-1.6459 -10e-4,-0.5522 -10e-4,-1.1076 -0.002,-1.6657 -10e-4,-0.5581 -10e-4,-1.1188 -0.002,-1.6814 -0.001,-0.5626 -0.001,-1.1272 -0.002,-1.6929 -10e-4,-0.5658 -10e-4,-1.1328 -0.002,-1.7003 -10e-4,-0.5675 -10e-4,-1.1356 -0.002,-1.7034 0,-0.5679 -10e-4,-1.1356 -0.002,-1.7024 0,-0.5668 -10e-4,-1.1327 -0.002,-1.697 0,-0.5643 -0.001,-1.1271 -0.002,-1.6876 0,-0.5605 -10e-4,-1.1186 -0.002,-1.6739 0,-0.5552 -10e-4,-1.1075 -10e-4,-1.6561 -10e-4,-0.5486 -0.002,-1.0935 -0.002,-1.6342 -10e-4,-0.5406 -0.002,-1.0769 -0.002,-1.6082 -0.001,-0.5313 -0.002,-1.0576 -0.002,-1.5783 -10e-4,-0.5207 -0.002,-1.0357 -0.002,-1.5445 -0.001,-0.5087 -0.001,-1.0112 -0.002,-1.5068 -10e-4,-0.4956 -10e-4,-0.9843 -0.002,-1.4654 -10e-4,-0.4812 -10e-4,-0.9549 -0.002,-1.4205 0,-0.4656 -0.001,-0.923 -0.002,-1.3719 0,-0.4488 -10e-4,-0.889 -0.002,-1.32 0,-0.4309 -10e-4,-0.8527 -10e-4,-1.2648 -10e-4,-0.412 -0.002,-0.8143 -0.002,-1.2064001 -10e-4,-0.3922 -0.002,-0.774 -0.002,-1.1452 -10e-4,-0.3712 -10e-4,-0.73171 -0.002,-1.08108 -10e-4,-0.34937 -10e-4,-0.68756 -0.002,-1.01423 -0.001,-0.32668 -0.001,-0.64176 -0.002,-0.94492 0,-0.30317 -10e-4,-0.59435 -0.002,-0.87326 0,-0.27891 -10e-4,-0.54548 -10e-4,-0.79944 -10e-4,-0.25396 -0.002,-0.49525 -0.002,-0.72364 -10e-4,-0.22839 -10e-4,-0.44381 -0.002,-0.64606 -0.001,-0.20225 -0.001,-0.39126 -0.002,-0.56687 -10e-4,-0.17561 -10e-4,-0.33774 -0.002,-0.48627 0,-0.14854 -0.001,-0.2834 -0.002,-0.40449 0,-0.12109 -10e-4,-0.22834 -10e-4,-0.32169 -0.001,-0.09335 -0.002,-0.17273 -0.002,-0.23811 -10e-4,-0.06537 -10e-4,-0.11668 -0.002,-0.15392 -10e-4,-0.03724 -10e-4,-0.06035 -0.002,-0.06936 0,-0.00902 -0.001,-0.00387 -0.002,0.01536 0,0.01923 -10e-4,0.05263 -10e-4,0.10006 -10e-4,0.04744 -0.002,0.10899 -0.002,0.18451 -10e-4,0.07552 -10e-4,0.16508 -0.002,0.26849 -0.001,0.10342 -0.001,0.22077 -0.002,0.35182 0,0.13106 -10e-4,0.27591 -10e-4,0.43428 -0.001,0.15837 -0.002,0.33035 -0.002,0.51565 -10e-4,0.1853 -10e-4,0.38399 -0.002,0.59576 -10e-4,0.21176 -10e-4,0.43668 -0.002,0.67439 0,0.2377 -0.001,0.48828 -0.002,0.75134 0,0.26307 -10e-4,0.53869 -10e-4,0.82645 -10e-4,0.28777 -10e-4,0.58775 -0.002,0.89951 -10e-4,0.31175 -10e-4,0.63535 -0.002,0.97033 0,0.33498 -0.001,0.6814 -0.002,1.03877 0,0.35732 -10e-4,0.72572 -10e-4,1.10462 -0.001,0.3789 -0.001,0.7683 -0.002,1.1677001 -10e-4,0.3995 -10e-4,0.809 -0.002,1.228 0,0.4191 -10e-4,0.8476 -10e-4,1.2852 -10e-4,0.4376 -0.002,0.8842 -0.002,1.3392 -10e-4,0.455 -10e-4,0.9185 -0.002,1.3899 0,0.4714 -10e-4,0.9506 -0.002,1.4372 0,0.4865 -10e-4,0.9804 -10e-4,1.4808 -10e-4,0.5005 -10e-4,1.0077 -0.002,1.521 -10e-4,0.5132 -10e-4,1.0325 -0.002,1.5572 0,0.5246 -0.001,1.0547 -0.001,1.5896 -10e-4,0.5348 -10e-4,1.0744 -0.002,1.6181 -0.001,0.5437 -0.001,1.0914 -0.002,1.6426 0,0.5512 -10e-4,1.1057 -10e-4,1.663 -0.001,0.5573 -0.001,1.1173 -0.002,1.6794 -10e-4,0.562 -10e-4,1.126 -0.002,1.6914 0,0.5654 -0.001,1.1321 -0.001,1.6995 -10e-4,0.5673 -10e-4,1.1353 -0.002,1.7032 -0.001,0.5679 -0.001,1.1357 -0.002,1.7028 0,0.567 -10e-4,1.1333 -10e-4,1.6981 -0.001,0.5648 -0.001,1.1281 -0.002,1.6892 -10e-4,0.5611 -10e-4,1.1201 -0.002,1.6762 0,0.5561 -10e-4,1.1093 -10e-4,1.659 -10e-4,0.5496 -10e-4,1.0957 -0.002,1.6376 0,0.5419 -10e-4,1.0796 -0.002,1.6124 0,0.5328 -10e-4,1.0606 -10e-4,1.583 -0.001,0.5223 -0.001,1.0391 -0.002,1.5497 0,0.5106 -10e-4,1.015 -10e-4,1.5126 -0.001,0.4976 -0.002,0.9884 -0.002,1.4718 -10e-4,0.4834 -10e-4,0.9594 -0.002,1.4273 0,0.468 -10e-4,0.9279 -10e-4,1.3793 -10e-4,0.4514 -10e-4,0.8942 -0.002,1.3279 0,0.4337 -10e-4,0.8582 -10e-4,1.2732 -10e-4,0.4149 -0.002,0.8201 -0.002,1.2153 -10e-4,0.3951 -10e-4,0.78 -0.002,1.1544 0,0.3743 -10e-4,0.738 -10e-4,1.0907 -0.001,0.3527 -0.001,0.6942 -0.002,1.0243 0,0.3301 -10e-4,0.6486 -10e-4,0.9553 -0.001,0.3067 -0.001,0.6015 -0.002,0.884 -10e-4,0.2825 -10e-4,0.5528 -0.002,0.8105 0,0.2577 -10e-4,0.5027 -10e-4,0.735 -10e-4,0.2322 -10e-4,0.4514 -0.002,0.6576 0,0.2061 -10e-4,0.3991 -10e-4,0.5787 -10e-4,0.1795 -10e-4,0.3457 -0.002,0.4982 0,0.1526 -10e-4,0.2915 -10e-4,0.4167 -10e-4,0.1252 -10e-4,0.2365 -0.002,0.334 0,0.0975 -0.001,0.181 -0.002,0.2505 0,0.0695 -10e-4,0.125 -10e-4,0.1664 -0.001,0.0414 -0.001,0.0687 -0.002,0.0819 0,0.0132 -10e-4,0.0122 -10e-4,-0.0028 -0.001,-0.0151 -0.001,-0.0443 -0.002,-0.0876 0,-0.0433 -10e-4,-0.1007 -10e-4,-0.172 -0.001,-0.0714 -0.001,-0.1568 -0.002,-0.2561 0,-0.0993 -10e-4,-0.2126 -10e-4,-0.3396 -0.001,-0.127 -0.001,-0.2678 -0.002,-0.4221 0,-0.1544 -10e-4,-0.3224 -10e-4,-0.5037 -10e-4,-0.1814 -10e-4,-0.3761 -0.002,-0.584 0,-0.2079 -10e-4,-0.429 -10e-4,-0.6629 -10e-4,-0.2339 -10e-4,-0.4807 -0.002,-0.74 0,-0.2594 -10e-4,-0.5314 -10e-4,-0.8155 -10e-4,-0.2842 -10e-4,-0.5806 -0.002,-0.8888 0,-0.3083 -10e-4,-0.6285 -10e-4,-0.9601 -10e-4,-0.3315 -10e-4,-0.6746 -0.002,-1.0288 0,-0.3541 -10e-4,-0.7193 -10e-4,-1.095 -10e-4,-0.3758 -10e-4,-0.7621 -0.002,-1.1586 0,-0.3965 -0.001,-0.8031 -0.001,-1.2193 -10e-4,-0.4161 -10e-4,-0.842 -0.002,-1.2769 0,-0.4349 -0.001,-0.8789 -0.001,-1.3314 -10e-4,-0.4525 -10e-4,-0.9136 -0.002,-1.3826 0,-0.469 -0.001,-0.946 -0.001,-1.4304 -10e-4,-0.4844 -10e-4,-0.9761 -0.002,-1.4746 0,-0.4985 -0.001,-1.0038 -0.001,-1.5153 -10e-4,-0.5114 -10e-4,-1.029 -0.002,-1.552 0,-0.5231 -0.001,-1.0517 -0.001,-1.5851 0,-0.5334 -10e-4,-1.0717 -10e-4,-1.6142 -10e-4,-0.5424 -10e-4,-1.089 -0.002,-1.6392 0,-0.5501 -0.001,-1.1038 -0.001,-1.6602 -10e-4,-0.5565 -10e-4,-1.1158 -0.002,-1.6772 0,-0.5614 -0.001,-1.125 -0.001,-1.69 -10e-4,-0.565 -10e-4,-1.1314 -0.002,-1.6985 0,-0.5672 -0.001,-1.135 -0.001,-1.7029 -10e-4,-0.568 -10e-4,-1.1359 -0.002,-1.7031 0,-0.5673 0,-1.1339 -0.001,-1.6991 0,-0.5652 -10e-4,-1.129 -10e-4,-1.6908 -10e-4,-0.5618 -10e-4,-1.1214 -0.002,-1.6784 0,-0.5569 -10e-4,-1.1111 -10e-4,-1.6618 -10e-4,-0.5507 -10e-4,-1.0979 -0.002,-1.6411 0,-0.5431 -0.001,-1.0821 -0.001,-1.6163 -10e-4,-0.5342 -10e-4,-1.0636 -10e-4,-1.5876 -10e-4,-0.5239 -10e-4,-1.0424 -0.002,-1.5548 0,-0.5125 -10e-4,-1.0188 -10e-4,-1.5184 -10e-4,-0.4996 -10e-4,-0.9925 -0.002,-1.4781 0,-0.4855 -10e-4,-0.9638 -10e-4,-1.4341 -10e-4,-0.4703 -10e-4,-0.9327 -10e-4,-1.3866 -0.001,-0.4539 -0.001,-0.8993 -0.002,-1.3357 0,-0.4364 -10e-4,-0.8637 -10e-4,-1.2815 -0.001,-0.4177 -0.001,-0.8259 -0.002,-1.224 0,-0.3981001 -10e-4,-0.7861001 -10e-4,-1.1636001 0,-0.3775 -10e-4,-0.74441 -10e-4,-1.10033 -0.001,-0.35592 -0.001,-0.70079 -0.002,-1.03427 0,-0.33347 -10e-4,-0.65547 -10e-4,-0.96567 -0.001,-0.3102 -0.001,-0.60853 -0.001,-0.89469 -10e-4,-0.28616 -10e-4,-0.56008 -0.002,-0.82149 0,-0.26141 -0.001,-0.51024 -0.001,-0.74626 -10e-4,-0.23602 -10e-4,-0.45914 -0.002,-0.66918 0,-0.21004 0,-0.40691 -0.001,-0.59045 0,-0.18354 -10e-4,-0.35367 -10e-4,-0.51025 -10e-4,-0.15659 -10e-4,-0.29955 -0.002,-0.4288 0,-0.12924 0,-0.24469 -10e-4,-0.34628 0,-0.10158 -10e-4,-0.18922 -10e-4,-0.2629 -10e-4,-0.07367 -10e-4,-0.13329 -0.002,-0.17887 0,-0.04558 -10e-4,-0.07703 -10e-4,-0.09441 0,-0.01737 -10e-4,-0.02058 -10e-4,-0.0097 -0.001,0.01088 -0.001,0.03592 -0.002,0.07502 0,0.0391 -10e-4,0.09234 -10e-4,0.15957 0,0.06722 -0.001,0.14852 -0.001,0.24371 -10e-4,0.09518 -10e-4,0.20434 -0.002,0.32725 0,0.12291 0,0.25965 -0.001,0.40998 0,0.15033 -10e-4,0.31433 -10e-4,0.49171 -10e-4,0.17738 -10e-4,0.36822 -0.002,0.5722 0,0.20399 0,0.4212 -10e-4,0.6513 0,0.23009 -10e-4,0.47314 -10e-4,0.72876 -10e-4,0.25563 -10e-4,0.52391 -10e-4,0.80444 -0.001,0.28053 -0.001,0.57338 -0.002,0.87812 0,0.30473 -10e-4,0.62143 -10e-4,0.94962 -0.001,0.32819 -0.001,0.66795 -0.001,1.01878 -10e-4,0.35084 -10e-4,0.71279 -0.002,1.08539 0,0.3726 -0.001,0.7559 -0.001,1.1494 0,0.3935001 -10e-4,0.7971001 -10e-4,1.2105001 -10e-4,0.4133 -10e-4,0.8364 -0.002,1.2686 0,0.4322 0,0.8735 -10e-4,1.3235 0,0.45 -10e-4,0.9086 -10e-4,1.3753 -0.001,0.4666 -0.001,0.9414 -0.001,1.4235 -10e-4,0.4822 -10e-4,0.9718 -0.002,1.4683 0,0.4965 -10e-4,0.9999 -10e-4,1.5095 0,0.5096 -0.001,1.0254 -0.001,1.5469 -10e-4,0.5214 -10e-4,1.0484 -10e-4,1.5804 -10e-4,0.532 -10e-4,1.0689 -0.002,1.6101 0,0.5412 -10e-4,1.0867 -10e-4,1.6358 0,0.5491 -10e-4,1.1018 -10e-4,1.6574 -0.001,0.5556 -0.001,1.1141 -0.002,1.6749 0,0.5608 0,1.1238 -10e-4,1.6883 0,0.5646 -0.001,1.1307 -0.001,1.6976 0,0.5669 -10e-4,1.1346 -10e-4,1.7025 -10e-4,0.5679 -10e-4,1.1359 -0.002,1.7034 0,0.5674 0,1.1343 -10e-4,1.6999 0,0.5656 -10e-4,1.1299 -10e-4,1.6923 0,0.5623 -10e-4,1.1227 -10e-4,1.6804 -0.001,0.5578 -0.001,1.1128 -0.001,1.6645 -10e-4,0.5518 -10e-4,1.1001 -0.002,1.6445 0,0.5443 -0.001,1.0846 -0.001,1.6202 0,0.5356 -10e-4,1.0665 -10e-4,1.5921 -10e-4,0.5255 -10e-4,1.0457 -10e-4,1.5599 -0.001,0.5143 -0.001,1.0225 -0.002,1.524 0,0.5016 0,0.9966 -10e-4,1.4843 0,0.4877 -0.001,0.9682 -0.001,1.4408 0,0.4727 -10e-4,0.9375 -10e-4,1.3939 -10e-4,0.4564 -10e-4,0.9044 -10e-4,1.3434 -10e-4,0.4391 -10e-4,0.8691 -0.002,1.2897 0,0.4206 0,0.8317 -10e-4,1.2328 0,0.401 -10e-4,0.7921 -10e-4,1.1727 0,0.3806 -0.001,0.7507 -0.001,1.1098 -10e-4,0.3592 -10e-4,0.7074 -10e-4,1.0442 -10e-4,0.3369 -10e-4,0.6623 -0.002,0.976 0,0.3137 0,0.6156 -10e-4,0.9054 0,0.2897 -10e-4,0.5673 -10e-4,0.8324 0,0.2651 -0.001,0.5177 -0.001,0.7575 -10e-4,0.2398 -10e-4,0.4668 -10e-4,0.6807 -10e-4,0.2139 -10e-4,0.4147 -0.002,0.6022 0,0.1875 0,0.3616 -10e-4,0.5222 0,0.1606 -10e-4,0.3076 -10e-4,0.4409 0,0.1333 -10e-4,0.2529 -10e-4,0.3586 -0.001,0.1056 -0.001,0.1974 -0.001,0.2752 -10e-4,0.0778 -10e-4,0.1416 -0.002,0.1914 0,0.0497 0,0.0853 -0.001,0.1069 0,0.0215 0,0.0289 -10e-4,0.0222 0,-0.0067 -10e-4,-0.0275 -10e-4,-0.0625 0,-0.0349 -0.001,-0.084 -0.001,-0.1471 -10e-4,-0.063 -10e-4,-0.1402 -10e-4,-0.2313 -10e-4,-0.091 -10e-4,-0.1961 -0.002,-0.3149 0,-0.1188 0,-0.2515 -10e-4,-0.3978 0,-0.1463 0,-0.3063 -10e-4,-0.4797 0,-0.1734 -0.001,-0.3603 -0.001,-0.5604 0,-0.2001 -10e-4,-0.4134 -10e-4,-0.6397 -10e-4,-0.2262 -10e-4,-0.4655 -10e-4,-0.7174 -10e-4,-0.2519 -10e-4,-0.5165 -10e-4,-0.7933 -0.001,-0.2769 -0.001,-0.5662 -0.002,-0.8674 0,-0.3012 0,-0.6144 -10e-4,-0.9392 0,-0.3248 0,-0.6612 -0.001,-1.0087 0,-0.3475 -10e-4,-0.7063 -10e-4,-1.0757 0,-0.3695 -10e-4,-0.7497 -10e-4,-1.1401 0,-0.3904 -0.001,-0.7912 -0.001,-1.2016 -10e-4,-0.4105 -10e-4,-0.8307 -10e-4,-1.2602 -10e-4,-0.4295 -10e-4,-0.8682 -10e-4,-1.3156 -0.001,-0.4475 -0.001,-0.9036 -0.002,-1.3679 0,-0.4642 0,-0.9366 -10e-4,-1.4166 0,-0.4799 0,-0.9675 -0.001,-1.4619 0,-0.4945 -10e-4,-0.9959 -10e-4,-1.5036 0,-0.5078 -10e-4,-1.0218 -10e-4,-1.5416 0,-0.5197 -10e-4,-1.0452 -10e-4,-1.5757 -0.001,-0.5305 -0.001,-1.066 -0.001,-1.606 -10e-4,-0.5399 -10e-4,-1.0842 -10e-4,-1.6322"
     title="1/t sin(t)"
     id="path1240"
     inkscape:label="path1240" />
  <rect
     style="display:none;fill:none;fill-opacity:0.698039;fill-rule:evenodd;stroke:#ff0000;stroke-width:0.79375;stroke-linecap:round;paint-order:fill markers stroke;stop-color:#000000"
     id="rect847"
     width="185.79568"
     height="68.827736"
     x="13.327"
     y="0.3365241" />
  <path
     style="display:inline;fill:none;fill-opacity:0.698039;fill-rule:evenodd;stroke:#000000;stroke-width:0.79375;stroke-linecap:round;paint-order:fill markers stroke;stop-color:#000000;stroke-opacity:1"
     d="M 199.123 60.7949 C 183.69 68.2662 171.946 70.9856 162.053 67.7799 C 152.16 64.5741 144.19 55.5247 137.315 44.5644 C 130.439 33.6041 124.687 21.0689 119.633 12.3756 C 114.579 3.68229 110.236 -0.877317 106.365 0.645059 C 102.493 2.16744 99.1006 9.75253 96.0409 20.0986 C 92.9811 30.4447 90.2584 43.2391 87.7794 52.949 C 85.3004 62.6589 83.0676 68.964 81.0184 69.1595 C 78.9692 69.355 77.1053 63.4059 75.3831 53.9082 C 73.6609 44.4106 72.0817 31.6467 70.614 21.14 C 69.1464 10.6334 67.7912 2.72535 66.5256 0.816421 C 65.26 -1.09251 64.0845 3.08602 62.9819 11.5202 C 61.8792 19.9544 60.85 32.3989 59.8808 43.4645 C 58.9116 54.53 58.0029 63.8619 57.1443 67.441 C 56.2856 71.0202 55.4775 68.7069 54.7116 61.527 C 53.9457 54.3472 53.2223 42.5039 52.5348 31.1299 C 51.8474 19.7559 51.1961 9.21154 50.5756 4.04319 C 49.9552 -1.12517 49.3657 -0.729448 48.8029 5.03348 C 48.2401 10.7964 47.7041 21.7704 47.1912 33.1953 C 46.6784 44.6202 46.1889 56.1385 45.7196 62.779 C 45.2504 69.4196 44.8016 70.9504 44.3706 66.7349 C 43.9397 62.5193 43.5267 52.663 43.1295 41.4458 C 42.7323 30.2286 42.351 17.9972 41.9838 10.0348 C 41.6165 2.07239 41.2634 -1.35032 40.9229 1.22243 C 40.5823 3.79518 40.2544 12.3107 39.9377 23.0662 C 39.6211 33.8218 39.3157 46.4893 39.0205 55.5934 C 38.7253 64.6974 38.4403 69.9345 38.1644 69.0628 C 37.8885 68.1911 37.6219 61.2092 37.3635 51.1588 C 37.1051 41.1084 36.8551 28.2914 36.6126 18.2518 C 36.3702 8.21226 36.1353 1.2793 35.9073 0.430223 C 35.6793 -0.418849 35.4582 4.87138 35.2434 13.9891 C 35.0286 23.1069 34.8201 35.7832 34.6174 46.531 C 34.4147 57.2788 34.2178 65.7507 34.0262 68.3013 C 33.8346 70.852 33.6483 67.3732 33.467 59.3945 C 33.2856 51.4158 33.1091 39.1671 32.9371 27.9544 C 32.7652 16.7416 32.5977 6.92264 32.4345 2.72819 C 32.2712 -1.46625 32.1121 0.122383 31.9569 6.78141 C 31.8017 13.4404 31.6504 24.9841 31.5027 36.408 C 31.3549 47.8318 31.2108 58.7756 31.07 64.5189 C 30.9293 70.2622 30.7918 70.5997 30.6575 65.4111 C 30.5232 60.2225 30.392 49.6451 30.2638 38.2688 C 30.1355 26.8925 30.0101 15.0716 29.8875 7.90943 C 29.7648 0.747275 29.6449 -1.50872 29.5276 2.09199 C 29.4102 5.6927 29.2954 15.0644 29.183 26.1356 C 29.0705 37.2069 28.9605 49.6373 28.8527 58.0562 C 28.7449 66.475 28.6394 70.5984 28.5359 68.6671 C 28.4325 66.7358 28.3312 58.7821 28.2318 48.2665 C 28.1325 37.7509 28.0351 24.9924 27.9397 15.5074 C 27.8442 6.02243 27.7506 0.124933 27.6587 0.343119 C 27.5669 0.561304 27.4768 6.91713 27.3884 16.639 C 27.2999 26.3608 27.2132 39.1586 27.128 49.495 C 27.0428 59.8313 26.9593 67.3694 26.8771 68.8693 C 26.795 70.3692 26.7144 65.7552 26.6352 57.0471 C 26.556 48.3391 26.4782 35.7918 26.4018 24.838 C 26.3254 13.8842 26.2503 4.87625 26.1764 1.69227 C 26.1026 -1.49172 26.03 1.27599 25.9587 8.77308 C 25.8873 16.2702 25.8172 28.2829 25.7482 39.6062 C 25.6792 50.9294 25.6114 61.2034 25.5446 65.9994 C 25.4779 70.7954 25.4122 69.9366 25.3476 63.8202 C 25.283 57.7038 25.2194 46.4975 25.1568 35.0612 C 25.0942 23.6248 25.0327 12.3174 24.972 6.01796 C 24.9114 -0.281509 24.8517 -1.35113 24.7929 3.24616 C 24.7341 7.84344 24.6762 17.9896 24.6192 29.2801 C 24.5622 40.5707 24.506 52.6555 24.4507 60.3158 C 24.3954 67.9761 24.3409 70.9499 24.2871 67.9759 C 24.2334 65.0018 24.1805 56.1454 24.1283 45.2563 C 24.0761 34.3672 24.0247 21.7785 23.974 12.9307 C 23.9233 4.08296 23.8734 -0.727675 23.8241 0.555866 C 23.7748 1.83941 23.7263 9.20544 23.6783 19.4467 C 23.6304 29.6879 23.5832 42.4955 23.5366 52.3304 C 23.49 62.1653 23.444 68.7038 23.3986 69.1399 C 23.3533 69.5759 23.3085 63.867 23.2644 54.5055 C 23.2202 45.144 23.1766 32.4075 23.1336 21.8081 C 23.0906 11.2087 23.0482 3.09021 23.0063 0.944436 C 22.9644 -1.20133 22.923 2.72132 22.8822 10.9911 C 22.8414 19.261 22.8011 31.6381 22.7613 42.762 C 22.7215 53.886 22.6822 63.4006 22.6434 67.2075 C 22.6045 71.0144 22.5662 68.9669 22.5284 61.9759 C 22.4905 54.985 22.4531 43.2474 22.4162 31.8508 C 22.3792 20.4541 22.3427 9.75876 22.3067 4.37688 C 22.2706 -1.005 22.235 -0.878913 22.1998 4.67488 C 22.1646 10.2287 22.1298 21.0609 22.0954 32.4723 C 22.061 43.8837 22.0271 55.5177 21.9935 62.3527 C 21.9599 69.1877 21.9267 70.9859 21.8939 66.995 C 21.8611 63.0041 21.8286 53.3223 21.7965 42.1546 C 21.7645 30.9868 21.7327 18.6776 21.7014 10.5441 C 21.67 2.41074 21.639 -1.2711 21.6083 1.06661 C 21.5777 3.40432 21.5474 11.7164 21.5174 22.3877 C 21.4874 33.0591 21.4577 45.7649 21.4283 55.0126 C 21.399 64.2603 21.37 69.7424 21.3412 69.1108 C 21.3125 68.4792 21.2841 61.725 21.256 51.7917 C 21.2279 41.8583 21.2001 29.0435 21.1725 18.8909 C 21.145 8.73833 21.1178 1.58008 21.0908 0.491218 C 21.0639 -0.597641 21.0372 4.44578 21.0108 13.4163 C 20.9844 22.3867 20.9583 35.0204 20.9324 45.8481 C 20.9065 56.6758 20.8809 65.3481 20.8556 68.1328 C 20.8302 70.9174 20.8052 67.6989 20.7803 59.8944 C 20.7555 52.0899 20.7309 39.9234 20.7065 28.6657 C 20.6822 17.408 20.6581 7.4179 20.6342 3.00051 C 20.6103 -1.41688 20.5867 -0.0961987 20.5633 6.36571 C 20.5398 12.8276 20.5166 24.2516 20.4937 35.6843 C 20.4707 47.1171 20.448 58.1989 20.4254 64.149 C 20.4029 70.0992 20.3806 70.7062 20.3585 65.7332 C 20.3364 60.7602 20.3145 50.3374 20.2928 38.9883 C 20.2711 27.6392 20.2496 15.7167 20.2283 8.36854 C 20.207 1.02036 20.1859 -1.5006 20.165 1.87091 C 20.1441 5.24241 20.1233 14.428 20.1028 25.4365 C 20.0823 36.445 20.0619 48.9384 20.0418 57.5182 C 20.0216 66.0981 20.0016 70.476 19.9818 68.7823 C 19.962 67.0886 19.9424 59.348 19.9229 48.9294 C 19.9035 38.5107 19.8842 25.7293 19.8651 16.112 C 19.846 6.49465 19.827 0.359019 19.8082 0.336561 C 19.7895 0.314103 19.7708 6.43433 19.7524 16.0273 C 19.7339 25.6203 19.7156 38.4003 19.6975 48.8374 C 19.6793 59.2745 19.6613 67.029 19.6435 68.7671 C 19.6256 70.5052 19.608 66.1439 19.5904 57.5938 C 19.5729 49.0436 19.5555 36.5542 19.5382 25.5336 C 19.521 14.5131 19.5039 5.31523 19.4869 1.90082 C 19.4699 -1.51358 19.4531 0.990197 19.4364 8.3039 C 19.4197 15.6176 19.4032 27.5337 19.3867 38.8882 C 19.3703 50.2428 19.354 60.6757 19.3379 65.6891 C 19.3217 70.7026 19.3057 70.113 19.2898 64.2013 C 19.2739 58.2896 19.2581 47.2166 19.2425 35.7851 C 19.2268 24.3537 19.2113 12.9218 19.1959 6.42285 C 19.1805 -0.0760671 19.1652 -1.41419 19.1501 2.96174 C 19.1349 7.33766 19.1198 17.3168 19.1049 28.5665 C 19.09 39.8161 19.0752 51.9881 19.0605 59.8254 C 19.0458 67.6628 19.0312 70.8982 19.0167 68.1571 C 19.0022 65.4161 18.9879 56.7566 18.9736 45.9435 C 18.9594 35.1304 18.9452 22.4937 18.9312 13.4955 C 18.9171 4.49721 18.9032 -0.562324 18.8893 0.481814 C 18.8755 1.52595 18.8618 8.66966 18.8481 18.8015 C 18.8345 28.9333 18.821 41.7485 18.8076 51.704 C 18.7941 61.6595 18.7808 68.4286 18.7676 69.105 C 18.7543 69.7814 18.7412 64.3152 18.7281 55.094 C 18.7151 45.8728 18.7021 33.1693 18.6893 22.4819 C 18.6764 11.7945 18.6637 3.46908 18.651 1.08742 C 18.6383 -1.29424 18.6257 2.37081 18.6132 10.4726 C 18.6007 18.5743 18.5883 30.8787 18.576 42.0561 C 18.5637 53.2334 18.5514 62.9266 18.5393 66.9596 C 18.5271 70.9926 18.5151 69.2118 18.5031 62.4128 C 18.4911 55.6139 18.4792 43.9872 18.4674 32.573 C 18.4556 21.1587 18.4439 10.317 18.4322 4.72403 C 18.4205 -0.868991 18.409 -1.0126 18.3975 4.3296 C 18.386 9.67181 18.3746 20.3575 18.3632 31.7503 C 18.3519 43.1431 18.3406 54.8877 18.3294 61.9141 C 18.3182 68.9406 18.3071 71.0054 18.2961 67.2409 C 18.285 63.4764 18.2741 53.9735 18.2632 42.8601 C 18.2523 31.7467 18.2415 19.365 18.2307 11.0642 C 18.2199 2.76342 18.2093 -1.17592 18.1987 0.92571 C 18.188 3.02735 18.1775 11.1323 18.167 21.7147 C 18.1565 32.2971 18.1461 45.0356 18.1358 54.4228 C 18.1255 63.81 18.1152 69.5347 18.105 69.1435 C 18.0948 68.7524 18.0846 62.2289 18.0745 52.417 C 18.0645 42.6051 18.0544 29.7982 18.0445 19.5371 C 18.0345 9.27592 18.0247 1.89555 18.0148 0.567381 C 18.005 -0.760783 17.9952 4.0336 17.9855 12.8528 C 17.9758 21.672 17.9662 34.2574 17.9566 45.1602 C 17.947 56.063 17.9375 64.932 17.928 67.9494 C 17.9186 70.9669 17.9091 68.0101 17.8998 60.3832 C 17.8904 52.7563 17.8812 40.6773 17.8719 29.3797 C 17.8627 18.0821 17.8535 7.92525 17.8444 3.28688 C 17.8352 -1.3515 17.8262 -0.299352 17.8172 5.96258 C 17.8081 12.2245 17.7992 23.5236 17.7903 34.9603 C 17.7814 46.397 17.7725 57.6118 17.7637 63.7661 C 17.7549 69.9204 17.7462 70.7967 17.7375 66.0415 C 17.7288 61.2863 17.7201 51.0228 17.7115 39.706 C 17.7029 28.3891 17.6944 16.3703 17.6859 8.83934 C 17.6774 1.30838 17.6689 -1.47643 17.6605 1.66438 C 17.6521 4.8052 17.6438 13.8007 17.6355 24.7415 C 17.6272 35.6823 17.6189 48.2331 17.6107 56.9702 C 17.6025 65.7073 17.5944 70.3376 17.5863 68.8823 C 17.5781 67.427 17.5701 59.9031 17.5621 49.586 C 17.554 39.2689 17.5461 26.4703 17.5381 16.7248 C 17.5302 6.97937 17.5223 0.608333 17.5145 0.345241 C 17.5066 0.0821484 17.4988 5.96408 17.4911 15.4239 C 17.4833 24.8837 17.4756 37.6405 17.468 48.1737 C 17.4603 58.7068 17.4527 66.6743 17.4451 68.6499 C 17.4375 70.6255 17.43 66.5187 17.4224 58.1303 C 17.4149 49.7419 17.4075 37.3158 17.4001 26.2333 C 17.3927 15.1509 17.3853 5.76724 17.3779 2.12393 C 17.3706 -1.51939 17.3633 0.71935 17.356 7.84643 C 17.3488 14.9735 17.3416 26.7876 17.3344 38.1685 C 17.3272 49.5493 17.3201 60.1366 17.313 65.3652 C 17.3058 70.5938 17.2988 70.2738 17.2918 64.5694 C 17.2847 58.865 17.2777 47.9303 17.2708 36.5087 C 17.2638 25.0871 17.2569 13.5358 17.25 6.84028 C 17.2431 0.144794 17.2363 -1.46123 17.2295 2.69139 C 17.2227 6.84402 17.2159 16.6517 17.2092 27.8555 C 17.2024 39.0593 17.1957 51.3131 17.189 59.324 C 17.1824 67.3348 17.1757 70.8305 17.1691 68.3236 C 17.1625 65.8168 17.156 57.3581 17.1494 46.6257 C 17.1429 35.8934 17.1364 23.2145 17.1299 14.0697 C 17.1235 4.92485 17.117 -0.381339 17.1106 0.422934 C 17.1042 1.22721 17.0979 8.14543 17.0915 18.1634 C 17.0852 28.1814 17.0789 40.9983 17.0726 51.0701 C 17.0663 61.1419 17.0601 68.1385 17.0539 69.055 C 17.0477 69.9714 17.0415 64.7503 17.0353 55.6735 C 17.0292 46.5968 17.0231 33.9319 17.017 23.1611 C 17.0109 12.3904 17.0048 3.86181 16.9988 1.24531 C 16.9928 -1.37119 16.9868 2.03463 16.9808 9.96475 C 16.9748 17.8949 16.9689 30.121 16.963 41.3469 C 16.9571 52.5727 16.9512 62.4402 16.9453 66.6975 C 16.9395 70.9548 16.9337 69.4414 16.9279 62.8374 C 16.9221 56.2335 16.9163 44.7229 16.9105 33.2961 C 16.9048 21.8692 16.8991 10.8861 16.8934 5.08447 C 16.8877 -0.717215 16.8821 -1.13046 16.8764 3.99779 C 16.8708 9.12604 16.8652 19.6605 16.8596 31.0296 C 16.854 42.3988 16.8485 54.2488 16.8429 61.4636 C 16.8374 68.6783 16.8319 71.0088 16.8264 67.4724 C 16.821 63.9359 16.8155 54.6161 16.8101 43.562 C 16.8047 32.5079 16.7993 20.0592 16.7939 11.5947 C 16.7885 3.13025 16.7832 -1.06484 16.7778 0.799785 C 16.7725 2.66441 16.7672 10.5586 16.7619 21.0475 C 16.7567 31.5363 16.7514 44.3018 16.7462 53.8244 C 16.7409 63.347 16.7357 69.3116 16.7306 69.161 C 16.7254 69.0105 16.7202 62.7206 16.7151 53.0345 C 16.71 43.3484 16.7048 30.5551 16.6998 20.1899 C 16.6947 9.82478 16.6896 2.22556 16.6846 0.658679 C 16.6795 -0.908202 16.6745 3.63501 16.6695 12.2991 C 16.6645 20.9631 16.6595 33.4947 16.6546 44.4677 C 16.6496 55.4408 16.6447 64.5025 16.6398 67.7514 C 16.6349 71.0003 16.63 68.3066 16.6251 60.8607 C 16.6203 53.4148 16.6154 41.4287 16.6106 30.0961 C 16.6058 18.7636 16.601 8.44449 16.5962 3.58718 C 16.5914 -1.27013 16.5867 -0.486987 16.5819 5.57219 C 16.5772 11.6314 16.5725 22.8007 16.5678 34.2362 C 16.5631 45.6717 16.5584 57.0146 16.5538 63.3703 C 16.5491 69.7261 16.5445 70.8712 16.5399 66.336 C 16.5352 61.8007 16.5306 51.701 16.5261 40.4214 C 16.5215 29.1419 16.5169 17.032 16.5124 9.3216 C 16.5079 1.61121 16.5033 -1.43623 16.4988 1.47251 C 16.4943 4.38124 16.4899 13.1827 16.4854 24.0509 C 16.4809 34.9192 16.4765 47.5219 16.4721 56.4124 C 16.4677 65.3028 16.4632 70.1836 16.4589 68.9673 C 16.4545 67.7509 16.4501 60.447 16.4458 50.2361 C 16.4414 40.0251 16.4371 27.2148 16.4328 17.3456 C 16.4285 7.4764 16.4242 0.872763 16.4199 0.369153 C 16.4156 -0.134456 16.4113 5.50656 16.4071 14.829 C 16.4029 24.1515 16.3986 36.8794 16.3944 47.5039 C 16.3902 58.1285 16.386 66.3055 16.3819 68.5177 C 16.3777 70.7298 16.3735 66.8794 16.3694 58.6564 C 16.3652 50.4335 16.3611 38.0762 16.357 26.9368 C 16.3529 15.7973 16.3488 6.23208 16.3448 2.36147 C 16.3407 -1.50914 16.3366 0.463571 16.3326 7.40087 C 16.3285 14.3382 16.3245 26.0451 16.3205 37.4472 C 16.3165 48.8493 16.3125 59.5863 16.3085 65.0277 C 16.3046 70.4692 16.3006 70.4189 16.2967 64.9243 C 16.2927 59.4297 16.2888 48.6381 16.2849 37.2314 C 16.281 25.8248 16.2771 14.1592 16.2732 7.27008 C 16.2693 0.380978 16.2654 -1.49225 16.2616 2.43524 C 16.2577 6.36273 16.2539 15.9947 16.2501 27.1476 C 16.2463 38.3006 16.2425 50.6308 16.2387 58.8116 C 16.2349 66.9924 16.2311 70.7468 16.2273 68.4753 C 16.2236 66.2038 16.2198 57.9496 16.2161 47.3027 C 16.2124 36.6559 16.2086 23.9403 16.2049 14.653 C 16.2012 5.3657 16.1975 -0.184798 16.1939 0.379253 C 16.1902 0.943304 16.1865 7.63297 16.1829 17.5326 C 16.1792 27.4323 16.1756 40.2455 16.172 50.429 C 16.1684 60.6126 16.1648 67.8335 16.1612 68.9897 C 16.1576 70.1458 16.154 65.1722 16.1504 56.2438 C 16.1469 47.3154 16.1433 34.6948 16.1398 23.8455 C 16.1362 12.9962 16.1327 4.26821 16.1292 1.41803 C 16.1257 -1.43215 16.1222 1.71293 16.1187 9.4679 C 16.1152 17.2229 16.1118 29.3653 16.1083 40.6347 C 16.1048 51.9041 16.1014 61.9416 16.098 66.4212 C 16.0945 70.9009 16.0911 69.6556 16.0877 63.2496 C 16.0843 56.8436 16.0809 45.4542 16.0775 34.0198 C 16.0741 22.5855 16.0708 11.4658 16.0674 5.45804 C 16.064 -0.549735 16.0607 -1.23243 16.0574 3.67959 C 16.054 8.59162 16.0507 18.9701 16.0474 30.3106 C 16.0441 41.6511 16.0408 53.6013 16.0375 61.0011 C 16.0342 68.401 16.0309 70.9962 16.0277 67.6894 C 16.0244 64.3825 16.0212 55.2499 16.0179 44.26 C 16.0147 33.27 16.0115 20.76 16.0083 12.1355 C 16.005 3.51109 16.0018 -0.937906 15.9986 0.688891 C 15.9955 2.31569 15.9923 9.9957 15.9891 20.3863 C 15.9859 30.7768 15.9828 43.5637 15.9796 53.2174 C 15.9765 62.8712 15.9733 69.0732 15.9702 69.1633 C 15.9671 69.2534 15.964 63.1999 15.9609 53.6439 C 15.9578 44.0879 15.9547 31.3138 15.9516 20.8492 C 15.9485 10.3847 15.9455 2.56998 15.9424 0.765071 C 15.9393 -1.03983 15.9363 3.25021 15.9333 11.7553 C 15.9302 20.2603 15.9272 32.7325 15.9242 43.771 C 15.9212 54.8094 15.9182 64.0599 15.9152 67.5387 C 15.9122 71.0176 15.9092 68.5882 15.9062 61.3266 C 15.9032 54.065 15.9003 42.1771 15.8973 30.8146 C 15.8944 19.4522 15.8914 8.97537 15.8885 3.90128 C 15.8855 -1.17281 15.8826 -0.65902 15.8797 5.19472 C 15.8768 11.0485 15.8739 22.0831 15.871 33.5123 C 15.8681 44.9415 15.8652 56.4075 15.8623 62.9619 C 15.8595 69.5164 15.8566 70.9298 15.8537 66.6164 C 15.8509 62.3031 15.848 52.3716 15.8452 41.1344 C 15.8424 29.8971 15.8396 17.7015 15.8367 9.81513 C 15.8339 1.92872 15.8311 -1.38 15.8283 1.29537 C 15.8255 3.97073 15.8227 12.5742 15.8199 23.3651 C 15.8172 34.156 15.8144 46.8051 15.8116 55.8449 C 15.8089 64.8848 15.8061 70.0138 15.8034 69.037 C 15.8006 68.0603 15.7979 60.9796 15.7952 50.8793 C 15.7925 40.779 15.7897 27.9628 15.787 17.9741 C 15.7843 7.9855 15.7816 1.15219 15.7789 0.408289 C 15.7763 -0.335615 15.7736 5.062 15.7709 14.243 C 15.7682 23.424 15.7656 36.1173 15.7629 46.8286 C 15.7603 57.5399 15.7576 65.9228 15.755 68.3705 C 15.7524 70.8183 15.7497 67.2259 15.7471 59.172 C 15.7445 51.1181 15.7419 38.8352 15.7393 27.6437 C 15.7367 16.4522 15.7341 6.70955 15.7315 2.61336 C 15.7289 -1.48283 15.7263 0.222973 15.7238 6.96742 C 15.7212 13.7119 15.7186 25.3064 15.7161 36.7247 C 15.7135 48.1431 15.711 59.0249 15.7084 64.6768 C 15.7059 70.3287 15.7034 70.5481 15.7009 65.2658 C 15.6983 59.9835 15.6958 49.3398 15.6933 37.9531 C 15.6908 26.5664 15.6883 14.7917 15.6858 7.71204 C 15.6833 0.632379 15.6809 -1.50722 15.6784 2.1934 C 15.6759 5.89401 15.6735 15.3459 15.671 26.4431 C 15.6685 37.5404 15.6661 49.9414 15.6637 58.2886 C 15.6612 66.6357 15.6588 70.6471 15.6564 68.612 C 15.6539 66.5768 15.6515 58.5308 15.6491 47.9742 C 15.6467 37.4176 15.6443 24.6709 15.6419 15.2452 C 15.6395 5.81956 15.6371 0.0272104 15.6347 0.35079 C 15.6323 0.67437 15.63 7.13252 15.6276 16.9095 C 15.6252 26.6865 15.6229 39.4901 15.6205 49.781 C 15.6182 60.0718 15.6158 67.514 15.6135 68.9093 C 15.6111 70.3046 15.6088 65.5806 15.6065 56.8045 C 15.6042 48.0285 15.6019 35.4577 15.5995 24.5347 C 15.5972 13.6117 15.5949 4.6881 15.5926 1.60551 C 15.5903 -1.47708 15.5881 1.40587 15.5858 8.98225 C 15.5835 16.5586 15.5812 28.6121 15.5789 39.92 C 15.5767 51.2279 15.5744 61.4308 15.5722 66.1309 C 15.5699 70.831 15.5677 69.8544 15.5654 63.6492 C 15.5632 57.4439 15.5609 46.1808 15.5587 34.7439 C 15.5565 23.3071 15.5543 12.0558 15.5521 5.84458 C 15.5498 -0.366626 15.5476 -1.31846 15.5454 3.37516 C 15.5432 8.06878 15.541 18.2867 15.5389 29.5936 C 15.5367 40.9004 15.5345 52.9454 15.5323 60.5271 C 15.5301 68.1088 15.528 70.9675 15.5258 67.8918 C 15.5236 64.816 15.5215 55.8747 15.5193 44.9538 C 15.5172 34.0329 15.515 21.4669 15.5129 12.6863 C 15.5108 3.90575 15.5086 -0.795166 15.5065 0.593078 C 15.5044 1.98132 15.5023 9.44373 15.5002 19.7314 C 15.4981 30.0192 15.4959 42.8217 15.4938 52.6023 C 15.4917 62.383 15.4897 68.8197 15.4876 69.1504 C 15.4855 69.481 15.4834 63.6665 15.4813 54.2449 C 15.4792 44.8233 15.4772 32.074 15.4751 21.5147 C 15.473 10.9554 15.471 2.92864 15.4689 0.886511 C 15.4669 -1.15562 15.4648 2.87935 15.4628 11.2216 C 15.4608 19.5639 15.4587 31.9712 15.4567 43.0702 C 15.4547 54.1692 15.4527 63.6042 15.4506 67.3116 C 15.4486 71.0189 15.4466 68.8548 15.4446 61.7808 C 15.4426 54.7067 15.4406 42.9222 15.4386 31.5348 C 15.4366 20.1475 15.4346 9.51766 15.4326 4.22904 C 15.4307 -1.05959 15.4287 -0.815375 15.4267 4.83034 C 15.4247 10.4761 15.4228 21.371 15.4208 32.7889 C 15.4188 44.2069 15.4169 55.7908 15.4149 62.541 C 15.413 69.2912 15.4111 70.9724 15.4091 66.8828 C 15.4072 62.7932 15.4052 53.0345 15.4033 41.8445 C 15.4014 30.6544 15.3995 18.3786 15.3975 10.3197 C 15.3956 2.26075 15.3937 -1.30777 15.3918 1.13304 C 15.3899 3.57385 15.388 11.9755 15.3861 22.6843 C 15.3842 33.3931 15.3823 46.0829 15.3804 55.2681 C 15.3785 64.4534 15.3767 69.8285 15.3748 69.0917 C 15.3729 68.3548 15.371 61.5005 15.3692 51.5154 C 15.3673 41.5302 15.3655 28.7137 15.3636 18.6101 C 15.3617 8.50645 15.3599 1.4465 15.3581 0.462629 C 15.3562 -0.521239 15.3544 4.63058 15.3525 13.6661 C 15.3507 22.7016 15.3489 35.3546 15.347 46.1479 C 15.3452 56.9412 15.3434 65.5262 15.3416 68.2084 C 15.3398 70.8907 15.338 67.558 15.3362 59.6768 C 15.3344 51.7955 15.3326 39.5923 15.3308 28.3537 C 15.329 17.1151 15.3272 7.19944 15.3254 2.87948 C 15.3236 -1.44048 15.3218 -0.00233798 15.32 6.54628 C 15.3183 13.0949 15.3165 24.5719 15.3147 36.0014 C 15.313 47.4309 15.3112 58.4528 15.3094 64.3127 C 15.3077 70.1725 15.3059 70.6615 15.3042 65.5938 C 15.3024 60.5261 15.3007 50.035 15.299 38.6733 C 15.2972 27.3117 15.2955 15.4331 15.2937 8.16597 C 15.292 0.898886 15.2903 -1.50613 15.2886 1.96597 C 15.2869 5.43807 15.2851 14.7057 15.2834 25.7423 C 15.2817 36.7789 15.28 49.2453 15.2783 57.7551 C 15.2766 66.2649 15.2749 70.5316 15.2732 68.7337 C 15.2715 66.9358 15.2698 59.1014 15.2681 48.6397 C 15.2665 38.178 15.2648 25.406 15.2631 15.8461 C 15.2614 6.28623 15.2598 0.254593 15.2581 0.337558 C 15.2564 0.420524 15.2548 6.6443 15.2531 16.2943 C 15.2514 25.9442 15.2498 38.7327 15.2481 49.1263 C 15.2465 59.5198 15.2448 67.1799 15.2432 68.8137 C 15.2415 70.4476 15.2399 65.9753 15.2383 57.3555 C 15.2366 48.7358 15.235 36.2203 15.2334 25.2284 C 15.2318 14.2365 15.2301 5.12131 15.2285 1.80767 C 15.2269 -1.50598 15.2253 1.11356 15.2237 8.508 C 15.2221 15.9024 15.2205 27.8615 15.2189 39.203 C 15.2173 50.5444 15.2157 60.9083 15.2141 65.8267 C 15.2125 70.7452 15.2109 70.0377 15.2093 64.036 C 15.2077 58.0342 15.2062 46.9023 15.2046 35.468 C 15.203 24.0338 15.2014 12.6558 15.1999 6.24392 C 15.1983 -0.167968 15.1967 -1.38853 15.1952 3.08461 C 15.1936 7.55775 15.192 17.6106 15.1905 28.8788 C 15.1889 40.147 15.1874 52.2815 15.1858 60.0416 C 15.1843 67.8018 15.1828 70.9228 15.1812 68.0795 C 15.1797 65.2362 15.1782 56.4901 15.1766 45.643 C 15.1751 34.796 15.1736 22.1797 15.172 13.2469 C 15.1705 4.31408 15.169 -0.636688 15.1675 0.512388 C 15.166 1.66146 15.1645 8.90296 15.163 19.0833 C 15.1615 29.2636 15.1599 42.0761 15.1584 51.9793 C 15.1569 61.8826 15.1555 68.551 15.154 69.1222 C 15.1525 69.6933 15.151 64.1204 15.1495 54.8373 C 15.148 45.5541 15.1465 32.8355 15.145 22.186 C 15.1436 11.5366 15.1421 3.30139 15.1406 1.02294 C 15.1392 -1.2555 15.1377 2.5226 15.1362 10.6984 C 15.1348 18.8743 15.1333 31.2112 15.1318 42.3657 C 15.1304 53.5203 15.1289 63.1358 15.1275 67.07 C 15.126 71.0042 15.1246 69.1064 15.1231 62.2229 C 15.1217 55.3395 15.1203 43.6636 15.1188 32.2565 C 15.1174 20.8493 15.116 10.0711 15.1145 4.57031 C 15.1131 -0.930516 15.1117 -0.955983 15.1103 4.47921 C 15.1088 9.9144 15.1074 20.6649 15.106 32.0665 C 15.1046 43.468 15.1032 55.1648 15.1018 62.1078 C 15.1004 69.0507 15.0989 70.9989 15.0975 67.1349 C 15.0961 63.271 15.0947 53.6893 15.0934 42.5514 C 15.092 31.4136 15.0906 19.063 15.0892 10.8351 C 15.0878 2.60717 15.0864 -1.21958 15.085 0.985596 C 15.0836 3.19077 15.0823 11.3869 15.0809 22.0088 C 15.0795 32.6308 15.0781 45.3557 15.0768 54.6823 C 15.0754 64.0089 15.074 69.6276 15.0727 69.1311 C 15.0713 68.6346 15.0699 62.0096 15.0686 52.144 C 15.0672 42.2784 15.0659 29.4673 15.0645 19.2532 C 15.0632 9.03901 15.0618 1.75555 15.0605 0.532151 C 15.0591 -0.691247 15.0578 4.2125 15.0565 13.0985 C 15.0551 21.9844 15.0538 34.5917 15.0525 45.4621 C 15.0511 56.3326 15.0498 65.116 15.0485 68.0316 C 15.0472 70.9472 15.0458 67.8756 15.0445 60.1705 C 15.0432 52.4653 15.0419 40.3473 15.0406 29.0666 C 15.0393 17.7859 15.0379 7.70152 15.0366 3.1597 C 15.0353 -1.38211 15.034 -0.212262 15.0327 6.13762 C 15.0314 12.4875 15.0301 23.8419 15.0288 35.2775 C 15.0275 46.7131 15.0262 57.8702 15.025 63.9354 C 15.0237 70.0006 15.0224 70.759 15.0211 65.9081 C 15.0198 61.0572 15.0185 50.7234 15.0173 39.3918 C 15.016 28.0603 15.0147 16.083 15.0134 8.63167 C 15.0122 1.18038 15.0109 -1.489 15.0096 1.75306 C 15.0084 4.99511 15.0071 14.0744 15.0058 25.0454 C 15.0046 36.0165 15.0033 48.5428 15.0021 57.2115 C 15.0008 65.8802 14.9996 70.4002 14.9983 68.8403 C 14.9971 67.2805 14.9958 59.6613 14.9946 49.2991 C 14.9933 38.937 14.9921 26.1452 14.9908 16.4554 C 14.9896 6.7655 14.9884 0.497249 14.9871 0.339563 C 14.9859 0.181877 14.9847 6.16853 14.9834 15.6872 C 14.9822 25.2058 14.981 37.9735 14.9798 48.4652 C 14.9786 58.9568 14.9773 66.8315 14.9761 68.7031 C 14.9749 70.5748 14.9737 66.3562 14.9725 57.8965 C 14.9713 49.4368 14.9701 36.9823 14.9689 25.9263 C 14.9676 14.8704 14.9664 5.56763 14.9652 2.02441 C 14.964 -1.51882 14.9628 0.836152 14.9617 8.04538 C 14.9605 15.2546 14.9593 27.114 14.9581 38.484 C 14.9569 49.8539 14.9557 60.3742 14.9545 65.5088 C 14.9533 70.6434 14.9521 70.2053 14.951 64.4098 C 14.9498 58.6142 14.9486 47.6184 14.9474 36.1918 C 14.9463 24.7652 14.9451 13.2656 14.9439 6.65589 C 14.9428 0.0461499 14.9416 -1.4426 14.9404 2.80808 C 14.9393 7.05876 14.9381 16.9421 14.9369 28.1666 C 14.9358 39.3911 14.9346 51.6098 14.9335 59.545 C 14.9323 67.4802 14.9312 70.8621 14.93 68.2525 C 14.9289 65.6429 14.9277 57.0958 14.9266 46.3275 C 14.9254 35.5592 14.9243 22.8981 14.9231 13.817 C 14.922 4.73588 14.9209 -0.462542 14.9197 0.446858 C 14.9186 1.35626 14.9175 8.37364 14.9163 18.442 C 14.9152 28.5104 14.9141 41.3273 14.913 51.3487 C 14.9118 61.3701 14.9107 68.2674 14.9096 69.0788 C 14.9085 69.8901 14.9074 64.5613 14.9062 55.4208 C 14.9051 46.2803 14.904 33.5977 14.9029 22.8629 C 14.9018 12.1281 14.9007 3.68807 14.8996 1.17431 C 14.8985 -1.33945 14.8974 2.18012 14.8963 10.1859 C 14.8952 18.1916 14.8941 30.4527 14.893 41.6579 C 14.8919 52.8631 14.8908 62.6548 14.8897 66.8141 C 14.8886 70.9733 14.8875 69.3427 14.8864 62.6529 C 14.8853 55.9632 14.8842 44.4012 14.8832 32.9792 C 14.8821 21.5572 14.881 10.6355 14.8799 4.92494 C 14.8788 -0.785641 14.8778 -1.08078 14.8767 4.14148 C 14.8756 9.36374 14.8745 19.965 14.8735 31.3452 C 14.8724 42.7253 14.8713 54.5298 14.8703 61.6624 C 14.8692 68.795 14.8681 71.0093 14.8671 67.3727 C 14.866 63.7362 14.865 54.3357 14.8639 43.255 C 14.8629 32.1743 14.8618 19.7543 14.8608 11.361 C 14.8597 2.96782 14.8586 -1.11546 14.8576 0.853102 C 14.8566 2.82166 14.8555 10.8086 14.8545 21.339 C 14.8534 31.8694 14.8524 44.6238 14.8513 54.0876 C 14.8503 63.5514 14.8493 69.4112 14.8482 69.1553 C 14.8472 68.8993 14.8462 62.5067 14.8451 52.765 C 14.8441 43.0232 14.8431 30.2233 14.842 19.9031 C 14.841 9.58297 14.84 2.07921 14.839 0.616824 C 14.838 -0.845562 14.8369 3.80793 14.8359 12.5404 C 14.8349 21.2729 14.8339 33.8288 14.8329 44.7716 C 14.8319 55.7145 14.8308 64.6923 14.8298 67.84 C 14.8288 70.9876 14.8278 68.1785 14.8268 60.6529 C 14.8258 53.1273 14.8248 41.0999 14.8238 29.782 C 14.8228 18.4642 14.8218 8.21558 14.8208 3.45392 C 14.8198 -1.30774 14.8188 -0.406705 14.8178 5.74163 C 14.8168 11.89 14.8158 23.1168 14.8148 34.5534 C 14.8138 45.99 14.8129 57.2774 14.8119 63.5453 C 14.8109 69.8132 14.8099 70.8405 14.8089 66.2087 C 14.8079 61.5768 14.807 51.4048 14.806 40.1083 C 14.805 28.8118 14.804 16.7411 14.803 9.10894 C 14.8021 1.47674 14.8011 -1.45581 14.8001 1.55475 C 14.7992 4.56532 14.7982 13.4523 14.7972 24.3529 C 14.7963 35.2535 14.7953 47.8342 14.7943 56.6579 C 14.7934 65.4817 14.7924 70.253 14.7914 68.9319 C 14.7905 67.6108 14.7895 60.2101 14.7886 49.9521 C 14.7876 39.6941 14.7867 26.8882 14.7857 17.0727 C 14.7848 7.25717 14.7838 0.755071 14.7829 0.356803 C 14.7819 -0.0414639 14.781 5.70541 14.78 15.0886 C 14.7791 24.4717 14.7781 37.2129 14.7772 47.798 C 14.7763 58.3832 14.7753 66.4688 14.7744 68.5775 C 14.7734 70.6861 14.7725 66.7231 14.7716 58.4272 C 14.7706 50.1313 14.7697 37.7432 14.7688 26.6282 C 14.7679 15.5131 14.7669 6.02688 14.766 2.25564 C 14.7651 -1.5156 14.7642 0.573758 14.7632 7.59458 C 14.7623 14.6154 14.7614 26.3699 14.7605 37.7633 C 14.7596 49.1568 14.7586 59.8287 14.7577 65.1772 C 14.7568 70.5257 14.7559 70.3573 14.755 64.7704 C 14.7541 59.1836 14.7532 48.3288 14.7522 36.9149 C 14.7513 25.5011 14.7504 13.8849 14.7495 7.08029 C 14.7486 0.275634 14.7477 -1.48064 14.7468 2.5457 C 14.7459 6.57204 14.745 16.2815 14.7441 27.4574 C 14.7432 38.6332 14.7423 50.9306 14.7414 59.0374 C 14.7405 67.1442 14.7396 70.7854 14.7388 68.4107 C 14.7379 66.036 14.737 57.6917 14.7361 47.0068 C 14.7352 36.3219 14.7343 23.6217 14.7334 14.3963 C 14.7325 5.17096 14.7317 -0.272806 14.7308 0.396516 C 14.7299 1.06584 14.729 7.856 14.7281 17.808 C 14.7273 27.7601 14.7264 40.5756 14.7255 50.7107 C 14.7246 60.8459 14.7238 67.9689 14.7229 69.0202 C 14.722 70.0714 14.7211 64.989 14.7203 55.9951 C 14.7194 47.0013 14.7185 34.3605 14.7177 23.5451 C 14.7168 12.7296 14.716 4.0885 14.7151 1.34054 C 14.7142 -1.40741 14.7134 1.85206 14.7125 9.68419 C 14.7117 17.5163 14.7108 29.6961 14.7099 40.947 C 14.7091 52.198 14.7082 62.1615 14.7074 66.544 C 14.7065 70.9265 14.7057 69.5637 14.7048 63.0706 C 14.704 56.5775 14.7031 45.1344 14.7023 33.7027 C 14.7014 22.271 14.7006 11.2106 14.6998 5.29278 C 14.6989 -0.625031 14.6981 -1.18972 14.6972 3.8173 C 14.6964 8.82432 14.6956 19.2717 14.6947 30.6254 C 14.6939 41.9791 14.693 53.886 14.6922 61.2051 C 14.6914 68.5243 14.6905 71.0037 14.6897 67.5961 C 14.6889 64.1885 14.6881 54.9734 14.6872 43.9547 C 14.6864 32.936 14.6856 20.4522 14.6848 11.8974 C 14.6839 3.34254 14.6831 -0.995462 14.6823 0.735616 C 14.6815 2.46669 14.6806 10.241 14.6798 20.6751 C 14.679 31.1093 14.6782 43.8875 14.6774 53.4843 C 14.6766 63.0812 14.6757 69.1796 14.6749 69.1642 C 14.6741 69.1489 14.6733 62.9914 14.6725 53.3779 C 14.6717 43.7644 14.6709 30.9812 14.6701 20.5596 C 14.6693 10.1381 14.6685 2.41733 14.6677 0.716609 C 14.6669 -0.984117 14.6661 3.41707 14.6652 11.9922 C 14.6644 20.5674 14.6636 33.0663 14.6629 44.0767 C 14.6621 55.0871 14.6613 64.2554 14.6605 67.6337 C 14.6597 71.012 14.6589 68.4667 14.6581 61.1239 C 14.6573 53.7812 14.6565 41.8496 14.6557 30.4996 C 14.6549 19.1497 14.6541 8.74139 14.6533 3.76199 C 14.6526 -1.21741 14.6518 -0.585583 14.651 5.35848 C 14.6502 11.3025 14.6494 22.3968 14.6486 33.8294 C 14.6479 45.2619 14.6471 56.6746 14.6463 63.1424 C 14.6455 69.6102 14.6447 70.9061 14.644 66.4953 C 14.6432 62.0845 14.6424 52.0788 14.6416 40.8224 C 14.6409 29.566 14.6401 17.4073 14.6393 9.59756 C 14.6386 1.78783 14.6378 -1.4066 14.637 1.37115 C 14.6363 4.1489 14.6355 12.8395 14.6347 23.6649 C 14.634 34.4903 14.6332 47.1198 14.6324 56.0947 C 14.6317 65.0696 14.6309 70.0901 14.6302 69.0083 C 14.6294 67.9266 14.6286 60.7477 14.6279 50.5984 C 14.6271 40.4491 14.6264 27.6347 14.6256 17.6979 C 14.6249 7.761 14.6241 1.02794 14.6234 0.389272 C 14.6226 -0.2494 14.6219 5.25514 14.6211 14.4986 C 14.6204 23.7421 14.6196 36.4512 14.6189 47.1251 C 14.6181 57.799 14.6174 66.0921 14.6166 68.4368 C 14.6159 70.7815 14.6151 67.0759 14.6144 58.9475 C 14.6137 50.819 14.6129 38.5029 14.6122 27.3336 C 14.6114 16.1643 14.6107 6.49885 14.61 2.50126 C 14.6092 -1.49633 14.6085 0.326496 14.6078 7.1558 C 14.607 13.9851 14.6063 25.6295 14.6056 37.0414 C 14.6048 48.4532 14.6041 59.2722 14.6034 64.8322 C 14.6027 70.3922 14.6019 70.4934 14.6012 65.1178 C 14.6005 59.7422 14.5997 49.0332 14.599 37.6371 C 14.5983 26.2411 14.5976 14.5135 14.5969 7.51694 C 14.5961 0.520382 14.5954 -1.50264 14.5947 2.29757 C 14.594 6.09779 14.5933 15.629 14.5925 26.7513 C 14.5918 37.8736 14.5911 50.2443 14.5904 58.519 C 14.5897 66.7937 14.589 70.6927 14.5883 68.5539 C 14.5876 66.4151 14.5868 58.2774 14.5861 47.6807 C 14.5854 37.084 14.5847 24.3503 14.584 14.9847 C 14.5833 5.61915 14.5826 -0.0675621 14.5819 0.361385 C 14.5812 0.790332 14.5805 7.35026 14.5798 17.1815 C 14.5791 27.0128 14.5784 39.8213 14.5777 50.0657 C 14.577 60.3101 14.5763 67.6558 14.5756 68.9464 C 14.5749 70.237 14.5742 65.4033 14.5735 56.5601 C 14.5728 47.7168 14.5721 35.1235 14.5714 24.2322 C 14.5707 13.3409 14.57 4.50251 14.5693 1.52157 C 14.5687 -1.45937 14.568 1.53857 14.5673 9.19361 C 14.5666 16.8486 14.5659 28.9417 14.5652 40.2334 C 14.5645 51.5251 14.5638 61.656 14.5632 66.2598 C 14.5625 70.8636 14.5618 69.7692 14.5611 63.4757 C 14.5604 57.1822 14.5598 45.8631 14.5591 34.4267 C 14.5584 22.9903 14.5577 11.7961 14.557 5.67366 C 14.5564 -0.448759 14.5557 -1.28274 14.555 3.50682 C 14.5543 8.29638 14.5537 18.5852 14.553 29.9074 C 14.5523 41.2296 14.5517 53.2337 14.551 60.7362 C 14.5503 68.2386 14.5496 70.9821 14.549 67.8049 C 14.5483 64.6278 14.5476 55.6021 14.547 44.6504 C 14.5463 33.6986 14.5456 21.1565 14.545 12.4438 C 14.5443 3.73117 14.5437 -0.859637 14.543 0.633191 C 14.5423 2.12602 14.5417 9.68416 14.541 20.0175 C 14.5404 30.3508 14.5397 43.1472 14.539 52.8728 C 14.5384 62.5984 14.5377 68.9326 14.5371 69.1579 C 14.5364 69.3832 14.5358 63.4637 14.5351 53.9827 C 14.5345 44.5016 14.5338 31.7408 14.5332 21.2224 C 14.5325 10.7041 14.5319 2.76978 14.5312 0.831463 C 14.5306 -1.10685 14.5299 3.04008 14.5293 11.4541 C 14.5286 19.8682 14.528 32.3046 14.5273 43.3777 C 14.5267 54.4507 14.526 63.8054 14.5254 67.4129 C 14.5248 71.0203 14.5241 68.7399 14.5235 61.5833 C 14.5228 54.4267 14.5222 42.5962 14.5216 31.2191 C 14.5209 19.8421 14.5203 9.27871 14.5197 4.08378 C 14.519 -1.11115 14.5184 -0.748815 14.5177 4.98835 C 14.5171 10.7255 14.5165 21.6822 14.5158 33.1057 C 14.5152 44.5292 14.5146 56.0621 14.514 62.7269 C 14.5133 69.3917 14.5127 70.9557 14.5121 66.7679 C 14.5114 62.58 14.5108 52.7451 14.5102 41.5338 C 14.5096 30.3224 14.5089 18.0811 14.5083 10.0973 C 14.5077 2.11352 14.5071 -1.34138 14.5064 1.20232 C 14.5058 3.74602 14.5052 12.2365 14.5046 22.9819 C 14.504 33.7273 14.5033 46.3999 14.5027 55.5219 C 14.5021 64.644 14.5015 69.9116 14.5009 69.0696 C 14.5003 68.2276 14.4996 61.2738 14.499 51.2376 C 14.4984 41.2015 14.4978 28.3844 14.4972 18.3306 C 14.4966 8.27679 14.496 1.31575 14.4953 0.436954 C 14.4947 -0.441841 14.4941 4.81794 14.4935 13.9177 C 14.4929 23.0174 14.4923 35.6888 14.4917 46.4467 C 14.4911 57.2047 14.4905 65.7016 14.4899 68.2813 C 14.4893 70.8609 14.4887 67.4143 14.4881 59.457 C 14.4875 51.4997 14.4869 39.2609 14.4863 28.0423 C 14.4857 16.8237 14.4851 6.98332 14.4845 2.76115 C 14.4839 -1.46101 14.4833 0.0944757 14.4827 6.72924 C 14.4821 13.364 14.4815 24.8931 14.4809 36.3184 C 14.4803 47.7436 14.4797 58.7048 14.4791 64.4738 C 14.4785 70.2429 14.4779 70.6138 14.4773 65.4518 C 14.4767 60.2897 14.4761 49.7312 14.4755 38.358 C 14.475 26.9848 14.4744 15.151 14.4738 7.96565 C 14.4732 0.780285 14.4726 -1.50859 14.472 2.06382 C 14.4714 5.63622 14.4708 14.9851 14.4703 26.0488 C 14.4697 37.1126 14.4691 49.5511 14.4685 57.9901 C 14.4679 66.4291 14.4673 70.5841 14.4668 68.6822 C 14.4662 66.7803 14.4656 58.8527 14.465 48.3489 C 14.4644 37.8451 14.4639 25.0834 14.4633 15.5818 C 14.4627 6.08023 14.4621 0.153098 14.4616 0.34148 C 14.461 0.529862 14.4604 6.85666 14.4598 16.5628 C 14.4593 26.2689 14.4587 39.0648 14.4581 49.4139 C 14.4575 59.763 14.457 67.328 14.4564 68.8574 C 14.4558 70.3869 14.4553 65.8041 14.4547 57.1154 C 14.4541 48.4267 14.4536 35.8863 14.453 24.924 C 14.4524 13.9616 14.4519 4.92991 14.4513 1.71731 C 14.4507 -1.49529 14.4502 1.23979 14.4496 8.71434 C 14.449 16.1889 14.4485 28.19 14.4479 39.5173 C 14.4474 50.8447 14.4468 61.1386 14.4462 65.9617 C 14.4457 70.7848 14.4451 69.9593 14.4446 63.8681 C 14.444 57.7769 14.4434 46.5868 14.4429 35.1508 C 14.4423 23.7148 14.4418 12.3917 14.4412 6.06742 C 14.4407 -0.256902 14.4401 -1.3598 14.4395 3.21017 C 14.439 7.78014 14.4384 17.9059 14.4379 29.1916 C 14.4373 40.4773 14.4368 52.5733 14.4362 60.2557 C 14.4357 67.9381 14.4351 70.9444 14.4346 67.9991 C 14.434 65.0538 14.4335 56.2216 14.4329 45.3417 C 14.4324 34.4617 14.4319 21.8667 14.4313 13.0001 C 14.4308 4.13353 14.4302 -0.708045 14.4297 0.545872 C 14.4291 1.79979 14.4286 9.13846 14.428 19.3664 C 14.4275 29.5943 14.427 42.4031 14.4264 52.2532 C 14.4259 62.1033 14.4253 68.6706 14.4248 69.1364 C 14.4243 69.6022 14.4237 63.9232 14.4232 54.5789 C 14.4227 45.2345 14.4221 32.5018 14.4216 21.8912 C 14.421 11.2807 14.4205 3.13638 14.42 0.961336 C 14.4194 -1.21371 14.4189 2.67713 14.4184 10.9263 C 14.4178 19.1755 14.4173 31.544 14.4168 42.6748 C 14.4162 53.8056 14.4157 63.3426 14.4152 67.1776 C 14.4147 71.0126 14.4141 68.998 14.4136 62.0307 C 14.4131 55.0634 14.4125 43.3393 14.412 31.9402 C 14.4115 20.5411 14.411 9.82731 14.4104 4.41915 C 14.4099 -0.989009 14.4094 -0.896329 14.4089 4.63139 C 14.4083 10.1591 14.4078 20.9735 14.4073 32.3828 C 14.4068 43.7922 14.4063 55.4402 14.4057 62.299 C 14.4052 69.1579 14.4047 70.9892 14.4042 67.0262 C 14.4037 63.0633 14.4031 53.4034 14.4026 42.2421 C 14.4021 31.0808 14.4016 18.7623 14.4011 10.608 C 14.4006 2.45365 14.4 -1.26017 14.3995 1.04835 C 14.399 3.35687 14.3985 11.6435 14.398 22.3041 C 14.3975 32.9646 14.397 45.6748 14.3965 54.94 C 14.3959 64.2052 14.3954 69.7175 14.3949 69.1157 C 14.3944 68.5139 14.3939 61.7881 14.3934 51.8696 C 14.3929 41.951 14.3924 29.1369 14.3919 18.9706 C 14.3914 8.8043 14.3909 1.61836 14.3904 0.499829 C 14.3898 -0.618699 14.3893 4.39399 14.3888 13.3459 C 14.3883 22.2979 14.3878 34.9259 14.3873 45.7631 C 14.3868 56.6004 14.3863 65.2973 14.3858 68.1109 C 14.3853 70.9244 14.3848 67.7383 14.3843 59.9556 C 14.3838 52.1728 14.3833 40.0169 14.3828 28.754 C 14.3823 17.4911 14.3818 7.48008 14.3813 3.03522 C 14.3808 -1.40965 14.3803 -0.1222 14.3798 6.31509 C 14.3793 12.7524 14.3788 24.1611 14.3784 35.5947 C 14.3779 47.0282 14.3774 58.1267 14.3769 64.1023 C 14.3764 70.0779 14.3759 70.7182 14.3754 65.7721 C 14.3749 60.826 14.3744 50.4227 14.3739 39.0773 C 14.3734 27.732 14.3729 15.7972 14.3725 8.42623 C 14.372 1.05523 14.3715 -1.49848 14.371 1.84453 C 14.3705 5.18755 14.37 14.3498 14.3695 25.3502 C 14.369 36.3505 14.3686 48.8513 14.3681 57.4509 C 14.3676 66.0504 14.3671 70.4597 14.3666 68.7955 C 14.3661 67.1313 14.3657 59.4174 14.3652 49.0111 C 14.3647 38.6047 14.3642 25.8209 14.3637 16.1875 C 14.3632 6.55401 14.3628 0.389075 14.3623 0.336809 C 14.3618 0.284543 14.3613 6.3754 14.3609 15.9521 C 14.3604 25.5288 14.3599 38.3063 14.3594 48.7555 C 14.3589 59.2048 14.3585 66.9859 14.358 68.7534 C 14.3575 70.521 14.357 66.191 14.3566 57.6608 C 14.3561 49.1305 14.3556 36.6486 14.3552 25.6201 C 14.3547 14.5916 14.3542 5.37051 14.3537 1.92767 C 14.3533 -1.51517 14.3528 0.955836 14.3523 8.2466 C 14.3519 15.5374 14.3514 27.4411 14.3509 38.7992 C 14.3504 50.1573 14.35 60.6096 14.3495 65.6498 C 14.349 70.6899 14.3486 70.1338 14.3481 64.2476 C 14.3476 58.3614 14.3472 47.3053 14.3467 35.8748 C 14.3462 24.4442 14.3458 12.9973 14.3453 6.47388 C 14.3449 -0.0495458 14.3444 -1.42088 14.3439 2.92749 C 14.3435 7.27586 14.343 17.234 14.3425 28.4783 C 14.3421 39.7225 14.3416 51.9049 14.3412 59.7639 C 14.3407 67.6229 14.3402 70.8907 14.3398 68.1786 C 14.3393 65.4665 14.3389 56.8317 14.3384 46.0283 C 14.338 35.2249 14.3375 22.5827 14.337 13.5661 C 14.3366 4.54945 14.3361 -0.540754 14.3357 0.473697 C 14.3352 1.48815 14.3348 8.6041 14.3343 18.7221 C 14.3339 28.8401 14.3334 41.6557 14.333 51.6259 C 14.3325 61.5961 14.332 68.3935 14.3316 69.0997 C 14.3311 69.8058 14.3307 64.3698 14.3302 55.1663 C 14.3298 45.9628 14.3293 33.2637 14.3289 22.5657 C 14.3284 11.8677 14.328 3.51698 14.3275 1.10617 C 14.3271 -1.30464 14.3267 2.32839 14.3262 10.4091 C 14.3258 18.4898 14.3253 30.7847 14.3249 41.9684 C 14.3244 53.152 14.324 62.8671 14.3235 66.9279 C 14.3231 70.9888 14.3226 69.241 14.3222 62.4661 C 14.3218 55.6911 14.3213 44.0786 14.3209 32.6625 C 14.3204 21.2464 14.32 10.387 14.3196 4.76795 C 14.3191 -0.851047 14.3187 -1.02806 14.3182 4.28777 C 14.3178 9.6036 14.3174 20.2708 14.3169 31.661 C 14.3165 43.0511 14.316 54.8091 14.3156 61.859 C 14.3152 68.9089 14.3147 71.0067 14.3143 67.2703 C 14.3139 63.534 14.3134 54.0535 14.313 42.9472 C 14.3126 31.8409 14.3121 19.4506 14.3117 11.1293 C 14.3113 2.80809 14.3108 -1.16303 14.3104 0.909299 C 14.31 2.98163 14.3095 11.0606 14.3091 21.6317 C 14.3087 32.2028 14.3082 44.945 14.3078 54.3492 C 14.3074 63.7534 14.3069 69.5079 14.3065 69.1465 C 14.3061 68.7852 14.3057 62.2904 14.3052 52.4939 C 14.3048 42.6974 14.3044 29.8918 14.3039 19.6176 C 14.3035 9.34329 14.3031 1.93563 14.3027 0.577869 C 14.3022 -0.779897 14.3018 3.98349 14.3014 12.7837 C 14.301 21.5839 14.3005 34.1629 14.3001 45.0747 C 14.2997 55.9864 14.2993 64.8795 14.2989 67.9257 C 14.2984 70.9719 14.298 68.0477 14.2976 60.443 C 14.2972 52.8383 14.2967 40.7705 14.2963 29.4683 C 14.2959 18.1661 14.2955 7.98893 14.2951 3.32332 C 14.2946 -1.34229 14.2942 -0.323436 14.2938 5.91353 C 14.2934 12.1505 14.293 23.4338 14.2926 34.8706 C 14.2921 46.3074 14.2917 57.5384 14.2913 63.7178 C 14.2909 69.8972 14.2905 70.8068 14.2901 66.0787 C 14.2896 61.3506 14.2892 51.1072 14.2888 39.7947 C 14.2884 28.4822 14.288 16.4518 14.2876 8.89845 C 14.2872 1.34509 14.2868 -1.47232 14.2863 1.63982 C 14.2859 4.75196 14.2855 13.7237 14.2851 24.6557 C 14.2847 35.5878 14.2843 48.1454 14.2839 56.9016 C 14.2835 65.6579 14.2831 70.3194 14.2827 68.8937 C 14.2822 67.4679 14.2818 59.9711 14.2814 49.6669 C 14.281 39.3627 14.2806 26.5623 14.2802 16.8013 C 14.2798 7.04027 14.2794 0.640267 14.279 0.347376 C 14.2786 0.0544847 14.2782 5.90671 14.2778 15.3497 C 14.2774 24.7928 14.277 37.5463 14.2766 48.091 C 14.2762 58.6358 14.2758 66.6294 14.2754 68.6343 C 14.275 70.6393 14.2746 66.5641 14.2742 58.196 C 14.2738 49.8279 14.2734 37.41 14.273 26.3202 C 14.2726 15.2305 14.2722 5.82412 14.2718 2.15257 C 14.2714 -1.51899 14.271 0.686849 14.2706 7.79059 C 14.2702 14.8943 14.2698 26.6955 14.2694 38.0792 C 14.269 49.463 14.2686 60.0691 14.2682 65.3241 C 14.2678 70.5792 14.2674 70.2926 14.267 64.6141 C 14.2666 58.9355 14.2662 48.0183 14.2658 36.5983 C 14.2654 25.1782 14.265 13.6125 14.2646 6.89285 C 14.2642 0.173219 14.2638 -1.46595 14.2634 2.65889 C 14.2631 6.78373 14.2627 16.5699 14.2623 27.7677 C 14.2619 38.9655 14.2615 51.229 14.2611 59.2611 C 14.2607 67.2932 14.2603 70.821 14.2599 68.3432 C 14.2595 65.8655 14.2592 57.4319 14.2588 46.7099 C 14.2584 35.9879 14.258 23.3041 14.2576 14.1414 C 14.2572 4.97874 14.2568 -0.357837 14.2564 0.416699 C 14.2561 1.19123 14.2557 8.08131 14.2553 18.0849 C 14.2549 28.0884 14.2545 40.9052 14.2541 50.9911 C 14.2537 61.077 14.2534 68.1015 14.253 69.0477 C 14.2526 69.9939 14.2522 64.8033 14.2518 55.7447 C 14.2514 46.6861 14.2511 34.0263 14.2507 23.2456 C 14.2503 12.4649 14.2499 3.9114 14.2495 1.2659 C 14.2492 -1.37961 14.2488 1.99399 14.2484 9.90261 C 14.248 17.8112 14.2476 30.0273 14.2473 41.2588 C 14.2469 52.4903 14.2465 62.3791 14.2461 66.6641 C 14.2457 70.949 14.2454 69.4687 14.245 62.8892 C 14.2446 56.3096 14.2442 44.8138 14.2439 33.3857 C 14.2435 21.9576 14.2431 10.9574 14.2427 5.13003 C 14.2424 -0.697322 14.242 -1.14395 14.2416 3.95764 C 14.2412 9.05922 14.2409 19.5746 14.2405 30.9405 C 14.2401 42.3064 14.2397 54.1691 14.2394 61.4069 C 14.239 68.6448 14.2386 71.0082 14.2383 67.5 C 14.2379 63.9919 14.2375 54.6951 14.2371 43.6486 C 14.2368 32.6022 14.2364 20.1457 14.236 11.6612 C 14.2357 3.17666 14.2353 -1.04998 14.2349 0.785232 C 14.2346 2.62045 14.2342 10.4883 14.2338 20.9652 C 14.2335 31.4421 14.2331 44.2106 14.2327 53.7496 C 14.2324 63.2887 14.232 69.2829 14.2316 69.1622 C 14.2313 69.0414 14.2309 62.7806 14.2305 53.1104 C 14.2302 43.4402 14.2298 30.649 14.2294 20.2712 C 14.2291 9.89354 14.2287 2.26744 14.2283 0.671039 C 14.228 -0.925364 14.2276 3.5866 14.2273 12.2312 C 14.2269 20.8757 14.2265 33.4003 14.2262 44.3817 C 14.2258 55.3631 14.2254 64.4484 14.2251 67.7258 C 14.2247 71.0033 14.2244 68.3423 14.224 60.919 C 14.2236 53.4958 14.2233 41.5215 14.2229 30.185 C 14.2226 18.8485 14.2222 8.50962 14.2219 3.62534 C 14.2215 -1.25894 14.2211 -0.509143 14.2208 5.52473 C 14.2204 11.5586 14.2201 22.7115 14.2197 34.1465 C 14.2194 45.5815 14.219 56.9399 14.2186 63.3204 C 14.2183 69.701 14.2179 70.8794 14.2176 66.3715 C 14.2172 61.8635 14.2169 51.7844 14.2165 40.5099 C 14.2162 29.2353 14.2158 17.1145 14.2155 9.38212 C 14.2151 1.64975 14.2147 -1.43013 14.2144 1.44977 C 14.214 4.32966 14.2137 13.1068 14.2133 23.9657 C 14.213 34.8247 14.2126 47.4334 14.2123 56.3426 C 14.2119 65.2518 14.2116 70.1634 14.2112 68.9767 C 14.2109 67.79 14.2105 60.5136 14.2102 50.3161 C 14.2098 40.1186 14.2095 27.3073 14.2091 17.4231 C 14.2088 7.5388 14.2084 0.906562 14.2081 0.373175 C 14.2078 -0.160212 14.2074 5.45079 14.2071 14.756 C 14.2067 24.0612 14.2064 36.785 14.206 47.4206 C 14.2057 58.0562 14.2053 66.2589 14.205 68.5003 C 14.2046 70.7417 14.2043 66.9231 14.204 58.7209 C 14.2036 50.5186 14.2033 38.1703 14.2029 27.0241 C 14.2026 15.878 14.2022 6.29054 14.2019 2.3919 C 14.2016 -1.50675 14.2012 0.432944 14.2009 7.34652 C 14.2005 14.2601 14.2002 25.9534 14.1998 37.3578 C 14.1995 48.7622 14.1992 59.5173 14.1988 64.985 C 14.1985 70.4526 14.1981 70.4357 14.1978 64.9673 C 14.1975 59.4989 14.1971 48.7254 14.1968 37.3209 C 14.1965 25.9164 14.1961 14.237 14.1958 7.32416 C 14.1954 0.411293 14.1951 -1.49498 14.1948 2.40451 C 14.1944 6.30399 14.1941 15.9138 14.1938 27.0602 C 14.1934 38.2066 14.1931 50.5458 14.1928 58.7474 C 14.1924 66.949 14.1921 70.7353 14.1917 68.493 C 14.1914 66.2508 14.1911 58.0221 14.1907 47.3862 C 14.1904 36.7503 14.1901 24.0305 14.1897 14.7259 C 14.1894 5.42121 14.1891 -0.159376 14.1887 0.374902 C 14.1884 0.909179 14.1881 7.57033 14.1878 17.455 C 14.1874 27.3397 14.1871 40.152 14.1868 50.3491 C 14.1864 60.5462 14.1861 67.7948 14.1858 68.9806 C 14.1854 70.1664 14.1851 65.2235 14.1848 56.3138 C 14.1845 47.4041 14.1841 34.7893 14.1838 23.9306 C 14.1835 13.0719 14.1831 4.31949 14.1828 1.44045 C 14.1825 -1.43858 14.1822 1.6741 14.1818 9.40714 C 14.1815 17.1402 14.1812 29.2719 14.1808 40.5463 C 14.1805 51.8208 14.1802 61.8789 14.1799 66.386 C 14.1795 70.8931 14.1792 69.6811 14.1789 63.2998 C 14.1786 56.9185 14.1782 45.5445 14.1779 34.1095 C 14.1776 22.6746 14.1773 11.5383 14.177 5.50522 C 14.1766 -0.527902 14.1763 -1.24395 14.176 3.64114 C 14.1757 8.52622 14.1753 18.8851 14.175 30.2217 C 14.1747 41.5583 14.1744 53.5205 14.1741 60.943 C 14.1737 68.3656 14.1734 70.9935 14.1731 67.7152 C 14.1728 64.437 14.1725 55.3278 14.1721 44.3461 C 14.1718 33.3645 14.1715 20.8472 14.1712 12.2032 C 14.1709 3.55922 14.1705 -0.921082 14.1702 0.676204 C 14.1699 2.27349 14.1696 9.92673 14.1693 20.3048 C 14.169 30.6829 14.1686 43.472 14.1683 53.1417 C 14.168 62.8114 14.1677 69.0427 14.1674 69.1625 C 14.1671 69.2824 14.1667 63.2583 14.1664 53.7188 C 14.1661 44.1792 14.1658 31.4079 14.1655 20.9313 C 14.1652 10.4548 14.1649 2.61363 14.1645 0.779298 C 14.1642 -1.05504 14.1639 3.20351 14.1636 11.6886 C 14.1633 20.1737 14.163 32.6382 14.1627 43.6844 C 14.1624 54.7306 14.162 64.0041 14.1617 67.5114 C 14.1614 71.0186 14.1611 68.622 14.1608 61.3835 C 14.1605 54.145 14.1602 42.2695 14.1599 30.9037 C 14.1596 19.5379 14.1592 9.04192 14.1589 3.94114 C 14.1586 -1.15965 14.1583 -0.679238 14.158 5.14888 C 14.1577 10.977 14.1574 21.9946 14.1571 33.4227 C 14.1568 44.8508 14.1565 56.3316 14.1562 62.9104 C 14.1558 69.4893 14.1555 70.9359 14.1552 66.6502 C 14.1549 62.3644 14.1546 52.4542 14.1543 41.2225 C 14.154 29.9908 14.1537 17.785 14.1534 9.87703 C 14.1531 1.96906 14.1528 -1.37192 14.1525 1.27446 C 14.1522 3.92083 14.1519 12.4995 14.1516 23.2805 C 14.1513 34.0615 14.151 46.7159 14.1507 55.774 C 14.1504 64.8321 14.1501 69.9917 14.1497 69.0446 C 14.1494 68.0976 14.1491 61.0448 14.1488 50.9585 C 14.1485 40.8722 14.1482 28.0556 14.1479 18.0525 C 14.1476 8.04938 14.1473 1.18784 14.147 0.414195 C 14.1467 -0.359451 14.1464 5.00785 14.1461 14.1711 C 14.1458 23.3343 14.1455 36.0228 14.1452 46.7446 C 14.1449 57.4663 14.1446 65.8744 14.1443 68.3512 C 14.144 70.8281 14.1437 67.2678 14.1434 59.2351 C 14.1431 51.2024 14.1428 38.9291 14.1425 27.7315 C 14.1423 16.5339 14.142 6.76956 14.1417 2.64555 C 14.1414 -1.47846 14.1411 0.194234 14.1408 6.91459 C 14.1405 13.6349 14.1402 25.2152 14.1399 36.6352 C 14.1396 48.0552 14.1393 58.9546 14.139 64.6324 C 14.1387 70.3102 14.1384 70.563 14.1381 65.3071 C 14.1378 60.0513 14.1375 49.4262 14.1372 38.0424 C 14.1369 26.6585 14.1366 14.8707 14.1364 7.76762 C 14.1361 0.664571 14.1358 -1.50796 14.1355 2.16444 C 14.1352 5.83684 14.1349 15.2661 14.1346 26.3561 C 14.1343 37.4461 14.134 49.8556 14.1337 58.2231 C 14.1334 66.5906 14.1331 70.6337 14.1329 68.6279 C 14.1326 66.6221 14.1323 58.602 14.132 48.0569 C 14.1317 37.5118 14.1314 24.7617 14.1311 15.3192 C 14.1308 5.87667 14.1305 0.0545419 14.1302 0.348325 C 14.13 0.642108 14.1297 7.07138 14.1294 16.8329 C 14.1291 26.5943 14.1288 39.3964 14.1285 49.7002 C 14.1282 60.004 14.1279 67.4734 14.1277 68.8983 C 14.1274 70.3231 14.1271 65.6302 14.1268 56.8733 C 14.1265 48.1165 14.1262 35.5522 14.1259 24.6204 C 14.1257 13.6886 14.1254 4.74104 14.1251 1.62975 C 14.1248 -1.48153 14.1245 1.36886 14.1242 8.92288 C 14.1239 16.4769 14.1237 28.519 14.1234 39.8313 C 14.1231 51.1436 14.1228 61.3667 14.1225 66.094 C 14.1222 70.8213 14.122 69.878 14.1217 63.6978 C 14.1214 57.5176 14.1211 46.2704 14.1208 34.8336 C 14.1206 23.3968 14.1203 12.1296 14.12 5.89335 C 14.1197 -0.342862 14.1194 -1.32801 14.1191 3.33841 C 14.1189 8.00483 14.1186 18.2026 14.1183 29.5049 C 14.118 40.8072 14.1177 52.8636 14.1175 60.4676 C 14.1172 68.0716 14.1169 70.9629 14.1166 67.9158 C 14.1164 64.8688 14.1161 55.9514 14.1158 45.0394 C 14.1155 34.1274 14.1152 21.5549 14.115 12.7552 C 14.1147 3.95559 14.1144 -0.776389 14.1141 0.582262 C 14.1139 1.94091 14.1136 9.37614 14.1133 19.6508 C 14.113 29.9255 14.1127 42.7295 14.1125 52.5256 C 14.1122 62.3217 14.1119 68.7872 14.1116 69.1477 C 14.1114 69.5082 14.1111 63.7235 14.1108 54.3187 C 14.1105 44.914 14.1103 32.1683 14.11 21.5975 C 14.1097 11.0268 14.1094 2.97405 14.1092 0.902598 C 14.1089 -1.16885 14.1086 2.83439 14.1084 11.1563 C 14.1081 19.4781 14.1078 31.877 14.1075 42.9831 C 14.1073 54.0893 14.107 63.5469 14.1067 67.2824 C 14.1064 71.018 14.1062 68.8868 14.1059 61.8362 C 14.1056 54.7855 14.1054 43.0142 14.1051 31.6241 C 14.1048 20.2341 14.1046 9.58562 14.1043 4.27058 C 14.104 -1.04446 14.1037 -0.833647 14.1035 4.78613 C 14.1032 10.4059 14.1029 21.2832 14.1027 32.6994 C 14.1024 44.1156 14.1021 55.7138 14.1019 62.488 C 14.1016 69.2622 14.1013 70.9765 14.1011 66.9148 C 14.1008 62.8531 14.1005 53.116 14.1002 41.9322 C 14.1 30.7484 14.0997 18.463 14.0994 10.3829 C 14.0992 2.30288 14.0989 -1.29771 14.0986 1.11397 C 14.0984 3.52565 14.0981 11.902 14.0978 22.6003 C 14.0976 33.2986 14.0973 45.9931 14.0971 55.1961 C 14.0968 64.399 14.0965 69.8044 14.0963 69.0974 C 14.096 68.3903 14.0957 61.5642 14.0955 51.5936 C 14.0952 41.623 14.0949 28.8069 14.0947 18.6893 C 14.0944 8.57178 14.0941 1.48398 14.0939 0.470417 C 14.0936 -0.543146 14.0934 4.57807 14.0931 13.5953 C 14.0928 22.6124 14.0926 35.2601 14.0923 46.0632 C 14.092 56.8663 14.0918 65.4761 14.0915 68.1873 C 14.0913 70.8986 14.091 67.5981 14.0907 59.7385 C 14.0905 51.8789 14.0902 39.686 14.09 28.4419 C 14.0897 17.1978 14.0894 7.26097 14.0892 2.91342 C 14.0889 -1.43412 14.0887 -0.0291761 14.0884 6.49498 C 14.0881 13.0191 14.0879 24.4813 14.0876 35.9118 C 14.0874 47.3423 14.0871 58.3812 14.0868 64.2667 C 14.0866 70.1521 14.0863 70.6744 14.0861 65.6335 C 14.0858 60.5925 14.0856 50.1206 14.0853 38.7624 C 14.085 27.4042 14.0848 15.5131 14.0845 8.22302 C 14.0843 0.932941 14.084 -1.50488 14.0838 1.93881 C 14.0835 5.3825 14.0833 14.627 14.083 25.6558 C 14.0827 36.6845 14.0825 49.1587 14.0822 57.6883 C 14.082 66.218 14.0817 70.5161 14.0815 68.7477 C 14.0812 66.9793 14.081 59.1713 14.0807 48.7217 C 14.0804 38.2721 14.0802 25.4973 14.0799 15.9211 C 14.0797 6.34491 14.0794 0.283822 14.0792 0.33698 C 14.0789 0.390138 14.0787 6.58469 14.0784 16.2186 C 14.0782 25.8525 14.0779 38.6388 14.0777 49.0447 C 14.0774 59.4507 14.0772 67.1375 14.0769 68.8009 C 14.0767 70.4642 14.0764 66.0232 14.0762 57.4231 C 14.0759 48.8229 14.0757 36.3147 14.0754 25.3146 C 14.0752 14.3145 14.0749 5.17588 14.0747 1.83372 C 14.0744 -1.50844 14.0742 1.07839 14.0739 8.45007 C 14.0737 15.8217 14.0734 27.7688 14.0732 39.114 C 14.0729 50.4593 14.0727 60.8428 14.0724 65.7881 C 14.0722 70.7334 14.0719 70.0593 14.0717 64.083 C 14.0714 58.1066 14.0712 46.9913 14.0709 35.5577 C 14.0707 24.1241 14.0704 12.7308 14.0702 6.29427"
     title="1/t sin(t)"
     id="path1176" />
  <path
     style="fill:none;stroke:#ff0000;stroke-width:0.79375;stroke-linecap:butt;stroke-linejoin:miter;stroke-dasharray:none;stroke-opacity:1"
     d="M 13.327,0.3365241 V 68.827991"
     id="path1244"
     inkscape:label="b0" />
</svg>
