<?xml version="1.0" encoding="UTF-8" standalone="no"?>
<!-- Created with Inkscape (http://www.inkscape.org/) -->

<svg
   width="341.98163"
   height="131.0126"
   viewBox="0 0 90.482638 34.663752"
   version="1.1"
   id="svg5"
   inkscape:version="1.2.2 (b0a8486541, 2022-12-01)"
   sodipodi:docname="regular.svg"
   xmlns:inkscape="http://www.inkscape.org/namespaces/inkscape"
   xmlns:sodipodi="http://sodipodi.sourceforge.net/DTD/sodipodi-0.dtd"
   xmlns:xlink="http://www.w3.org/1999/xlink"
   xmlns="http://www.w3.org/2000/svg"
   xmlns:svg="http://www.w3.org/2000/svg">
  <sodipodi:namedview
     id="namedview7"
     pagecolor="#ffffff"
     bordercolor="#666666"
     borderopacity="1.0"
     inkscape:pageshadow="2"
     inkscape:pageopacity="0.0"
     inkscape:pagecheckerboard="true"
     inkscape:document-units="px"
     showgrid="false"
     units="px"
     inkscape:showpageshadow="0"
     inkscape:deskcolor="#d1d1d1"
     inkscape:zoom="2"
     inkscape:cx="179"
     inkscape:cy="67.5"
     inkscape:window-width="1353"
     inkscape:window-height="744"
     inkscape:window-x="114"
     inkscape:window-y="37"
     inkscape:window-maximized="0"
     inkscape:current-layer="svg5" />
  <defs
     id="defs2">
    <pattern
       inkscape:collect="always"
       xlink:href="#Strips1_3"
       id="pattern3085"
       patternTransform="matrix(0.18447291,0.21773692,-6.0252954,5.1047968,70.935187,15.726777)" />
    <pattern
       inkscape:collect="always"
       patternUnits="userSpaceOnUse"
       width="4"
       height="1"
       patternTransform="translate(0,0) scale(10,10)"
       id="Strips1_3"
       inkscape:stockid="Stripes 1:3">
      <rect
         style="fill:black;stroke:none"
         x="0"
         y="-0.5"
         width="1"
         height="2"
         id="rect2111" />
    </pattern>
  </defs>
  <path
     style="fill:url(#pattern3085);fill-opacity:1;stroke:#000000;stroke-width:0.52916667;stroke-linecap:butt;stroke-linejoin:miter;stroke-opacity:1;stroke-dasharray:none"
     d="m 58.341812,14.122656 c 1.362627,-2.472005 4.074565,-4.4389749 6.843437,-4.9875265 3.597693,-0.7127524 8.504913,-0.3440513 10.691046,2.6008145 2.6421,3.559083 3.216795,11.261584 -0.730769,13.277645 -1.648158,0.841731 -2.867432,-2.583016 -4.669846,-3.002828 -4.168401,-0.97089 -9.659901,4.411929 -12.756901,1.457816 -2.259247,-2.155011 -0.884192,-6.611595 0.623033,-9.345921 z"
     id="path459"
     sodipodi:nodetypes="aaaaaaa" />
  <circle
     style="fill:#000000;fill-opacity:1;fill-rule:evenodd;stroke:none;stroke-width:0.396875;stroke-linecap:round;paint-order:fill markers stroke;stop-color:#000000"
     id="path860"
     cx="15.10694"
     cy="19.45966"
     r="2.2574391" />
  <text
     xml:space="preserve"
     style="font-size:7.05556px;line-height:1.25;font-family:'Patrick Hand';-inkscape-font-specification:'Patrick Hand';stroke-width:0.264583"
     x="10.90887"
     y="27.194248"
     id="text1024"><tspan
       sodipodi:role="line"
       id="tspan1022"
       style="stroke-width:0.264583"
       x="10.90887"
       y="27.194248">x</tspan></text>
  <text
     xml:space="preserve"
     style="font-size:7.05556px;line-height:1.25;font-family:'Patrick Hand';-inkscape-font-specification:'Patrick Hand';stroke-width:0.264583"
     x="64.383507"
     y="29.009134"
     id="text1078"><tspan
       sodipodi:role="line"
       id="tspan1076"
       style="stroke-width:0.264583"
       x="64.383507"
       y="29.009134">A</tspan></text>
  <path
     style="fill:none;stroke:#000000;stroke-width:0.529167;stroke-linecap:butt;stroke-linejoin:miter;stroke-dasharray:2.11667, 2.11667;stroke-dashoffset:0;stroke-opacity:1"
     d="m 1.6019112,9.7861617 c 3.090173,-5.297155 8.9965568,-8.84850496 15.7752558,-9.46691596 6.778699,-0.61841 10.869543,3.10337796 13.673822,7.17728596 2.804279,4.0739083 5.875134,7.5171203 4.912619,11.7043803 -1.51674,7.394777 -6.025691,6.447246 -9.981067,9.06076 -2.630919,1.824024 -6.437013,5.161501 -8.577154,5.865971 C 12.268351,35.907567 3.3282382,29.953403 1.2323842,24.049995 0.64419322,19.03269 -0.79469878,13.894417 1.6019112,9.7861617 Z"
     id="path1206"
     sodipodi:nodetypes="azzcccca" />
  <path
     style="fill:none;stroke:#000000;stroke-width:0.529167;stroke-linecap:butt;stroke-linejoin:miter;stroke-dasharray:2.11667, 2.11667;stroke-dashoffset:0;stroke-opacity:1"
     d="m 46.462442,14.263834 c 4.442924,-6.5047653 8.211108,-9.6186253 13.772666,-9.9061063 5.561558,-0.28748 8.837868,-0.803607 12.795972,-0.917898 3.958104,-0.11429 13.986079,-0.608707 16.388019,2.052365 2.40194,2.661072 -0.17653,4.7191493 -1.12169,5.6966993 -0.94516,0.97755 -1.47515,-0.584303 -3.68456,2.883786 -2.20941,3.468089 -4.26827,12.61911 -7.900727,15.796194 -3.63246,3.177084 -9.740961,6.107012 -13.989514,3.165059 -4.226525,-2.9267 -20.70309,-12.265334 -16.260166,-18.770099 z"
     id="path1208"
     sodipodi:nodetypes="zzzzzzzsz" />
</svg>
