<?xml version="1.0" encoding="UTF-8" standalone="no"?>
<!-- Created with Inkscape (http://www.inkscape.org/) -->

<svg
   width="392.02585"
   height="206.72867"
   viewBox="0 0 103.72351 54.696962"
   version="1.1"
   id="svg5"
   inkscape:version="1.1.2 (0a00cf5339, 2022-02-04)"
   sodipodi:docname="cauchy-integral-multiple.svg"
   xmlns:inkscape="http://www.inkscape.org/namespaces/inkscape"
   xmlns:sodipodi="http://sodipodi.sourceforge.net/DTD/sodipodi-0.dtd"
   xmlns="http://www.w3.org/2000/svg"
   xmlns:svg="http://www.w3.org/2000/svg">
  <sodipodi:namedview
     id="namedview7"
     pagecolor="#ffffff"
     bordercolor="#666666"
     borderopacity="1.0"
     inkscape:pageshadow="2"
     inkscape:pageopacity="0.0"
     inkscape:pagecheckerboard="true"
     inkscape:document-units="px"
     showgrid="false"
     units="px"
     inkscape:zoom="1.6680499"
     inkscape:cx="93.822133"
     inkscape:cy="25.778605"
     inkscape:window-width="1421"
     inkscape:window-height="884"
     inkscape:window-x="328"
     inkscape:window-y="76"
     inkscape:window-maximized="0"
     inkscape:current-layer="layer1"
     inkscape:snap-global="false" />
  <defs
     id="defs2">
    <inkscape:path-effect
       effect="bspline"
       id="path-effect1108"
       is_visible="true"
       lpeversion="1"
       weight="33.333333"
       steps="2"
       helper_size="0"
       apply_no_weight="true"
       apply_with_weight="true"
       only_selected="false" />
    <inkscape:path-effect
       effect="bspline"
       id="path-effect1022"
       is_visible="true"
       lpeversion="1"
       weight="33.333333"
       steps="2"
       helper_size="0"
       apply_no_weight="true"
       apply_with_weight="true"
       only_selected="false" />
    <inkscape:path-effect
       effect="bspline"
       id="path-effect27127"
       is_visible="true"
       lpeversion="1"
       weight="33.333333"
       steps="2"
       helper_size="0"
       apply_no_weight="true"
       apply_with_weight="true"
       only_selected="false" />
    <inkscape:path-effect
       effect="bspline"
       id="path-effect26866"
       is_visible="true"
       lpeversion="1"
       weight="33.333333"
       steps="2"
       helper_size="0"
       apply_no_weight="true"
       apply_with_weight="true"
       only_selected="false" />
    <inkscape:path-effect
       effect="bspline"
       id="path-effect26860"
       is_visible="true"
       lpeversion="1"
       weight="33.333333"
       steps="2"
       helper_size="0"
       apply_no_weight="true"
       apply_with_weight="true"
       only_selected="false" />
    <inkscape:path-effect
       effect="bspline"
       id="path-effect26854"
       is_visible="true"
       lpeversion="1"
       weight="33.333333"
       steps="2"
       helper_size="0"
       apply_no_weight="true"
       apply_with_weight="true"
       only_selected="false" />
    <inkscape:path-effect
       effect="bspline"
       id="path-effect26848"
       is_visible="true"
       lpeversion="1"
       weight="33.333333"
       steps="2"
       helper_size="0"
       apply_no_weight="true"
       apply_with_weight="true"
       only_selected="false" />
    <inkscape:path-effect
       effect="bspline"
       id="path-effect26842"
       is_visible="true"
       lpeversion="1"
       weight="33.333333"
       steps="2"
       helper_size="0"
       apply_no_weight="true"
       apply_with_weight="true"
       only_selected="false" />
    <inkscape:path-effect
       effect="bspline"
       id="path-effect26836"
       is_visible="true"
       lpeversion="1"
       weight="33.333333"
       steps="2"
       helper_size="0"
       apply_no_weight="true"
       apply_with_weight="true"
       only_selected="false" />
    <inkscape:path-effect
       effect="bspline"
       id="path-effect26830"
       is_visible="true"
       lpeversion="1"
       weight="33.333333"
       steps="2"
       helper_size="0"
       apply_no_weight="true"
       apply_with_weight="true"
       only_selected="false" />
    <inkscape:path-effect
       effect="bspline"
       id="path-effect26824"
       is_visible="true"
       lpeversion="1"
       weight="33.333333"
       steps="2"
       helper_size="0"
       apply_no_weight="true"
       apply_with_weight="true"
       only_selected="false" />
    <inkscape:path-effect
       effect="bspline"
       id="path-effect26642"
       is_visible="true"
       lpeversion="1"
       weight="33.333333"
       steps="2"
       helper_size="0"
       apply_no_weight="true"
       apply_with_weight="true"
       only_selected="false" />
    <inkscape:path-effect
       effect="bspline"
       id="path-effect26636"
       is_visible="true"
       lpeversion="1"
       weight="33.333333"
       steps="2"
       helper_size="0"
       apply_no_weight="true"
       apply_with_weight="true"
       only_selected="false" />
    <inkscape:path-effect
       effect="bspline"
       id="path-effect26630"
       is_visible="true"
       lpeversion="1"
       weight="33.333333"
       steps="2"
       helper_size="0"
       apply_no_weight="true"
       apply_with_weight="true"
       only_selected="false" />
    <inkscape:path-effect
       effect="bspline"
       id="path-effect26624"
       is_visible="true"
       lpeversion="1"
       weight="33.333333"
       steps="2"
       helper_size="0"
       apply_no_weight="true"
       apply_with_weight="true"
       only_selected="false" />
    <inkscape:path-effect
       effect="bspline"
       id="path-effect26618"
       is_visible="true"
       lpeversion="1"
       weight="33.333333"
       steps="2"
       helper_size="0"
       apply_no_weight="true"
       apply_with_weight="true"
       only_selected="false" />
    <inkscape:path-effect
       effect="bspline"
       id="path-effect26612"
       is_visible="true"
       lpeversion="1"
       weight="33.333333"
       steps="2"
       helper_size="0"
       apply_no_weight="true"
       apply_with_weight="true"
       only_selected="false" />
    <inkscape:path-effect
       effect="bspline"
       id="path-effect26606"
       is_visible="true"
       lpeversion="1"
       weight="33.333333"
       steps="2"
       helper_size="0"
       apply_no_weight="true"
       apply_with_weight="true"
       only_selected="false" />
    <inkscape:path-effect
       effect="bspline"
       id="path-effect26600"
       is_visible="true"
       lpeversion="1"
       weight="33.333333"
       steps="2"
       helper_size="0"
       apply_no_weight="true"
       apply_with_weight="true"
       only_selected="false" />
    <inkscape:path-effect
       effect="bspline"
       id="path-effect26434"
       is_visible="true"
       lpeversion="1"
       weight="33.333333"
       steps="2"
       helper_size="0"
       apply_no_weight="true"
       apply_with_weight="true"
       only_selected="false" />
    <inkscape:path-effect
       effect="bspline"
       id="path-effect25646"
       is_visible="true"
       lpeversion="1"
       weight="33.333333"
       steps="2"
       helper_size="0"
       apply_no_weight="true"
       apply_with_weight="true"
       only_selected="false" />
    <inkscape:path-effect
       effect="bspline"
       id="path-effect25609"
       is_visible="true"
       lpeversion="1"
       weight="33.333333"
       steps="2"
       helper_size="0"
       apply_no_weight="true"
       apply_with_weight="true"
       only_selected="false" />
    <inkscape:path-effect
       effect="bspline"
       id="path-effect18631"
       is_visible="true"
       lpeversion="1"
       weight="33.333333"
       steps="2"
       helper_size="0"
       apply_no_weight="true"
       apply_with_weight="true"
       only_selected="false" />
    <inkscape:path-effect
       effect="bspline"
       id="path-effect18372"
       is_visible="true"
       lpeversion="1"
       weight="33.333333"
       steps="2"
       helper_size="0"
       apply_no_weight="true"
       apply_with_weight="true"
       only_selected="false" />
    <inkscape:path-effect
       effect="bspline"
       id="path-effect25646-3"
       is_visible="true"
       lpeversion="1"
       weight="33.333333"
       steps="2"
       helper_size="0"
       apply_no_weight="true"
       apply_with_weight="true"
       only_selected="false" />
  </defs>
  <g
     inkscape:label="Layer 1"
     inkscape:groupmode="layer"
     id="layer1"
     transform="translate(-62.675499,-167.42733)">
    <path
       style="fill:none;stroke:#000000;stroke-width:0.529167;stroke-linecap:butt;stroke-linejoin:miter;stroke-miterlimit:4;stroke-dasharray:none;stroke-opacity:1"
       d="m 65.758468,198.50004 c 3.267805,-9.49504 8.654463,-19.15462 17.797244,-21.44432 9.14278,-2.2897 22.040788,2.79024 34.665248,1.03308 12.62446,-1.75716 24.97488,-10.35102 33.62448,-10.3967 8.64961,-0.0457 13.59773,8.45614 14.2214,17.06007 0.62367,8.60394 -3.07697,17.30916 -10.65429,24.47979 -7.57732,7.17063 -19.03083,12.80613 -30.00995,12.62342 -10.97912,-0.1827 -21.48341,-6.18372 -32.272817,-6.35348 -10.789405,-0.16976 -21.863056,5.49185 -26.825561,3.65759 -4.962505,-1.83426 -3.813558,-11.16442 -0.545754,-20.65945 z"
       id="path18629"
       sodipodi:nodetypes="cccccccccc"
       inkscape:original-d="m 63.639662,198.6645 c 5.386925,-9.65932 10.773585,-19.3189 16.15998,-28.97875 12.898795,5.08041 25.796808,10.16035 38.694818,15.24013 12.35117,-8.59394 24.70159,-17.1878 37.05198,-25.78209 4.94869,8.50259 9.89681,17.0044 14.84497,25.50646 -3.70059,8.70599 -7.40122,17.41121 -11.10233,26.11667 -11.4537,5.63598 -22.90721,11.27148 -34.36121,16.90683 -10.50444,-6.00099 -21.00873,-12.002 -31.513497,-18.0034 -11.073831,5.66211 -22.147483,11.32372 -33.22162,16.98518 1.149257,-9.33026 2.298205,-18.66042 3.446909,-27.99103 z"
       inkscape:path-effect="#path-effect18631" />
    <path
       id="path1016"
       style="fill:none;stroke:#000000;stroke-width:0.529167;stroke-linecap:round;stroke-linejoin:round;stroke-miterlimit:4;stroke-dasharray:none;stroke-opacity:1"
       d="m 93.98899,177.68409 -2.423835,-1.05435 m 2.423835,-1.05436 -2.423835,1.05436" />
    <text
       xml:space="preserve"
       style="font-size:11.2889px;line-height:1.25;font-family:'Patrick Hand';-inkscape-font-specification:'Patrick Hand';stroke-width:0.264583"
       x="63.975178"
       y="184.45198"
       id="text33415"><tspan
         sodipodi:role="line"
         id="tspan33413"
         style="stroke-width:0.264583"
         x="63.975178"
         y="184.45198">C</tspan></text>
    <path
       id="path1428"
       style="fill:none;stroke:#000000;stroke-width:0.529167;stroke-linecap:round;stroke-linejoin:round;stroke-miterlimit:4;stroke-dasharray:none;stroke-opacity:1"
       d="m 65.007385,204.64909 -1.511625,2.16832 m -0.555678,-2.58415 0.555678,2.58415" />
    <path
       id="path1430"
       style="fill:none;stroke:#000000;stroke-width:0.529167;stroke-linecap:round;stroke-linejoin:round;stroke-miterlimit:4;stroke-dasharray:none;stroke-opacity:1"
       d="m 91.556111,214.46748 2.429838,1.04044 m -2.417753,1.06823 2.417753,-1.06823" />
    <path
       id="path1432"
       style="fill:none;stroke:#000000;stroke-width:0.529167;stroke-linecap:round;stroke-linejoin:round;stroke-miterlimit:4;stroke-dasharray:none;stroke-opacity:1"
       d="m 144.43299,215.84917 2.62114,-0.34112 m -1.53748,2.15008 1.53748,-2.15008" />
    <path
       id="path1434"
       style="fill:none;stroke:#000000;stroke-width:0.529167;stroke-linecap:round;stroke-linejoin:round;stroke-miterlimit:4;stroke-dasharray:none;stroke-opacity:1"
       d="m 161.2734,173.82538 -0.70975,-2.54617 m 2.34656,1.2167 -2.34656,-1.2167" />
    <circle
       style="opacity:0.999536;fill:#000000;fill-rule:evenodd;stroke-width:0.529167;stroke-linecap:round;stroke-linejoin:round"
       id="path4083"
       cx="131.49658"
       cy="194.17136"
       r="1.3229167" />
    <text
       xml:space="preserve"
       style="font-size:8.46667px;line-height:1.25;font-family:'Patrick Hand';-inkscape-font-specification:'Patrick Hand';stroke-width:0.264583"
       x="132.75471"
       y="198.98291"
       id="text5561"><tspan
         sodipodi:role="line"
         id="tspan5559"
         style="font-size:8.46667px;stroke-width:0.264583"
         x="132.75471"
         y="198.98291">a</tspan></text>
    <path
       style="fill:none;stroke:#000000;stroke-width:0.529167;stroke-linecap:butt;stroke-linejoin:miter;stroke-miterlimit:4;stroke-dasharray:none;stroke-opacity:1"
       d="m 106.498,191.43981 c -2.68918,-1.17038 -6.05527,-2.27293 -9.566296,-2.05739 -3.511029,0.21554 -7.166656,1.74928 -9.213882,4.18747 -2.047226,2.4382 -2.485797,5.78042 0.970234,8.33578 3.456031,2.55537 10.806036,4.32389 14.001924,3.58611 3.19589,-0.73777 2.23777,-3.98198 3.29909,-6.13415 1.06131,-2.15216 4.14188,-3.21181 4.67612,-4.36058 0.53424,-1.14878 -1.478,-2.38687 -4.16719,-3.55724 z"
       id="path1020"
       inkscape:path-effect="#path-effect1022"
       inkscape:original-d="m 107.17459,191.37188 c -3.36582,-1.10229 -6.73191,-2.20484 -10.098269,-3.30766 -3.655513,1.53406 -7.311142,3.06779 -10.967109,4.6013 -0.438323,3.34261 -0.876893,6.68483 -1.315736,10.02685 7.350564,1.76886 14.70057,3.53738 22.050464,5.30567 -0.9579,-3.24408 -1.91602,-6.48829 -2.87442,-9.73283 3.08097,-1.05942 6.16154,-2.11907 9.24192,-3.179 -2.01206,-1.23787 -4.0243,-2.47595 -6.03685,-3.71433 z" />
    <g
       id="g1127">
      <path
         id="path27310"
         style="fill:none;stroke:#4c4c4c;stroke-width:0.999999;stroke-linecap:round;stroke-linejoin:miter;stroke-miterlimit:4;stroke-dasharray:none;stroke-opacity:1"
         d="m 14.122881,140.40752 28.502334,50.71902"
         transform="matrix(0.26458334,0,0,0.26458334,62.675499,167.42733)" />
      <path
         id="path1473"
         style="fill:none;stroke:#4c4c4c;stroke-width:0.999999;stroke-linecap:round;stroke-linejoin:miter;stroke-miterlimit:4;stroke-dasharray:none;stroke-opacity:1"
         d="m 24.25633,107.72477 43.683317,77.73316"
         transform="matrix(0.26458334,0,0,0.26458334,62.675499,167.42733)" />
      <path
         id="path1471"
         style="fill:none;stroke:#4c4c4c;stroke-width:0.999999;stroke-linecap:round;stroke-linejoin:miter;stroke-miterlimit:4;stroke-dasharray:none;stroke-opacity:1"
         d="m 37.296981,80.215329 56.08124,99.794911"
         transform="matrix(0.26458334,0,0,0.26458334,62.675499,167.42733)" />
      <path
         id="path1469"
         style="fill:none;stroke:#4c4c4c;stroke-width:0.999999;stroke-linecap:round;stroke-linejoin:miter;stroke-miterlimit:4;stroke-dasharray:none;stroke-opacity:1"
         d="m 131.32857,146.11196 c 6.79039,12.0833 13.58076,24.16657 20.37112,36.24982"
         transform="matrix(0.26458334,0,0,0.26458334,62.675499,167.42733)" />
      <path
         id="path1465"
         style="fill:none;stroke:#4c4c4c;stroke-width:0.999999;stroke-linecap:round;stroke-linejoin:miter;stroke-miterlimit:4;stroke-dasharray:none;stroke-opacity:1"
         d="m 73.791569,43.726562 c 8.575278,15.259452 17.150533,30.518866 25.725767,45.778242"
         transform="matrix(0.26458334,0,0,0.26458334,62.675499,167.42733)" />
      <path
         id="path1463"
         style="fill:none;stroke:#4c4c4c;stroke-width:0.999999;stroke-linecap:round;stroke-linejoin:miter;stroke-miterlimit:4;stroke-dasharray:none;stroke-opacity:1"
         d="m 158.70785,144.11768 c 8.88935,15.81835 17.77869,31.63666 26.668,47.45492"
         transform="matrix(0.26458334,0,0,0.26458334,62.675499,167.42733)" />
      <path
         id="path1459"
         style="fill:none;stroke:#4c4c4c;stroke-width:0.999999;stroke-linecap:round;stroke-linejoin:miter;stroke-miterlimit:4;stroke-dasharray:none;stroke-opacity:1"
         d="M 98.930982,37.746518 C 106.95304,52.02153 114.97508,66.29651 122.9971,80.571457"
         transform="matrix(0.26458334,0,0,0.26458334,62.675499,167.42733)" />
      <path
         id="path1457"
         style="fill:none;stroke:#4c4c4c;stroke-width:0.999999;stroke-linecap:round;stroke-linejoin:miter;stroke-miterlimit:4;stroke-dasharray:none;stroke-opacity:1"
         d="m 158.82837,42.902361 c 29.45718,52.418152 58.91406,104.835849 88.37072,157.253059"
         transform="matrix(0.26458334,0,0,0.26458334,62.675499,167.42733)" />
      <path
         id="path1455"
         style="fill:none;stroke:#4c4c4c;stroke-width:0.999999;stroke-linecap:round;stroke-linejoin:miter;stroke-miterlimit:4;stroke-dasharray:none;stroke-opacity:1"
         d="m 215.55654,42.418619 c 26.98299,48.015456 53.96576,96.030501 80.94833,144.045161"
         transform="matrix(0.26458334,0,0,0.26458334,62.675499,167.42733)" />
      <path
         id="path1453"
         style="fill:none;stroke:#4c4c4c;stroke-width:0.999999;stroke-linecap:round;stroke-linejoin:miter;stroke-miterlimit:4;stroke-dasharray:none;stroke-opacity:1"
         d="m 263.91099,27.034128 c 24.79491,44.121787 49.58959,88.243232 74.38412,132.364342"
         transform="matrix(0.26458334,0,0,0.26458334,62.675499,167.42733)" />
      <path
         id="path1451"
         style="fill:none;stroke:#4c4c4c;stroke-width:0.999999;stroke-linecap:round;stroke-linejoin:miter;stroke-miterlimit:4;stroke-dasharray:none;stroke-opacity:1"
         d="m 95.050936,132.27189 c 8.535164,15.18808 17.070314,30.37613 25.605444,45.56413"
         transform="matrix(0.26458334,0,0,0.26458334,62.675499,167.42733)" />
      <path
         id="path1447"
         style="fill:none;stroke:#4c4c4c;stroke-width:0.999999;stroke-linecap:round;stroke-linejoin:miter;stroke-miterlimit:4;stroke-dasharray:none;stroke-opacity:1"
         d="M 53.570753,58.45916 C 63.727565,76.532886 73.884344,94.606565 84.04109,112.68019"
         transform="matrix(0.26458334,0,0,0.26458334,62.675499,167.42733)" />
      <path
         id="path1445"
         style="fill:none;stroke:#4c4c4c;stroke-width:0.999999;stroke-linecap:round;stroke-linejoin:miter;stroke-miterlimit:4;stroke-dasharray:none;stroke-opacity:1"
         d="m 171.11218,115.47593 c 15.66946,27.88335 31.33885,55.76656 47.00817,83.64964"
         transform="matrix(0.26458334,0,0,0.26458334,62.675499,167.42733)" />
      <path
         id="path1441"
         style="fill:none;stroke:#4c4c4c;stroke-width:0.999999;stroke-linecap:round;stroke-linejoin:miter;stroke-miterlimit:4;stroke-dasharray:none;stroke-opacity:1"
         d="m 128.2181,39.147173 c 8.16025,14.520931 16.32049,29.041827 24.4807,43.562689"
         transform="matrix(0.26458334,0,0,0.26458334,62.675499,167.42733)" />
      <path
         id="path1439"
         style="fill:none;stroke:#4c4c4c;stroke-width:0.999999;stroke-linecap:round;stroke-linejoin:miter;stroke-miterlimit:4;stroke-dasharray:none;stroke-opacity:1"
         d="m 188.39841,44.806411 c 28.19165,50.166234 56.38306,100.332049 84.57426,150.497419"
         transform="matrix(0.26458334,0,0,0.26458334,62.675499,167.42733)" />
      <path
         id="path1437"
         style="fill:none;stroke:#4c4c4c;stroke-width:0.999999;stroke-linecap:round;stroke-linejoin:miter;stroke-miterlimit:4;stroke-dasharray:none;stroke-opacity:1"
         d="m 240.34956,35.822172 c 25.97137,46.215267 51.94254,92.430198 77.91349,138.644748"
         transform="matrix(0.26458334,0,0,0.26458334,62.675499,167.42733)" />
      <path
         id="path1435"
         style="fill:none;stroke:#4c4c4c;stroke-width:0.999999;stroke-linecap:round;stroke-linejoin:miter;stroke-miterlimit:4;stroke-dasharray:none;stroke-opacity:1"
         d="m 287.09313,17.571136 c 23.06718,41.047407 46.13424,82.094548 69.20111,123.141384"
         transform="matrix(0.26458334,0,0,0.26458334,62.675499,167.42733)" />
      <path
         id="path1433"
         style="fill:none;stroke:#4c4c4c;stroke-width:0.999999;stroke-linecap:round;stroke-linejoin:miter;stroke-miterlimit:4;stroke-dasharray:none;stroke-opacity:1"
         d="m 310.88658,9.196006 c 20.15958,35.873384 40.31905,71.74658 60.47841,107.619544"
         transform="matrix(0.26458334,0,0,0.26458334,62.675499,167.42733)" />
      <path
         id="path1431"
         style="fill:none;stroke:#4c4c4c;stroke-width:0.999999;stroke-linecap:round;stroke-linejoin:miter;stroke-miterlimit:4;stroke-dasharray:none;stroke-opacity:1"
         d="M 338.04226,6.8037541 C 352.33031,32.228937 366.61828,57.654007 380.90622,83.079002"
         transform="matrix(0.26458334,0,0,0.26458334,62.675499,167.42733)" />
    </g>
    <path
       id="path1796"
       style="fill:none;stroke:#000000;stroke-width:0.529167;stroke-linecap:round;stroke-linejoin:round;stroke-miterlimit:4;stroke-dasharray:none;stroke-opacity:1"
       d="m 94.250413,190.80307 -2.643067,-0.0288 m 1.823011,-1.91397 -1.823011,1.91397" />
    <path
       id="path1798"
       style="fill:none;stroke:#000000;stroke-width:0.529167;stroke-linecap:round;stroke-linejoin:round;stroke-miterlimit:4;stroke-dasharray:none;stroke-opacity:1"
       d="m 91.921003,202.59302 1.990695,1.73891 m -2.629315,0.27083 2.629315,-0.27083" />
    <path
       id="path1800"
       style="fill:none;stroke:#000000;stroke-width:0.529167;stroke-linecap:round;stroke-linejoin:round;stroke-miterlimit:4;stroke-dasharray:none;stroke-opacity:1"
       d="m 107.11547,196.34048 2.62157,-0.33774 m -1.54021,2.14813 1.54021,-2.14813" />
    <text
       xml:space="preserve"
       style="font-size:7.05556px;line-height:1.25;font-family:'Patrick Hand';-inkscape-font-specification:'Patrick Hand';stroke-width:0.264583"
       x="89.54493"
       y="197.96031"
       id="text1804"><tspan
         sodipodi:role="line"
         id="tspan1802"
         style="font-size:7.05556px;stroke-width:0.264583"
         x="89.54493"
         y="197.96031">D</tspan></text>
  </g>
  <g
     inkscape:groupmode="layer"
     id="layer2"
     inkscape:label="Layer 2"
     style="display:none"
     transform="translate(-62.675499,-167.42733)">
    <path
       style="display:none;fill:none;stroke:#4c4c4c;stroke-width:0.264583px;stroke-linecap:butt;stroke-linejoin:miter;stroke-opacity:1"
       d="M 28.170821,93.529109 C 41.008367,116.37313 53.84575,139.21685 66.682959,162.06027"
       id="path25644"
       inkscape:original-d="M 28.170821,93.529109 C 41.008465,116.37307 53.845844,139.2168 66.682959,162.06027"
       inkscape:path-effect="#path-effect25646-3"
       inkscape:label="hash" />
    <path
       style="display:inline;fill:none;stroke:#000000;stroke-width:0.529167;stroke-linecap:butt;stroke-linejoin:miter;stroke-miterlimit:4;stroke-dasharray:none;stroke-opacity:1"
       d="m 65.758468,134.99964 c 3.267805,-9.49504 8.654463,-19.15462 17.797244,-21.44432 9.14278,-2.2897 22.040788,2.79024 34.665258,1.03308 12.62446,-1.75715 24.97488,-10.35101 33.62447,-10.39669 8.6496,-0.0457 13.59772,8.45613 14.2214,17.06006 0.62367,8.60394 -3.07697,17.30916 -10.65429,24.47979 -7.57732,7.17063 -19.03083,12.80613 -30.00995,12.62342 -10.97912,-0.1827 -21.48341,-6.18372 -32.272817,-6.35348 -10.789405,-0.16976 -21.863056,5.49185 -26.825561,3.65759 -4.962505,-1.83426 -3.813558,-11.16442 -0.545754,-20.65945 z"
       id="path25605"
       inkscape:path-effect="#path-effect25609"
       inkscape:original-d="m 63.639662,135.1641 c 5.386925,-9.65932 10.773585,-19.3189 16.15998,-28.97875 12.898795,5.08041 25.796808,10.16035 38.694818,15.24013 12.35117,-8.59394 24.70159,-17.1878 37.05198,-25.782063 4.94869,8.502563 9.89681,17.004373 14.84497,25.506433 -3.70059,8.70599 -7.40122,17.41121 -11.10233,26.11667 -11.4537,5.63598 -22.90721,11.27148 -34.36121,16.90683 -10.50444,-6.00099 -21.00873,-12.002 -31.513497,-18.0034 -11.073831,5.66211 -22.147483,11.32372 -33.22162,16.98518 1.149257,-9.33026 2.298205,-18.66042 3.446909,-27.99103 z"
       sodipodi:nodetypes="cccccccccc"
       inkscape:label="blob" />
  </g>
</svg>
