<?xml version="1.0" encoding="UTF-8" standalone="no"?>
<!-- Created with Inkscape (http://www.inkscape.org/) -->

<svg
   width="211.52187"
   height="128.90511"
   viewBox="0 0 55.965159 34.106143"
   version="1.1"
   id="svg5"
   inkscape:version="1.1 (c68e22c387, 2021-05-23)"
   sodipodi:docname="uniform-convergence.svg"
   xmlns:inkscape="http://www.inkscape.org/namespaces/inkscape"
   xmlns:sodipodi="http://sodipodi.sourceforge.net/DTD/sodipodi-0.dtd"
   xmlns="http://www.w3.org/2000/svg"
   xmlns:svg="http://www.w3.org/2000/svg">
  <sodipodi:namedview
     id="namedview7"
     pagecolor="#ffffff"
     bordercolor="#666666"
     borderopacity="1.0"
     inkscape:pageshadow="2"
     inkscape:pageopacity="0.0"
     inkscape:pagecheckerboard="true"
     inkscape:document-units="px"
     showgrid="false"
     units="px"
     inkscape:zoom="4"
     inkscape:cx="61.125"
     inkscape:cy="39.25"
     inkscape:window-width="1874"
     inkscape:window-height="1051"
     inkscape:window-x="46"
     inkscape:window-y="0"
     inkscape:window-maximized="1"
     inkscape:current-layer="layer1" />
  <defs
     id="defs2" />
  <g
     inkscape:label="Layer 1"
     inkscape:groupmode="layer"
     id="layer1"
     transform="translate(-33.224569,-70.157133)">
    <path
       style="fill:none;stroke:#000000;stroke-width:0.529167;stroke-linecap:round;stroke-linejoin:miter;stroke-miterlimit:4;stroke-dasharray:none;stroke-opacity:1"
       d="M 43.308799,70.421716 V 103.99869"
       id="path3610" />
    <path
       style="fill:none;stroke:#000000;stroke-width:0.529167;stroke-linecap:round;stroke-linejoin:miter;stroke-miterlimit:4;stroke-dasharray:none;stroke-opacity:1"
       d="m 37.195945,100.11125 c 0.252206,0.14423 51.7292,0 51.7292,0"
       id="path3612" />
    <path
       style="fill:none;stroke:#000000;stroke-width:0.132292;stroke-linecap:round;stroke-linejoin:miter;stroke-miterlimit:4;stroke-dasharray:0.529167, 0.529167;stroke-dashoffset:0;stroke-opacity:1"
       d="m 38.325003,90.419382 c 0,0 8.041265,-4.248723 12.311419,-3.794218 7.943925,0.845533 12.921186,12.017211 20.904502,11.721335 C 77.893378,98.111066 87.43895,87.813945 87.43895,87.813945"
       id="path3795"
       sodipodi:nodetypes="cssc" />
    <path
       style="fill:none;stroke:#000000;stroke-width:0.396875;stroke-linecap:round;stroke-linejoin:miter;stroke-miterlimit:4;stroke-dasharray:none;stroke-opacity:1"
       d="m 38.325003,84.598545 c 0,0 8.041265,-4.248723 12.311419,-3.794218 7.943925,0.845533 12.921186,12.017211 20.904502,11.721335 C 77.893378,92.290229 87.43895,81.993108 87.43895,81.993108"
       id="path3972"
       sodipodi:nodetypes="cssc" />
    <path
       style="fill:none;stroke:#000000;stroke-width:0.132292;stroke-linecap:round;stroke-linejoin:miter;stroke-miterlimit:4;stroke-dasharray:0.529167, 0.529167;stroke-dashoffset:0;stroke-opacity:1"
       d="m 38.325003,78.777708 c 0,0 8.041265,-4.248723 12.311419,-3.794218 7.943925,0.845533 12.921186,12.017211 20.904502,11.721335 C 77.893378,86.469392 87.43895,76.172271 87.43895,76.172271"
       id="path3974"
       sodipodi:nodetypes="cssc" />
    <text
       xml:space="preserve"
       style="font-size:3.52778px;line-height:1.25;font-family:'Patrick Hand';-inkscape-font-specification:'Patrick Hand';stroke-width:0.264583"
       x="35.811264"
       y="85.63356"
       id="text10666"><tspan
         sodipodi:role="line"
         id="tspan10664"
         style="font-size:3.52778px;stroke-width:0.264583"
         x="35.811264"
         y="85.63356">f</tspan></text>
    <text
       xml:space="preserve"
       style="font-size:3.52778px;line-height:1.25;font-family:'Patrick Hand';-inkscape-font-specification:'Patrick Hand';stroke-width:0.264583"
       x="33.196365"
       y="79.949944"
       id="text12020"><tspan
         sodipodi:role="line"
         id="tspan12018"
         style="font-size:3.52778px;stroke-width:0.264583"
         x="33.196365"
         y="79.949944">f+ε</tspan></text>
    <text
       xml:space="preserve"
       style="font-size:3.52778px;line-height:1.25;font-family:'Patrick Hand';-inkscape-font-specification:'Patrick Hand';stroke-width:0.264583"
       x="33.150486"
       y="91.314407"
       id="text13608"><tspan
         sodipodi:role="line"
         id="tspan13606"
         style="font-size:3.52778px;stroke-width:0.264583"
         x="33.150486"
         y="91.314407">f-ε</tspan></text>
    <path
       style="fill:none;stroke:#181818;stroke-width:0.198437;stroke-linecap:round;stroke-linejoin:miter;stroke-miterlimit:4;stroke-dasharray:none;stroke-opacity:1"
       d="m 40.735641,86.401094 c 0,0 2.898854,-9.471982 6.846083,-9.682803 5.562445,-0.29709 5.515378,13.203667 11.04605,12.53979 2.177119,-0.261331 1.348512,-3.782251 3.539944,-3.706312 4.970416,0.172238 2.182299,10.252667 7.022703,11.395113 5.393558,1.273003 7.332928,-5.362192 10.084178,-10.172766 0.77662,-1.357924 1.621844,-3.376042 2.962398,-4.182275 1.767536,-1.063027 4.851659,1.228388 4.851659,1.228388"
       id="path14825"
       sodipodi:nodetypes="cssssssc" />
    <text
       xml:space="preserve"
       style="font-size:3.52778px;line-height:1.25;font-family:'Patrick Hand';-inkscape-font-specification:'Patrick Hand';stroke-width:0.264583"
       x="50.900177"
       y="78.472801"
       id="text18354"><tspan
         sodipodi:role="line"
         id="tspan18352"
         style="font-size:3.52778px;stroke-width:0.264583"
         x="50.900177"
         y="78.472801">f</tspan></text>
    <text
       xml:space="preserve"
       style="font-size:1.76389px;line-height:1.25;font-family:'Patrick Hand';-inkscape-font-specification:'Patrick Hand';stroke-width:0.264583"
       x="51.98616"
       y="78.797523"
       id="text21792"><tspan
         sodipodi:role="line"
         id="tspan21790"
         style="font-size:1.76389px;stroke-width:0.264583"
         x="51.98616"
         y="78.797523">n</tspan></text>
    <path
       style="fill:none;stroke:#000000;stroke-width:0.529167;stroke-linecap:round;stroke-linejoin:miter;stroke-miterlimit:4;stroke-dasharray:none;stroke-opacity:1"
       d="m 87.629946,98.931843 1.295199,1.179407"
       id="path25381" />
    <path
       style="fill:none;stroke:#000000;stroke-width:0.529167;stroke-linecap:round;stroke-linejoin:miter;stroke-miterlimit:4;stroke-dasharray:none;stroke-opacity:1"
       d="m 87.629946,101.29066 1.295199,-1.17941"
       id="path25481" />
    <path
       style="fill:none;stroke:#000000;stroke-width:0.529167;stroke-linecap:round;stroke-linejoin:miter;stroke-miterlimit:4;stroke-dasharray:none;stroke-opacity:1"
       d="m 42.129392,71.716915 1.179407,-1.295199"
       id="path25701" />
    <path
       style="fill:none;stroke:#000000;stroke-width:0.529167;stroke-linecap:round;stroke-linejoin:miter;stroke-miterlimit:4;stroke-dasharray:none;stroke-opacity:1"
       d="m 44.488209,71.716915 -1.17941,-1.295199"
       id="path25703" />
  </g>
</svg>
