<?xml version="1.0" encoding="UTF-8" standalone="no"?>
<!-- Created with Inkscape (http://www.inkscape.org/) -->

<svg
   width="299.703"
   height="48.8964"
   viewBox="0 0 79.296418 12.937173"
   version="1.1"
   id="svg5"
   inkscape:version="1.1.1 (3bf5ae0d25, 2021-09-20)"
   sodipodi:docname="cycle-class.svg"
   xmlns:inkscape="http://www.inkscape.org/namespaces/inkscape"
   xmlns:sodipodi="http://sodipodi.sourceforge.net/DTD/sodipodi-0.dtd"
   xmlns="http://www.w3.org/2000/svg"
   xmlns:svg="http://www.w3.org/2000/svg">
  <sodipodi:namedview
     id="namedview7"
     pagecolor="#ffffff"
     bordercolor="#666666"
     borderopacity="1.0"
     inkscape:pageshadow="2"
     inkscape:pageopacity="0.0"
     inkscape:pagecheckerboard="true"
     inkscape:document-units="px"
     showgrid="false"
     units="px"
     inkscape:zoom="1.622695"
     inkscape:cx="77.956731"
     inkscape:cy="79.189248"
     inkscape:window-width="1874"
     inkscape:window-height="1051"
     inkscape:window-x="46"
     inkscape:window-y="0"
     inkscape:window-maximized="1"
     inkscape:current-layer="layer1" />
  <defs
     id="defs2">
    <inkscape:path-effect
       effect="bspline"
       id="path-effect14594"
       is_visible="true"
       lpeversion="1"
       weight="33.333333"
       steps="2"
       helper_size="0"
       apply_no_weight="true"
       apply_with_weight="true"
       only_selected="false" />
    <inkscape:path-effect
       effect="bspline"
       id="path-effect13087"
       is_visible="true"
       lpeversion="1"
       weight="33.333333"
       steps="2"
       helper_size="0"
       apply_no_weight="true"
       apply_with_weight="true"
       only_selected="false" />
    <inkscape:path-effect
       effect="bspline"
       id="path-effect5621"
       is_visible="true"
       lpeversion="1"
       weight="33.333333"
       steps="2"
       helper_size="0"
       apply_no_weight="true"
       apply_with_weight="true"
       only_selected="false" />
    <inkscape:path-effect
       effect="bspline"
       id="path-effect5287"
       is_visible="true"
       lpeversion="1"
       weight="33.333333"
       steps="2"
       helper_size="0"
       apply_no_weight="true"
       apply_with_weight="true"
       only_selected="false" />
    <inkscape:path-effect
       effect="bspline"
       id="path-effect5085"
       is_visible="true"
       lpeversion="1"
       weight="33.333333"
       steps="2"
       helper_size="0"
       apply_no_weight="true"
       apply_with_weight="true"
       only_selected="false" />
    <inkscape:path-effect
       effect="bspline"
       id="path-effect5079"
       is_visible="true"
       lpeversion="1"
       weight="33.333333"
       steps="2"
       helper_size="0"
       apply_no_weight="true"
       apply_with_weight="true"
       only_selected="false" />
    <inkscape:path-effect
       effect="bspline"
       id="path-effect5075"
       is_visible="true"
       lpeversion="1"
       weight="33.333333"
       steps="2"
       helper_size="0"
       apply_no_weight="true"
       apply_with_weight="true"
       only_selected="false" />
    <inkscape:path-effect
       effect="bspline"
       id="path-effect5071"
       is_visible="true"
       lpeversion="1"
       weight="33.333333"
       steps="2"
       helper_size="0"
       apply_no_weight="true"
       apply_with_weight="true"
       only_selected="false" />
    <inkscape:path-effect
       effect="bspline"
       id="path-effect5067"
       is_visible="true"
       lpeversion="1"
       weight="33.333333"
       steps="2"
       helper_size="0"
       apply_no_weight="true"
       apply_with_weight="true"
       only_selected="false" />
    <inkscape:path-effect
       effect="bspline"
       id="path-effect5063"
       is_visible="true"
       lpeversion="1"
       weight="33.333333"
       steps="2"
       helper_size="0"
       apply_no_weight="true"
       apply_with_weight="true"
       only_selected="false" />
    <inkscape:path-effect
       effect="bspline"
       id="path-effect5023"
       is_visible="true"
       lpeversion="1"
       weight="33.333333"
       steps="2"
       helper_size="0"
       apply_no_weight="true"
       apply_with_weight="true"
       only_selected="false" />
    <inkscape:path-effect
       effect="bspline"
       id="path-effect5019"
       is_visible="true"
       lpeversion="1"
       weight="33.333333"
       steps="2"
       helper_size="0"
       apply_no_weight="true"
       apply_with_weight="true"
       only_selected="false" />
    <inkscape:path-effect
       effect="bspline"
       id="path-effect5015"
       is_visible="true"
       lpeversion="1"
       weight="33.333333"
       steps="2"
       helper_size="0"
       apply_no_weight="true"
       apply_with_weight="true"
       only_selected="false" />
    <inkscape:path-effect
       effect="bspline"
       id="path-effect5011"
       is_visible="true"
       lpeversion="1"
       weight="33.333333"
       steps="2"
       helper_size="0"
       apply_no_weight="true"
       apply_with_weight="true"
       only_selected="false" />
    <inkscape:path-effect
       effect="bspline"
       id="path-effect5007"
       is_visible="true"
       lpeversion="1"
       weight="33.333333"
       steps="2"
       helper_size="0"
       apply_no_weight="true"
       apply_with_weight="true"
       only_selected="false" />
    <inkscape:path-effect
       effect="bspline"
       id="path-effect4991"
       is_visible="true"
       lpeversion="1"
       weight="33.333333"
       steps="2"
       helper_size="0"
       apply_no_weight="true"
       apply_with_weight="true"
       only_selected="false" />
    <inkscape:path-effect
       effect="bspline"
       id="path-effect4987"
       is_visible="true"
       lpeversion="1"
       weight="33.333333"
       steps="2"
       helper_size="0"
       apply_no_weight="true"
       apply_with_weight="true"
       only_selected="false" />
    <inkscape:path-effect
       effect="bspline"
       id="path-effect4983"
       is_visible="true"
       lpeversion="1"
       weight="33.333333"
       steps="2"
       helper_size="0"
       apply_no_weight="true"
       apply_with_weight="true"
       only_selected="false" />
    <inkscape:path-effect
       effect="bspline"
       id="path-effect4979"
       is_visible="true"
       lpeversion="1"
       weight="33.333333"
       steps="2"
       helper_size="0"
       apply_no_weight="true"
       apply_with_weight="true"
       only_selected="false" />
    <inkscape:path-effect
       effect="bspline"
       id="path-effect4975"
       is_visible="true"
       lpeversion="1"
       weight="33.333333"
       steps="2"
       helper_size="0"
       apply_no_weight="true"
       apply_with_weight="true"
       only_selected="false" />
    <inkscape:path-effect
       effect="bspline"
       id="path-effect4287"
       is_visible="true"
       lpeversion="1"
       weight="33.333333"
       steps="2"
       helper_size="0"
       apply_no_weight="true"
       apply_with_weight="true"
       only_selected="false" />
    <inkscape:path-effect
       effect="bspline"
       id="path-effect4195"
       is_visible="true"
       lpeversion="1"
       weight="33.333333"
       steps="2"
       helper_size="0"
       apply_no_weight="true"
       apply_with_weight="true"
       only_selected="false" />
    <inkscape:path-effect
       effect="bspline"
       id="path-effect4184"
       is_visible="true"
       lpeversion="1"
       weight="33.333333"
       steps="2"
       helper_size="0"
       apply_no_weight="true"
       apply_with_weight="true"
       only_selected="false" />
    <inkscape:path-effect
       effect="bspline"
       id="path-effect4180"
       is_visible="true"
       lpeversion="1"
       weight="33.333333"
       steps="2"
       helper_size="0"
       apply_no_weight="true"
       apply_with_weight="true"
       only_selected="false" />
    <inkscape:path-effect
       effect="bspline"
       id="path-effect4176"
       is_visible="true"
       lpeversion="1"
       weight="33.333333"
       steps="2"
       helper_size="0"
       apply_no_weight="true"
       apply_with_weight="true"
       only_selected="false" />
    <inkscape:path-effect
       effect="bspline"
       id="path-effect3647"
       is_visible="true"
       lpeversion="1"
       weight="33.333333"
       steps="2"
       helper_size="0"
       apply_no_weight="true"
       apply_with_weight="true"
       only_selected="false" />
    <inkscape:path-effect
       effect="bspline"
       id="path-effect3591"
       is_visible="true"
       lpeversion="1"
       weight="33.333333"
       steps="2"
       helper_size="0"
       apply_no_weight="true"
       apply_with_weight="true"
       only_selected="false" />
    <inkscape:path-effect
       effect="bspline"
       id="path-effect3587"
       is_visible="true"
       lpeversion="1"
       weight="33.333333"
       steps="2"
       helper_size="0"
       apply_no_weight="true"
       apply_with_weight="true"
       only_selected="false" />
    <inkscape:path-effect
       effect="bspline"
       id="path-effect3583"
       is_visible="true"
       lpeversion="1"
       weight="33.333333"
       steps="2"
       helper_size="0"
       apply_no_weight="true"
       apply_with_weight="true"
       only_selected="false" />
    <inkscape:path-effect
       effect="bspline"
       id="path-effect3571"
       is_visible="true"
       lpeversion="1"
       weight="33.333333"
       steps="2"
       helper_size="0"
       apply_no_weight="true"
       apply_with_weight="true"
       only_selected="false" />
    <inkscape:path-effect
       effect="bspline"
       id="path-effect3567"
       is_visible="true"
       lpeversion="1"
       weight="33.333333"
       steps="2"
       helper_size="0"
       apply_no_weight="true"
       apply_with_weight="true"
       only_selected="false" />
    <inkscape:path-effect
       effect="bspline"
       id="path-effect3563"
       is_visible="true"
       lpeversion="1"
       weight="33.333333"
       steps="2"
       helper_size="0"
       apply_no_weight="true"
       apply_with_weight="true"
       only_selected="false" />
    <inkscape:path-effect
       effect="bspline"
       id="path-effect3353"
       is_visible="true"
       lpeversion="1"
       weight="33.333333"
       steps="2"
       helper_size="0"
       apply_no_weight="true"
       apply_with_weight="true"
       only_selected="false" />
    <inkscape:path-effect
       effect="bspline"
       id="path-effect3236"
       is_visible="true"
       lpeversion="1"
       weight="33.333333"
       steps="2"
       helper_size="0"
       apply_no_weight="true"
       apply_with_weight="true"
       only_selected="false" />
    <inkscape:path-effect
       effect="bspline"
       id="path-effect2946"
       is_visible="true"
       lpeversion="1"
       weight="33.333333"
       steps="2"
       helper_size="0"
       apply_no_weight="true"
       apply_with_weight="true"
       only_selected="false" />
  </defs>
  <g
     inkscape:label="Layer 1"
     inkscape:groupmode="layer"
     id="layer1"
     transform="translate(-35.146144,-36.564295)">
    <g
       id="g3551">
      <path
         style="fill:none;stroke:#000000;stroke-width:0.529167;stroke-linecap:round;stroke-linejoin:miter;stroke-miterlimit:4;stroke-dasharray:none;stroke-opacity:1"
         d="m 36.050927,36.839621 c -0.320129,0.676764 -0.640301,1.353622 -0.640199,2.029856 1.03e-4,0.676234 0.320087,1.35083 0.640199,2.025693"
         id="path2944"
         inkscape:path-effect="#path-effect2946"
         inkscape:original-d="m 36.050927,36.839621 c -0.31981,0.676915 -0.639982,1.353773 -0.960518,2.030573 0.320536,0.675463 0.64052,1.350059 0.960518,2.024976"
         sodipodi:nodetypes="ccc" />
      <path
         style="fill:none;stroke:#000000;stroke-width:0.529167;stroke-linecap:round;stroke-linejoin:miter;stroke-miterlimit:4;stroke-dasharray:none;stroke-opacity:1"
         d="m 39.695936,36.839621 c 0.320129,0.676764 0.640301,1.353622 0.640199,2.029856 -1.03e-4,0.676234 -0.320087,1.35083 -0.640199,2.025693"
         id="path3232"
         inkscape:path-effect="#path-effect3236"
         inkscape:original-d="m 39.695936,36.839621 c 0.31981,0.676915 0.639982,1.353773 0.960518,2.030573 -0.320536,0.675463 -0.64052,1.350059 -0.960518,2.024976"
         sodipodi:nodetypes="ccc" />
      <path
         style="fill:none;stroke:#000000;stroke-width:0.396875;stroke-linecap:round;stroke-linejoin:miter;stroke-miterlimit:4;stroke-dasharray:none;stroke-opacity:1"
         d="m 36.905078,39.917053 c 0.654571,0 1.308875,0 1.962917,0"
         id="path3351"
         inkscape:path-effect="#path-effect3353"
         inkscape:original-d="m 36.905078,39.917053 c 0.654571,2.64e-4 1.308875,2.64e-4 1.962917,0" />
    </g>
    <g
       id="g3559"
       transform="translate(5.8208336)">
      <path
         style="fill:none;stroke:#000000;stroke-width:0.529167;stroke-linecap:round;stroke-linejoin:miter;stroke-miterlimit:4;stroke-dasharray:none;stroke-opacity:1"
         d="m 36.050927,36.839621 c -0.320129,0.676764 -0.640301,1.353622 -0.640199,2.029856 1.03e-4,0.676234 0.320087,1.35083 0.640199,2.025693"
         id="path3553"
         inkscape:path-effect="#path-effect3563"
         inkscape:original-d="m 36.050927,36.839621 c -0.31981,0.676915 -0.639982,1.353773 -0.960518,2.030573 0.320536,0.675463 0.64052,1.350059 0.960518,2.024976"
         sodipodi:nodetypes="ccc" />
      <path
         style="fill:none;stroke:#000000;stroke-width:0.529167;stroke-linecap:round;stroke-linejoin:miter;stroke-miterlimit:4;stroke-dasharray:none;stroke-opacity:1"
         d="m 39.695936,36.839621 c 0.320129,0.676764 0.640301,1.353622 0.640199,2.029856 -1.03e-4,0.676234 -0.320087,1.35083 -0.640199,2.025693"
         id="path3555"
         inkscape:path-effect="#path-effect3567"
         inkscape:original-d="m 39.695936,36.839621 c 0.31981,0.676915 0.639982,1.353773 0.960518,2.030573 -0.320536,0.675463 -0.64052,1.350059 -0.960518,2.024976"
         sodipodi:nodetypes="ccc" />
      <path
         style="fill:none;stroke:#000000;stroke-width:0.396875;stroke-linecap:round;stroke-linejoin:miter;stroke-miterlimit:4;stroke-dasharray:none;stroke-opacity:1"
         d="m 36.905078,39.917053 c 0.654571,0 1.308875,0 1.962917,0"
         id="path3557"
         inkscape:path-effect="#path-effect3571"
         inkscape:original-d="m 36.905078,39.917053 c 0.654571,2.64e-4 1.308875,2.64e-4 1.962917,0" />
    </g>
    <g
       id="g3579"
       transform="translate(14.81667)">
      <path
         style="fill:none;stroke:#000000;stroke-width:0.529167;stroke-linecap:round;stroke-linejoin:miter;stroke-miterlimit:4;stroke-dasharray:none;stroke-opacity:1"
         d="m 36.050927,36.839621 c -0.320129,0.676764 -0.640301,1.353622 -0.640199,2.029856 1.03e-4,0.676234 0.320087,1.35083 0.640199,2.025693"
         id="path3573"
         inkscape:path-effect="#path-effect3583"
         inkscape:original-d="m 36.050927,36.839621 c -0.31981,0.676915 -0.639982,1.353773 -0.960518,2.030573 0.320536,0.675463 0.64052,1.350059 0.960518,2.024976"
         sodipodi:nodetypes="ccc" />
      <path
         style="fill:none;stroke:#000000;stroke-width:0.529167;stroke-linecap:round;stroke-linejoin:miter;stroke-miterlimit:4;stroke-dasharray:none;stroke-opacity:1"
         d="m 39.695936,36.839621 c 0.320129,0.676764 0.640301,1.353622 0.640199,2.029856 -1.03e-4,0.676234 -0.320087,1.35083 -0.640199,2.025693"
         id="path3575"
         inkscape:path-effect="#path-effect3587"
         inkscape:original-d="m 39.695936,36.839621 c 0.31981,0.676915 0.639982,1.353773 0.960518,2.030573 -0.320536,0.675463 -0.64052,1.350059 -0.960518,2.024976"
         sodipodi:nodetypes="ccc" />
      <path
         style="fill:none;stroke:#000000;stroke-width:0.396875;stroke-linecap:round;stroke-linejoin:miter;stroke-miterlimit:4;stroke-dasharray:none;stroke-opacity:1"
         d="m 36.905078,39.917053 c 0.654571,0 1.308875,0 1.962917,0"
         id="path3577"
         inkscape:path-effect="#path-effect3591"
         inkscape:original-d="m 36.905078,39.917053 c 0.654571,2.64e-4 1.308875,2.64e-4 1.962917,0" />
    </g>
    <g
       id="g4189">
      <circle
         style="opacity:0.999536;fill:#000000;fill-opacity:1;fill-rule:evenodd;stroke:#000000;stroke-width:0.264583;stroke-linecap:round;stroke-linejoin:round;stroke-miterlimit:4;stroke-dasharray:none;stroke-dashoffset:0.529167;stroke-opacity:1"
         id="path3864"
         cx="47.076477"
         cy="38.847538"
         r="0.13492399" />
      <circle
         style="opacity:0.999536;fill:#000000;fill-opacity:1;fill-rule:evenodd;stroke:#000000;stroke-width:0.264583;stroke-linecap:round;stroke-linejoin:round;stroke-miterlimit:4;stroke-dasharray:none;stroke-dashoffset:0.529167;stroke-opacity:1"
         id="circle4162"
         cx="48.134811"
         cy="38.847538"
         r="0.13492399" />
      <circle
         style="opacity:0.999536;fill:#000000;fill-opacity:1;fill-rule:evenodd;stroke:#000000;stroke-width:0.264583;stroke-linecap:round;stroke-linejoin:round;stroke-miterlimit:4;stroke-dasharray:none;stroke-dashoffset:0.529167;stroke-opacity:1"
         id="circle4164"
         cx="49.193146"
         cy="38.847538"
         r="0.13492399" />
    </g>
    <g
       id="g4172"
       transform="translate(21.310781)">
      <path
         style="fill:none;stroke:#000000;stroke-width:0.529167;stroke-linecap:round;stroke-linejoin:miter;stroke-miterlimit:4;stroke-dasharray:none;stroke-opacity:1"
         d="m 36.050927,36.839621 c -0.320129,0.676764 -0.640301,1.353622 -0.640199,2.029856 1.03e-4,0.676234 0.320087,1.35083 0.640199,2.025693"
         id="path4166"
         inkscape:path-effect="#path-effect4176"
         inkscape:original-d="m 36.050927,36.839621 c -0.31981,0.676915 -0.639982,1.353773 -0.960518,2.030573 0.320536,0.675463 0.64052,1.350059 0.960518,2.024976"
         sodipodi:nodetypes="ccc" />
      <path
         style="fill:none;stroke:#000000;stroke-width:0.529167;stroke-linecap:round;stroke-linejoin:miter;stroke-miterlimit:4;stroke-dasharray:none;stroke-opacity:1"
         d="m 43.400105,36.839621 c 0.320129,0.676764 0.640301,1.353622 0.640199,2.029856 -1.03e-4,0.676234 -0.320087,1.35083 -0.640199,2.025693"
         id="path4168"
         inkscape:path-effect="#path-effect4180"
         inkscape:original-d="m 43.400105,36.839621 c 0.31981,0.676915 0.639982,1.353773 0.960518,2.030573 -0.320536,0.675463 -0.64052,1.350059 -0.960518,2.024976"
         sodipodi:nodetypes="ccc" />
      <path
         style="fill:none;stroke:#000000;stroke-width:0.396875;stroke-linecap:round;stroke-linejoin:miter;stroke-miterlimit:4;stroke-dasharray:none;stroke-opacity:1"
         d="m 36.905078,39.917053 c 0.654571,0 1.308875,0 1.962917,0"
         id="path4170"
         inkscape:path-effect="#path-effect4184"
         inkscape:original-d="m 36.905078,39.917053 c 0.654571,2.64e-4 1.308875,2.64e-4 1.962917,0" />
      <path
         style="fill:none;stroke:#000000;stroke-width:0.396875;stroke-linecap:round;stroke-linejoin:miter;stroke-miterlimit:4;stroke-dasharray:none;stroke-opacity:1"
         d="m 40.609247,39.917053 c 0.654571,0 1.308875,0 1.962917,0"
         id="path4191"
         inkscape:path-effect="#path-effect4195"
         inkscape:original-d="m 40.609247,39.917053 c 0.654571,2.64e-4 1.308875,2.64e-4 1.962917,0" />
      <path
         style="fill:none;stroke:#000000;stroke-width:0.396875;stroke-linecap:round;stroke-linejoin:miter;stroke-miterlimit:4;stroke-dasharray:none;stroke-opacity:1"
         d="m 39.881574,40.535355 c 0.0018,0.228026 0.0037,0.455983 -0.0642,0.643923 -0.06787,0.187941 -0.205138,0.335608 -0.342628,0.483514"
         id="path4285"
         inkscape:path-effect="#path-effect4287"
         inkscape:original-d="m 39.881574,40.535355 c 0.0021,0.228024 0.0039,0.455981 0.0055,0.68387 -0.137298,0.148248 -0.274566,0.295916 -0.41233,0.443567"
         sodipodi:nodetypes="ccc" />
    </g>
    <g
       id="g4971"
       transform="translate(30.835787)">
      <path
         style="fill:none;stroke:#000000;stroke-width:0.529167;stroke-linecap:round;stroke-linejoin:miter;stroke-miterlimit:4;stroke-dasharray:none;stroke-opacity:1"
         d="m 36.050927,36.839621 c -0.320129,0.676764 -0.640301,1.353622 -0.640199,2.029856 1.03e-4,0.676234 0.320087,1.35083 0.640199,2.025693"
         id="path4961"
         inkscape:path-effect="#path-effect4975"
         inkscape:original-d="m 36.050927,36.839621 c -0.31981,0.676915 -0.639982,1.353773 -0.960518,2.030573 0.320536,0.675463 0.64052,1.350059 0.960518,2.024976"
         sodipodi:nodetypes="ccc" />
      <path
         style="fill:none;stroke:#000000;stroke-width:0.529167;stroke-linecap:round;stroke-linejoin:miter;stroke-miterlimit:4;stroke-dasharray:none;stroke-opacity:1"
         d="m 43.400105,36.839621 c 0.320129,0.676764 0.640301,1.353622 0.640199,2.029856 -1.03e-4,0.676234 -0.320087,1.35083 -0.640199,2.025693"
         id="path4963"
         inkscape:path-effect="#path-effect4979"
         inkscape:original-d="m 43.400105,36.839621 c 0.31981,0.676915 0.639982,1.353773 0.960518,2.030573 -0.320536,0.675463 -0.64052,1.350059 -0.960518,2.024976"
         sodipodi:nodetypes="ccc" />
      <path
         style="fill:none;stroke:#000000;stroke-width:0.396875;stroke-linecap:round;stroke-linejoin:miter;stroke-miterlimit:4;stroke-dasharray:none;stroke-opacity:1"
         d="m 36.905078,39.917053 c 0.654571,0 1.308875,0 1.962917,0"
         id="path4965"
         inkscape:path-effect="#path-effect4983"
         inkscape:original-d="m 36.905078,39.917053 c 0.654571,2.64e-4 1.308875,2.64e-4 1.962917,0" />
      <path
         style="fill:none;stroke:#000000;stroke-width:0.396875;stroke-linecap:round;stroke-linejoin:miter;stroke-miterlimit:4;stroke-dasharray:none;stroke-opacity:1"
         d="m 40.609247,39.917053 c 0.654571,0 1.308875,0 1.962917,0"
         id="path4967"
         inkscape:path-effect="#path-effect4987"
         inkscape:original-d="m 40.609247,39.917053 c 0.654571,2.64e-4 1.308875,2.64e-4 1.962917,0" />
      <path
         style="fill:none;stroke:#000000;stroke-width:0.396875;stroke-linecap:round;stroke-linejoin:miter;stroke-miterlimit:4;stroke-dasharray:none;stroke-opacity:1"
         d="m 39.881574,40.535355 c 0.0018,0.228026 0.0037,0.455983 -0.0642,0.643923 -0.06787,0.187941 -0.205138,0.335608 -0.342628,0.483514"
         id="path4969"
         inkscape:path-effect="#path-effect4991"
         inkscape:original-d="m 39.881574,40.535355 c 0.0021,0.228024 0.0039,0.455981 0.0055,0.68387 -0.137298,0.148248 -0.274566,0.295916 -0.41233,0.443567"
         sodipodi:nodetypes="ccc" />
    </g>
    <g
       id="g5003"
       transform="translate(44.064962)">
      <path
         style="fill:none;stroke:#000000;stroke-width:0.529167;stroke-linecap:round;stroke-linejoin:miter;stroke-miterlimit:4;stroke-dasharray:none;stroke-opacity:1"
         d="m 36.050927,36.839621 c -0.320129,0.676764 -0.640301,1.353622 -0.640199,2.029856 1.03e-4,0.676234 0.320087,1.35083 0.640199,2.025693"
         id="path4993"
         inkscape:path-effect="#path-effect5007"
         inkscape:original-d="m 36.050927,36.839621 c -0.31981,0.676915 -0.639982,1.353773 -0.960518,2.030573 0.320536,0.675463 0.64052,1.350059 0.960518,2.024976"
         sodipodi:nodetypes="ccc" />
      <path
         style="fill:none;stroke:#000000;stroke-width:0.529167;stroke-linecap:round;stroke-linejoin:miter;stroke-miterlimit:4;stroke-dasharray:none;stroke-opacity:1"
         d="m 43.400105,36.839621 c 0.320129,0.676764 0.640301,1.353622 0.640199,2.029856 -1.03e-4,0.676234 -0.320087,1.35083 -0.640199,2.025693"
         id="path4995"
         inkscape:path-effect="#path-effect5011"
         inkscape:original-d="m 43.400105,36.839621 c 0.31981,0.676915 0.639982,1.353773 0.960518,2.030573 -0.320536,0.675463 -0.64052,1.350059 -0.960518,2.024976"
         sodipodi:nodetypes="ccc" />
      <path
         style="fill:none;stroke:#000000;stroke-width:0.396875;stroke-linecap:round;stroke-linejoin:miter;stroke-miterlimit:4;stroke-dasharray:none;stroke-opacity:1"
         d="m 36.905078,39.917053 c 0.654571,0 1.308875,0 1.962917,0"
         id="path4997"
         inkscape:path-effect="#path-effect5015"
         inkscape:original-d="m 36.905078,39.917053 c 0.654571,2.64e-4 1.308875,2.64e-4 1.962917,0" />
      <path
         style="fill:none;stroke:#000000;stroke-width:0.396875;stroke-linecap:round;stroke-linejoin:miter;stroke-miterlimit:4;stroke-dasharray:none;stroke-opacity:1"
         d="m 40.609247,39.917053 c 0.654571,0 1.308875,0 1.962917,0"
         id="path4999"
         inkscape:path-effect="#path-effect5019"
         inkscape:original-d="m 40.609247,39.917053 c 0.654571,2.64e-4 1.308875,2.64e-4 1.962917,0" />
      <path
         style="fill:none;stroke:#000000;stroke-width:0.396875;stroke-linecap:round;stroke-linejoin:miter;stroke-miterlimit:4;stroke-dasharray:none;stroke-opacity:1"
         d="m 39.881574,40.535355 c 0.0018,0.228026 0.0037,0.455983 -0.0642,0.643923 -0.06787,0.187941 -0.205138,0.335608 -0.342628,0.483514"
         id="path5001"
         inkscape:path-effect="#path-effect5023"
         inkscape:original-d="m 39.881574,40.535355 c 0.0021,0.228024 0.0039,0.455981 0.0055,0.68387 -0.137298,0.148248 -0.274566,0.295916 -0.41233,0.443567"
         sodipodi:nodetypes="ccc" />
    </g>
    <g
       id="g5031"
       transform="translate(29.104179)">
      <circle
         style="opacity:0.999536;fill:#000000;fill-opacity:1;fill-rule:evenodd;stroke:#000000;stroke-width:0.264583;stroke-linecap:round;stroke-linejoin:round;stroke-miterlimit:4;stroke-dasharray:none;stroke-dashoffset:0.529167;stroke-opacity:1"
         id="circle5025"
         cx="47.076477"
         cy="38.847538"
         r="0.13492399" />
      <circle
         style="opacity:0.999536;fill:#000000;fill-opacity:1;fill-rule:evenodd;stroke:#000000;stroke-width:0.264583;stroke-linecap:round;stroke-linejoin:round;stroke-miterlimit:4;stroke-dasharray:none;stroke-dashoffset:0.529167;stroke-opacity:1"
         id="circle5027"
         cx="48.134811"
         cy="38.847538"
         r="0.13492399" />
      <circle
         style="opacity:0.999536;fill:#000000;fill-opacity:1;fill-rule:evenodd;stroke:#000000;stroke-width:0.264583;stroke-linecap:round;stroke-linejoin:round;stroke-miterlimit:4;stroke-dasharray:none;stroke-dashoffset:0.529167;stroke-opacity:1"
         id="circle5029"
         cx="49.193146"
         cy="38.847538"
         r="0.13492399" />
    </g>
    <g
       id="g5039"
       transform="translate(42.333354)">
      <circle
         style="opacity:0.999536;fill:#000000;fill-opacity:1;fill-rule:evenodd;stroke:#000000;stroke-width:0.264583;stroke-linecap:round;stroke-linejoin:round;stroke-miterlimit:4;stroke-dasharray:none;stroke-dashoffset:0.529167;stroke-opacity:1"
         id="circle5033"
         cx="47.076477"
         cy="38.847538"
         r="0.13492399" />
      <circle
         style="opacity:0.999536;fill:#000000;fill-opacity:1;fill-rule:evenodd;stroke:#000000;stroke-width:0.264583;stroke-linecap:round;stroke-linejoin:round;stroke-miterlimit:4;stroke-dasharray:none;stroke-dashoffset:0.529167;stroke-opacity:1"
         id="circle5035"
         cx="48.134811"
         cy="38.847538"
         r="0.13492399" />
      <circle
         style="opacity:0.999536;fill:#000000;fill-opacity:1;fill-rule:evenodd;stroke:#000000;stroke-width:0.264583;stroke-linecap:round;stroke-linejoin:round;stroke-miterlimit:4;stroke-dasharray:none;stroke-dashoffset:0.529167;stroke-opacity:1"
         id="circle5037"
         cx="49.193146"
         cy="38.847538"
         r="0.13492399" />
    </g>
    <g
       id="g5047"
       transform="translate(46.56669)">
      <circle
         style="opacity:0.999536;fill:#000000;fill-opacity:1;fill-rule:evenodd;stroke:#000000;stroke-width:0.264583;stroke-linecap:round;stroke-linejoin:round;stroke-miterlimit:4;stroke-dasharray:none;stroke-dashoffset:0.529167;stroke-opacity:1"
         id="circle5041"
         cx="47.076477"
         cy="38.847538"
         r="0.13492399" />
      <circle
         style="opacity:0.999536;fill:#000000;fill-opacity:1;fill-rule:evenodd;stroke:#000000;stroke-width:0.264583;stroke-linecap:round;stroke-linejoin:round;stroke-miterlimit:4;stroke-dasharray:none;stroke-dashoffset:0.529167;stroke-opacity:1"
         id="circle5043"
         cx="48.134811"
         cy="38.847538"
         r="0.13492399" />
      <circle
         style="opacity:0.999536;fill:#000000;fill-opacity:1;fill-rule:evenodd;stroke:#000000;stroke-width:0.264583;stroke-linecap:round;stroke-linejoin:round;stroke-miterlimit:4;stroke-dasharray:none;stroke-dashoffset:0.529167;stroke-opacity:1"
         id="circle5045"
         cx="49.193146"
         cy="38.847538"
         r="0.13492399" />
    </g>
    <g
       id="g5059"
       transform="translate(61.527473)">
      <path
         style="fill:none;stroke:#000000;stroke-width:0.529167;stroke-linecap:round;stroke-linejoin:miter;stroke-miterlimit:4;stroke-dasharray:none;stroke-opacity:1"
         d="m 36.050927,36.839621 c -0.320129,0.676764 -0.640301,1.353622 -0.640199,2.029856 1.03e-4,0.676234 0.320087,1.35083 0.640199,2.025693"
         id="path5049"
         inkscape:path-effect="#path-effect5063"
         inkscape:original-d="m 36.050927,36.839621 c -0.31981,0.676915 -0.639982,1.353773 -0.960518,2.030573 0.320536,0.675463 0.64052,1.350059 0.960518,2.024976"
         sodipodi:nodetypes="ccc" />
      <path
         style="fill:none;stroke:#000000;stroke-width:0.529167;stroke-linecap:round;stroke-linejoin:miter;stroke-miterlimit:4;stroke-dasharray:none;stroke-opacity:1"
         d="m 51.866777,36.839621 c 0.320129,0.676764 0.640301,1.353622 0.640199,2.029856 -1.03e-4,0.676234 -0.320087,1.35083 -0.640199,2.025693"
         id="path5051"
         inkscape:path-effect="#path-effect5067"
         inkscape:original-d="m 51.866777,36.839621 c 0.31981,0.676915 0.639982,1.353773 0.960518,2.030573 -0.320536,0.675463 -0.64052,1.350059 -0.960518,2.024976"
         sodipodi:nodetypes="ccc" />
      <path
         style="fill:none;stroke:#000000;stroke-width:0.396875;stroke-linecap:round;stroke-linejoin:miter;stroke-miterlimit:4;stroke-dasharray:none;stroke-opacity:1"
         d="m 36.905078,39.917053 c 0.654571,0 1.308875,0 1.962917,0"
         id="path5053"
         inkscape:path-effect="#path-effect5071"
         inkscape:original-d="m 36.905078,39.917053 c 0.654571,2.64e-4 1.308875,2.64e-4 1.962917,0" />
      <path
         style="fill:none;stroke:#000000;stroke-width:0.396875;stroke-linecap:round;stroke-linejoin:miter;stroke-miterlimit:4;stroke-dasharray:none;stroke-opacity:1"
         d="m 49.075919,39.917053 c 0.654571,0 1.308875,0 1.962917,0"
         id="path5055"
         inkscape:path-effect="#path-effect5075"
         inkscape:original-d="m 49.075919,39.917053 c 0.654571,2.64e-4 1.308875,2.64e-4 1.962917,0" />
      <path
         style="fill:none;stroke:#000000;stroke-width:0.396875;stroke-linecap:round;stroke-linejoin:miter;stroke-miterlimit:4;stroke-dasharray:none;stroke-opacity:1"
         d="m 39.881574,40.535355 c 0.0018,0.228026 0.0037,0.455983 -0.0642,0.643923 -0.06787,0.187941 -0.205138,0.335608 -0.342628,0.483514"
         id="path5057"
         inkscape:path-effect="#path-effect5079"
         inkscape:original-d="m 39.881574,40.535355 c 0.0021,0.228024 0.0039,0.455981 0.0055,0.68387 -0.137298,0.148248 -0.274566,0.295916 -0.41233,0.443567"
         sodipodi:nodetypes="ccc" />
      <g
         id="g5047-3"
         transform="translate(-6.0205584,1.1486373)">
        <circle
           style="opacity:0.999536;fill:#000000;fill-opacity:1;fill-rule:evenodd;stroke:#000000;stroke-width:0.264583;stroke-linecap:round;stroke-linejoin:round;stroke-miterlimit:4;stroke-dasharray:none;stroke-dashoffset:0.529167;stroke-opacity:1"
           id="circle5041-6"
           cx="47.076477"
           cy="38.847538"
           r="0.13492399" />
        <circle
           style="opacity:0.999536;fill:#000000;fill-opacity:1;fill-rule:evenodd;stroke:#000000;stroke-width:0.264583;stroke-linecap:round;stroke-linejoin:round;stroke-miterlimit:4;stroke-dasharray:none;stroke-dashoffset:0.529167;stroke-opacity:1"
           id="circle5043-7"
           cx="48.134811"
           cy="38.847538"
           r="0.13492399" />
        <circle
           style="opacity:0.999536;fill:#000000;fill-opacity:1;fill-rule:evenodd;stroke:#000000;stroke-width:0.264583;stroke-linecap:round;stroke-linejoin:round;stroke-miterlimit:4;stroke-dasharray:none;stroke-dashoffset:0.529167;stroke-opacity:1"
           id="circle5045-5"
           cx="49.193146"
           cy="38.847538"
           r="0.13492399" />
      </g>
      <path
         style="fill:none;stroke:#000000;stroke-width:0.396875;stroke-linecap:round;stroke-linejoin:miter;stroke-miterlimit:4;stroke-dasharray:none;stroke-opacity:1"
         d="m 48.348246,40.535355 c 0.0018,0.228026 0.0037,0.455983 -0.0642,0.643923 -0.06787,0.187941 -0.205138,0.335608 -0.342628,0.483514"
         id="path5081"
         inkscape:path-effect="#path-effect5085"
         inkscape:original-d="m 48.348246,40.535355 c 0.0021,0.228024 0.0039,0.455981 0.0055,0.68387 -0.137298,0.148248 -0.274566,0.295916 -0.41233,0.443567"
         sodipodi:nodetypes="ccc" />
      <g
         id="g5250"
         transform="translate(-2.3163915,1.1486373)">
        <circle
           style="opacity:0.999536;fill:#000000;fill-opacity:1;fill-rule:evenodd;stroke:#000000;stroke-width:0.264583;stroke-linecap:round;stroke-linejoin:round;stroke-miterlimit:4;stroke-dasharray:none;stroke-dashoffset:0.529167;stroke-opacity:1"
           id="circle5244"
           cx="47.076477"
           cy="38.847538"
           r="0.13492399" />
        <circle
           style="opacity:0.999536;fill:#000000;fill-opacity:1;fill-rule:evenodd;stroke:#000000;stroke-width:0.264583;stroke-linecap:round;stroke-linejoin:round;stroke-miterlimit:4;stroke-dasharray:none;stroke-dashoffset:0.529167;stroke-opacity:1"
           id="circle5246"
           cx="48.134811"
           cy="38.847538"
           r="0.13492399" />
        <circle
           style="opacity:0.999536;fill:#000000;fill-opacity:1;fill-rule:evenodd;stroke:#000000;stroke-width:0.264583;stroke-linecap:round;stroke-linejoin:round;stroke-miterlimit:4;stroke-dasharray:none;stroke-dashoffset:0.529167;stroke-opacity:1"
           id="circle5248"
           cx="49.193146"
           cy="38.847538"
           r="0.13492399" />
      </g>
    </g>
    <path
       style="fill:none;stroke:#000000;stroke-width:0.264583;stroke-linecap:round;stroke-linejoin:miter;stroke-miterlimit:4;stroke-dasharray:none;stroke-opacity:1"
       d="m 35.326338,41.759158 c 0,0.639548 0,1.278819 3.363706,1.598335 3.363706,0.319516 10.090586,0.319516 13.45396,0.0034 3.363375,-0.316149 3.363375,-0.948683 3.363375,-1.581498"
       id="path5619"
       inkscape:path-effect="#path-effect5621"
       inkscape:original-d="m 35.326338,41.759158 c 2.65e-4,0.639548 2.65e-4,1.278819 0,1.917851 6.727412,2.65e-4 13.454292,2.65e-4 20.181041,0 2.64e-4,-0.632299 2.64e-4,-1.264833 0,-1.897648"
       sodipodi:nodetypes="cccc" />
    <g
       id="g12993">
      <text
         xml:space="preserve"
         style="font-size:5.64444px;line-height:1.25;font-family:'Patrick Hand';-inkscape-font-specification:'Patrick Hand';stroke-width:0.264583"
         x="42.609364"
         y="48.702316"
         id="text8202"><tspan
           sodipodi:role="line"
           id="tspan8200"
           style="stroke-width:0.264583"
           x="42.609364"
           y="48.702316">k</tspan></text>
      <text
         xml:space="preserve"
         style="font-size:2.82222px;line-height:1.25;font-family:'Patrick Hand';-inkscape-font-specification:'Patrick Hand';stroke-width:0.264583"
         x="44.994823"
         y="49.495823"
         id="text10186"><tspan
           sodipodi:role="line"
           id="tspan10184"
           style="font-size:2.82222px;stroke-width:0.264583"
           x="44.994823"
           y="49.495823">1</tspan></text>
    </g>
    <path
       style="fill:none;stroke:#000000;stroke-width:0.264583;stroke-linecap:round;stroke-linejoin:miter;stroke-miterlimit:4;stroke-dasharray:none;stroke-opacity:1"
       d="m 56.493018,41.759158 c 0,0.639548 0,1.278819 5.280379,1.598335 5.280379,0.319516 15.840215,0.319516 21.120344,0.0034 5.280128,-0.316149 5.280128,-0.948683 5.280128,-1.581498"
       id="path13083"
       inkscape:path-effect="#path-effect13087"
       inkscape:original-d="m 56.493018,41.759158 c 2.65e-4,0.639548 2.65e-4,1.278819 0,1.917851 10.560758,2.65e-4 21.120594,2.65e-4 31.680851,0 2.64e-4,-0.632299 2.64e-4,-1.264833 0,-1.897648"
       sodipodi:nodetypes="cccc" />
    <g
       id="g13097"
       transform="translate(26.987511)">
      <text
         xml:space="preserve"
         style="font-size:5.64444px;line-height:1.25;font-family:'Patrick Hand';-inkscape-font-specification:'Patrick Hand';stroke-width:0.264583"
         x="42.609364"
         y="48.702316"
         id="text13091"><tspan
           sodipodi:role="line"
           id="tspan13089"
           style="stroke-width:0.264583"
           x="42.609364"
           y="48.702316">k</tspan></text>
      <text
         xml:space="preserve"
         style="font-size:2.82222px;line-height:1.25;font-family:'Patrick Hand';-inkscape-font-specification:'Patrick Hand';stroke-width:0.264583"
         x="44.994823"
         y="49.495823"
         id="text13095"><tspan
           sodipodi:role="line"
           id="tspan13093"
           style="font-size:2.82222px;stroke-width:0.264583"
           x="44.994823"
           y="49.495823">2</tspan></text>
    </g>
    <path
       style="fill:none;stroke:#000000;stroke-width:0.264583;stroke-linecap:round;stroke-linejoin:miter;stroke-miterlimit:4;stroke-dasharray:none;stroke-opacity:1"
       d="m 96.180543,41.759158 c 0,0.639548 0,1.278819 3.021808,1.598335 3.021809,0.319516 9.064799,0.319516 12.086359,0.0034 3.02156,-0.31615 3.02156,-0.948683 3.02156,-1.581498"
       id="path14590"
       inkscape:path-effect="#path-effect14594"
       inkscape:original-d="m 96.180543,41.759158 c 2.65e-4,0.639548 2.65e-4,1.278819 0,1.917851 6.043617,2.65e-4 12.086607,2.65e-4 18.129727,0 2.7e-4,-0.6323 2.7e-4,-1.264833 0,-1.897648"
       sodipodi:nodetypes="cccc" />
    <g
       id="g14604"
       transform="translate(61.383366)">
      <text
         xml:space="preserve"
         style="font-size:5.64444px;line-height:1.25;font-family:'Patrick Hand';-inkscape-font-specification:'Patrick Hand';stroke-width:0.264583"
         x="42.609364"
         y="48.702316"
         id="text14598"><tspan
           sodipodi:role="line"
           id="tspan14596"
           style="stroke-width:0.264583"
           x="42.609364"
           y="48.702316">k</tspan></text>
      <text
         xml:space="preserve"
         style="font-size:2.82222px;line-height:1.25;font-family:'Patrick Hand';-inkscape-font-specification:'Patrick Hand';stroke-width:0.264583"
         x="44.994823"
         y="49.495823"
         id="text14602"><tspan
           sodipodi:role="line"
           id="tspan14600"
           style="font-size:2.82222px;stroke-width:0.264583"
           x="44.994823"
           y="49.495823">n</tspan><tspan
           sodipodi:role="line"
           style="font-size:2.82222px;stroke-width:0.264583"
           x="44.994823"
           y="53.023598"
           id="tspan15399" /></text>
    </g>
    <text
       xml:space="preserve"
       style="font-size:2.82222px;line-height:1.25;font-family:'Patrick Hand';-inkscape-font-specification:'Patrick Hand';stroke-width:0.264583"
       x="99.781059"
       y="38.576538"
       id="text19069"><tspan
         sodipodi:role="line"
         id="tspan19067"
         style="font-size:2.82222px;stroke-width:0.264583"
         x="99.781059"
         y="38.576538">n elements </tspan></text>
  </g>
</svg>
