<?xml version="1.0" encoding="UTF-8" standalone="no"?>
<!-- Created with Inkscape (http://www.inkscape.org/) -->

<svg
   width="174.99464"
   height="110.08739"
   viewBox="0 0 46.300665 29.127291"
   version="1.1"
   id="svg5"
   inkscape:version="1.1.2 (0a00cf5339, 2022-02-04)"
   sodipodi:docname="drawing.svg"
   xmlns:inkscape="http://www.inkscape.org/namespaces/inkscape"
   xmlns:sodipodi="http://sodipodi.sourceforge.net/DTD/sodipodi-0.dtd"
   xmlns="http://www.w3.org/2000/svg"
   xmlns:svg="http://www.w3.org/2000/svg">
  <sodipodi:namedview
     id="namedview7"
     pagecolor="#ffffff"
     bordercolor="#666666"
     borderopacity="1.0"
     inkscape:pageshadow="2"
     inkscape:pageopacity="0.0"
     inkscape:pagecheckerboard="true"
     inkscape:document-units="px"
     showgrid="false"
     units="px"
     inkscape:zoom="4.7179575"
     inkscape:cx="101.52699"
     inkscape:cy="59.66565"
     inkscape:window-width="1874"
     inkscape:window-height="1051"
     inkscape:window-x="46"
     inkscape:window-y="0"
     inkscape:window-maximized="1"
     inkscape:current-layer="layer1" />
  <defs
     id="defs2" />
  <g
     inkscape:label="Layer 1"
     inkscape:groupmode="layer"
     id="layer1"
     transform="translate(-16.800208,-57.148307)">
    <circle
       style="opacity:0.999536;fill:none;fill-rule:evenodd;stroke:#000000;stroke-width:0.529167;stroke-linecap:round;stroke-linejoin:round"
       id="path843"
       cx="32.649155"
       cy="72.489197"
       r="13.521817" />
    <circle
       style="opacity:0.999536;fill:none;fill-rule:evenodd;stroke:#000000;stroke-width:0.529167;stroke-linecap:round;stroke-linejoin:round"
       id="circle947"
       cx="47.465836"
       cy="72.489197"
       r="13.521817" />
    <text
       xml:space="preserve"
       style="font-size:7.05556px;line-height:1.25;font-family:'Patrick Hand';-inkscape-font-specification:'Patrick Hand';stroke-width:0.264583"
       x="16.546207"
       y="62.19537"
       id="text2425"><tspan
         sodipodi:role="line"
         id="tspan2423"
         style="stroke-width:0.264583"
         x="16.546207"
         y="62.19537">D<tspan
   style="font-size:65%;baseline-shift:sub"
   id="tspan2769">1</tspan></tspan></text>
    <text
       xml:space="preserve"
       style="font-size:7.05556px;line-height:1.25;font-family:'Patrick Hand';-inkscape-font-specification:'Patrick Hand';stroke-width:0.264583"
       x="57.6628"
       y="61.819088"
       id="text2855"><tspan
         sodipodi:role="line"
         id="tspan2853"
         style="stroke-width:0.264583"
         x="57.6628"
         y="61.819088">D<tspan
   style="font-size:65%;baseline-shift:sub"
   id="tspan2851">2</tspan></tspan></text>
    <text
       xml:space="preserve"
       style="font-size:7.05556px;line-height:1.25;font-family:'Patrick Hand';-inkscape-font-specification:'Patrick Hand';stroke-width:0.264583"
       x="36.391487"
       y="74.945084"
       id="text3641"><tspan
         sodipodi:role="line"
         id="tspan3639"
         style="stroke-width:0.264583"
         x="36.391487"
         y="74.945084">D<tspan
   style="font-size:65%;baseline-shift:sub"
   id="tspan3637">12</tspan></tspan></text>
  </g>
</svg>
